serdes_test/.Xil/Vivado-13696-21-10244/hw_ila_data_1/zip_work/waveform.vcd
$date
        2021-Aug-23 11:02:13
$end
$version
        Vivado v2020.2 (64-bit)
$end
$timescale
        1ps
$end
$scope module dut $end
$var reg 64 " dout [63:0] $end
$var reg 64 b gt0_rxdata_i [63:0] $end
$var reg 64 D" prbs_from_check [63:0] $end
$var reg 64 &# errorBits [63:0] $end
$var reg 10 f# alignAddr [9:0] $end
$var reg 24 p# tot_err_count [23:0] $end
$var reg 9 *$ searchedFrames [8:0] $end
$var reg 4 3$ foundFrames [3:0] $end
$var reg 7 7$ errorCounter [6:0] $end
$var reg 1 >$ aligned $end
$var reg 1 ?$ bypass $end
$var reg 1 @$ errorFlag $end
$var reg 1 A$ gt0_rxusrclk2_i $end
$var reg 1 B$ _TRIGGER $end
$var reg 1 C$ _WINDOW $end
$var reg 1 D$ _GAP $end
$upscope $end
$enddefinitions $end
#0
$dumpvars
b10111110010101110011010001001111000101000011000001000000111111 "
b110011010011101110100101000010110011100110000100000011001100000 b
b1010101001100111011101001011000110111101101011011001001000111000 D"
b0 &#
b11 f#
b110111001110110 p#
b0 *$
b1100 3$
b0 7$
1>$
0?$
0@$
0A$
0B$
1C$
0D$
$end
#1
b1101010100110011101110100101100011011110110101101100100100011100 "
b1001101010100010111110110100111101010111000110010101111011000100 b
b10111110010101110011010001001111000101000011000001000000111111 D"
#2
b1011111001010111001101000100111100010100001100000100000011111 "
b100111011101001110000101100110110100000110000100111001000111 b
b1101010100110011101110100101100011011110110101101100100100011100 D"
#3
b1110101010011001110111010010110001101111011010110110010010001110 "
b1111101001011111110101001110010101100001111011011010110001010110 b
b1011111001010111001101000100111100010100001100000100000011111 D"
#4
b101111100101011100110100010011110001010000110000010000001111 "
b1100110110111011101001011000101100110001100001001000110001000001 b
b1110101010011001110111010010110001101111011010110110010010001110 D"
#5
b1111010101001100111011101001011000110111101101011011001001000111 "
b1011110111000101011101100001111000101110101110101011010100001000 b
b101111100101011100110100010011110001010000110000010000001111 D"
#6
b1000010111110010101110011010001001111000101000011000001000000111 "
b1001101110110010011110001011001101101000001100001001010000001111 b
b1111010101001100111011101001011000110111101101011011001001000111 D"
#7
b1111101010100110011101110100101100011011110110101101100100100011 "
b1111110000111111001010011100101011001011110110110101100010100100 b
b1000010111110010101110011010001001111000101000011000001000000111 D"
#8
b1100001011111001010111001101000100111100010100001100000100000011 "
b1001001101111111110000110001011011100011000000010001000010000011 b
b1111101010100110011101110100101100011011110110101101100100100011 D"
#9
b1111110101010011001110111010010110001101111011010110110010010001 "
b1111001110000010111011001011110011010101111101011110001000010001 b
b1100001011111001010111001101000100111100010100001100000100000011 D"
#10
b1110000101111100101011100110100010011110001010000110000010000001 "
b11011111100100011100010110111001010000011010010010000000010111 b
b1111110101010011001110111010010110001101111011010110110010010001 D"
#11
b1111111010101001100111011101001011000110111101101011011001001000 "
b111000001111110110100111001010100011111001111100011100101001001 b
b1110000101111100101011100110100010011110001010000110000010000001 D"
#12
b111000010111110010101110011010001001111000101000011000001000000 "
b10011001110111000011101010110101000110100010100010000100000111 b
b1111111010101001100111011101001011000110111101101011011001001000 D"
#13
b111111101010100110011101110100101100011011110110101101100100100 "
b110011110001101010100010111100110100011111010111100110010101011 b
b111000010111110010101110011010001001111000101000011000001000000 D"
#14
b11100001011111001010111001101000100111100010100001100000100000 "
b110111101000000111010101101110000101000110110100100100000100111 b
b111111101010100110011101110100101100011011110110101101100100100 D"
#15
b11111110101010011001110111010010110001101111011010110110010010 "
b110000011111101001011111010101000110110111101001111001010010010 b
b11100001011111001010111001101000100111100010100001100000100000 D"
#16
b1110000101111100101011100110100010011110001010000110000010000 "
b1100010001100110100111011101001010000101100111001100001000000110 b
b11111110101010011001110111010010110001101111011010110110010010 D"
#17
b1111111010101001100111011101001011000110111101101011011001001 "
b100011110011010101000101111101101001111010101110001100101011110 b
b1110000101111100101011100110100010011110001010000110000010000 D"
#18
b1000111000010111110010101110011010001001111000101000011000001000 "
b101011000001001110111010011100001011001101101000001100001001110 b
b1111111010101001100111011101001011000110111101101011011001001 D"
#19
b111111101010100110011101110100101100011011110110101101100100 "
b100000111111010010111111101010011100101011000011110110110101100 b
b1000111000010111110010101110011010001001111000101000011000001000 D"
#20
b100011100001011111001010111001101000100111100010100001100000100 "
b100011001101101110111010010110001011001100011000010010001100 b
b111111101010100110011101110100101100011011110110101101100100 D"
#21
b11111110101010011001110111010010110001101111011010110110010 "
b111110111101110001010111011000011110001011101011101010110101 b
b100011100001011111001010111001101000100111100010100001100000100 D"
#22
b10001110000101111100101011100110100010011110001010000110000010 "
b1010010010011011101100100111100010110011011010000011000010010100 b
b11111110101010011001110111010010110001101111011010110110010 D"
#23
b1111111010101001100111011101001011000110111101101011011001 "
b1000001111111100001111110010100111001010110010111101101101011000 b
b10001110000101111100101011100110100010011110001010000110000010 D"
#24
b1001000111000010111110010101110011010001001111000101000011000001 "
b1000110010011011111111100001100010110111000110000000100010000 b
b1111111010101001100111011101001011000110111101101011011001 D"
#25
b1000000111111101010100110011101110100101100011011110110101101100 "
b1011111110011100000101110110010111100110101011111010111100010 b
b1001000111000010111110010101110011010001001111000101000011000001 D"
#26
b100100011100001011111001010111001101000100111100010100001100000 "
b100100100110111111001000111000101101110010100000110100100100000 b
b1000000111111101010100110011101110100101100011011110110101101100 D"
#27
b100000011111110101010011001110111010010110001101111011010110110 "
b11101110000011111101101001110010101000111110011111000111001 b
b100100011100001011111001010111001101000100111100010100001100000 D"
#28
b10010001110000101111100101011100110100010011110001010000110000 "
b1010101100100110011101110000111010101101010001101000101000100001 b
b100000011111110101010011001110111010010110001101111011010110110 D"
#29
b10000001111111010101001100111011101001011000110111101101011011 "
b10011101100111100011010101000101111001101000111110101111001100 b
b10010001110000101111100101011100110100010011110001010000110000 D"
#30
b1001001000111000010111110010101110011010001001111000101000011000 "
b1001001001101111010000001110101011011100001010001101101001001000 b
b10000001111111010101001100111011101001011000110111101101011011 D"
#31
b1000000111111101010100110011101110100101100011011110110101101 "
b11001100000111111010010111110101010001101101111010011110010 b
b1001001000111000010111110010101110011010001001111000101000011000 D"
#32
b1100100100011100001011111001010111001101000100111100010100001100 "
b101111011000100011001101001110111010010100001011001110011000010 b
b1000000111111101010100110011101110100101100011011110110101101 D"
#33
b100000011111110101010011001110111010010110001101111011010110 "
b100111001000111100110101010001011111011010011110101011100011001 b
b1100100100011100001011111001010111001101000100111100010100001100 D"
#34
b110010010001110000101111100101011100110100010011110001010000110 "
b1010110001010110000010011101110100111000010110011011010000011000 b
b100000011111110101010011001110111010010110001101111011010110 D"
#35
b10000001111111010101001100111011101001011000110111101101011 "
b1000110001000001111110100101111111010100111001010110000111101101 b
b110010010001110000101111100101011100110100010011110001010000110 D"
#36
b1011001001000111000010111110010101110011010001001111000101000011 "
b1011010100001000110011011011101110100101100010110011000110000100 b
b10000001111111010101001100111011101001011000110111101101011 D"
#37
b1000001000000111111101010100110011101110100101100011011110110101 "
b1001010000001111101111011100010101110110000111100010111010111010 b
b1011001001000111000010111110010101110011010001001111000101000011 D"
#38
b1101100100100011100001011111001010111001101000100111100010100001 "
b101100010100100100110111011001001111000101100110110100000110000 b
b1000001000000111111101010100110011101110100101100011011110110101 D"
#39
b1100000100000011111110101010011001110111010010110001101111011010 "
b1000010000011111111000011111100101001110010101100101111011011 b
b1101100100100011100001011111001010111001101000100111100010100001 D"
#40
b110110010010001110000101111100101011100110100010011110001010000 "
b1110001000010001100100110111111111000011000101101110001100000001 b
b1100000100000011111110101010011001110111010010110001101111011010 D"
#41
b110000010000001111111010101001100111011101001011000110111101101 "
b10000000010111111100111000001011101100101111001101010111110101 b
b110110010010001110000101111100101011100110100010011110001010000 D"
#42
b1011011001001000111000010111110010101110011010001001111000101000 "
b11100101001001001101111110010001110001011011100101000001101001 b
b110000010000001111111010101001100111011101001011000110111101101 D"
#43
b11000001000000111111101010100110011101110100101100011011110110 "
b10000100000111011100000111111011010011100101010001111100111110 b
b1011011001001000111000010111110010101110011010001001111000101000 D"
#44
b101101100100100011100001011111001010111001101000100111100010100 "
b1100110010101011001001100111011100001110101011010100011010001010 b
b11000001000000111111101010100110011101110100101100011011110110 D"
#45
b1100000100000011111110101010011001110111010010110001101111011 "
b100100000100111011001111000110101010001011110011010001111101011 b
b101101100100100011100001011111001010111001101000100111100010100 D"
#46
b1010110110010010001110000101111100101011100110100010011110001010 "
b1111001010010010011011110100000011101010110111000010100011011010 b
b1100000100000011111110101010011001110111010010110001101111011 D"
#47
b110000010000001111111010101001100111011101001011000110111101 "
b1100001000000110011000001111110100101111101010100011011011110100 b
b1010110110010010001110000101111100101011100110100010011110001010 D"
#48
b1101011011001001000111000010111110010101110011010001001111000101 "
b1100101011110110001000110011010011101110100101000010110011100 b
b110000010000001111111010101001100111011101001011000110111101 D"
#49
b1000011000001000000111111101010100110011101110100101100011011110 "
b1100001001110010001111001101010100010111110110100111101010111 b
b1101011011001001000111000010111110010101110011010001001111000101 D"
#50
b110101101100100100011100001011111001010111001101000100111100010 "
b1110110110101100010101100000100111011101001110000101100110110100 b
b1000011000001000000111111101010100110011101110100101100011011110 D"
#51
b100001100000100000011111110101010011001110111010010110001101111 "
b1000010010001100010000011111101001011111110101001110010101100001 b
b110101101100100100011100001011111001010111001101000100111100010 D"
#52
b1011010110110010010001110000101111100101011100110100010011110001 "
b1011101010110101000010001100110110111011101001011000101100110001 b
b100001100000100000011111110101010011001110111010010110001101111 D"
#53
b1010000110000010000001111111010101001100111011101001011000110111 "
b11000010010100000011111011110111000101011101100001111000101110 b
b1011010110110010010001110000101111100101011100110100010011110001 D"
#54
b1101101011011001001000111000010111110010101110011010001001111000 "
b1101101101011000101001001001101110110010011110001011001101101000 b
b1010000110000010000001111111010101001100111011101001011000110111 D"
#55
b101000011000001000000111111101010100110011101110100101100011011 "
b100010000100000111111110000111111001010011100101011001011 b
b1101101011011001001000111000010111110010101110011010001001111000 D"
#56
b1110110101101100100100011100001011111001010111001101000100111100 "
b1111010111100010000100011001001101111111110000110001011011100011 b
b101000011000001000000111111101010100110011101110100101100011011 D"
#57
b10100001100000100000011111110101010011001110111010010110001101 "
b110100100100000000101111111001110000010111011001011110011010101 b
b1110110101101100100100011100001011111001010111001101000100111100 D"
#58
b1111011010110110010010001110000101111100101011100110100010011110 "
b11111000111001010010010011011111100100011100010110111001010000 b
b10100001100000100000011111110101010011001110111010010110001101 D"
#59
b1010000110000010000001111111010101001100111011101001011000110 "
b1000101000100001000001110111000001111110110100111001010100011111 b
b1111011010110110010010001110000101111100101011100110100010011110 D"
#60
b111101101011011001001000111000010111110010101110011010001001111 "
b1110101111001100101010110010011001110111000011101010110101000110 b
b1010000110000010000001111111010101001100111011101001011000110 D"
#61
b1000101000011000001000000111111101010100110011101110100101100011 "
b1101101001001000001001110110011110001101010100010111100110100011 b
b111101101011011001001000111000010111110010101110011010001001111 D"
#62
b1011110110101101100100100011100001011111001010111001101000100111 "
b1111010011110010100100100110111101000000111010101101110000101000 b
b1000101000011000001000000111111101010100110011101110100101100011 D"
#63
b1100010100001100000100000011111110101010011001110111010010110001 "
b1001110011000010000001100110000011111101001011111010101000110110 b
b1011110110101101100100100011100001011111001010111001101000100111 D"
#64
b1101111011010110110010010001110000101111100101011100110100010011 "
b101011100011001010111101100010001100110100111011101001010000101 b
b1100010100001100000100000011111110101010011001110111010010110001 D"
#65
b1110001010000110000010000001111111010101001100111011101001011000 "
b1011010000011000010011100100011110011010101000101111101101001111 b
b1101111011010110110010010001110000101111100101011100110100010011 D"
#66
b110111101101011011001001000111000010111110010101110011010001001 "
b110000111101101101011000101011000001001110111010011100001011001 b
b1110001010000110000010000001111111010101001100111011101001011000 D"
#67
b1111000101000011000001000000111111101010100110011101110100101100 "
b11000110000100100011000100000111111010010111111101010011100101 b
b110111101101011011001001000111000010111110010101110011010001001 D"
#68
b11011110110101101100100100011100001011111001010111001101000100 "
b10111010111010101101010000100011001101101110111010010110001011 b
b1111000101000011000001000000111111101010100110011101110100101100 D"
#69
b111100010100001100000100000011111110101010011001110111010010110 "
b110100000110000100101000000111110111101110001010111011000011110 b
b11011110110101101100100100011100001011111001010111001101000100 D"
#70
b1101111011010110110010010001110000101111100101011100110100010 "
b1100101111011011010110001010010010011011101100100111100010110011 b
b111100010100001100000100000011111110101010011001110111010010110 D"
#71
b11110001010000110000010000001111111010101001100111011101001011 "
b1110001100000001000100001000001111111100001111110010100111001010 b
b1101111011010110110010010001110000101111100101011100110100010 D"
#72
b1000110111101101011011001001000111000010111110010101110011010001 "
b1101010111110101111000100001000110010011011111111100001100010110 b
b11110001010000110000010000001111111010101001100111011101001011 D"
#73
b1001111000101000011000001000000111111101010100110011101110100101 "
b101000001101001001000000001011111110011100000101110110010111100 b
b1000110111101101011011001001000111000010111110010101110011010001 D"
#74
b1100011011110110101101100100100011100001011111001010111001101000 "
b1111100111110001110010100100100110111111001000111000101101110 b
b1001111000101000011000001000000111111101010100110011101110100101 D"
#75
b100111100010100001100000100000011111110101010011001110111010010 "
b100011010001010001000010000011101110000011111101101001110010101 b
b1100011011110110101101100100100011100001011111001010111001101000 D"
#76
b110001101111011010110110010010001110000101111100101011100110100 "
b1010001111101011110011001010101100100110011101110000111010101101 b
b100111100010100001100000100000011111110101010011001110111010010 D"
#77
b10011110001010000110000010000001111111010101001100111011101001 "
b10100011011010010010000010011101100111100011010101000101111001 b
b110001101111011010110110010010001110000101111100101011100110100 D"
#78
b1011000110111101101011011001001000111000010111110010101110011010 "
b11011011110100111100101001001001101111010000001110101011011100 b
b10011110001010000110000010000001111111010101001100111011101001 D"
#79
b1001111000101000011000001000000111111101010100110011101110100 "
b1000010110011100110000100000011001100000111111010010111110101010 b
b1011000110111101101011011001001000111000010111110010101110011010 D"
#80
b101100011011110110101101100100100011100001011111001010111001101 "
b100111101010111000110010101111011000100011001101001110111010010 b
b1001111000101000011000001000000111111101010100110011101110100 D"
#81
b1000100111100010100001100000100000011111110101010011001110111010 "
b101100110110100000110000100111001000111100110101010001011111011 b
b101100011011110110101101100100100011100001011111001010111001101 D"
#82
b10110001101111011010110110010010001110000101111100101011100110 "
b1110010101100001111011011010110001010110000010011101110100111000 b
b1000100111100010100001100000100000011111110101010011001110111010 D"
#83
b100010011110001010000110000010000001111111010101001100111011101 "
b1000101100110001100001001000110001000001111110100101111111010100 b
b10110001101111011010110110010010001110000101111100101011100110 D"
#84
b1001011000110111101101011011001001000111000010111110010101110011 "
b1111000101110101110101011010100001000110011011011101110100101 b
b100010011110001010000110000010000001111111010101001100111011101 D"
#85
b1010001001111000101000011000001000000111111101010100110011101110 "
b1011001101101000001100001001010000001111101111011100010101110110 b
b1001011000110111101101011011001001000111000010111110010101110011 D"
#86
b100101100011011110110101101100100100011100001011111001010111001 "
b1100101011001011110110110101100010100100100110111011001001111000 b
b1010001001111000101000011000001000000111111101010100110011101110 D"
#87
b1101000100111100010100001100000100000011111110101010011001110111 "
b1011011100011000000010001000010000011111111000011111100101001 b
b100101100011011110110101101100100100011100001011111001010111001 D"
#88
b1010010110001101111011010110110010010001110000101111100101011100 "
b1011110011010101111101011110001000010001100100110111111111000011 b
b1101000100111100010100001100000100000011111110101010011001110111 D"
#89
b110100010011110001010000110000010000001111111010101001100111011 "
b110111001010000011010010010000000010111111100111000001011101100 b
b1010010110001101111011010110110010010001110000101111100101011100 D"
#90
b1101001011000110111101101011011001001000111000010111110010101110 "
b1001010100011111001111100011100101001001001101111110010001110001 b
b110100010011110001010000110000010000001111111010101001100111011 D"
#91
b11010001001111000101000011000001000000111111101010100110011101 "
b1010110101000110100010100010000100000111011100000111111011010011 b
b1101001011000110111101101011011001001000111000010111110010101110 D"
#92
b1110100101100011011110110101101100100100011100001011111001010111 "
b111100110100011111010111100110010101011001001100111011100001110 b
b11010001001111000101000011000001000000111111101010100110011101 D"
#93
b1001101000100111100010100001100000100000011111110101010011001110 "
b1101110000101000110110100100100000100111011001111000110101010001 b
b1110100101100011011110110101101100100100011100001011111001010111 D"
#94
b111010010110001101111011010110110010010001110000101111100101011 "
b1010101000110110111101001111001010010010011011110100000011101010 b
b1001101000100111100010100001100000100000011111110101010011001110 D"
#95
b1100110100010011110001010000110000010000001111111010101001100111 "
b1101001010000101100111001100001000000110011000001111110100101111 b
b111010010110001101111011010110110010010001110000101111100101011 D"
#96
b1011101001011000110111101101011011001001000111000010111110010101 "
b1111101101001111010101110001100101011110110001000110011010011101 b
b1100110100010011110001010000110000010000001111111010101001100111 D"
#97
b1110011010001001111000101000011000001000000111111101010100110011 "
b11100001011001101101000001100001001110010001111001101010100010 b
b1011101001011000110111101101011011001001000111000010111110010101 D"
#98
b1101110100101100011011110110101101100100100011100001011111001010 "
b1101010011100101011000011110110110101100010101100000100111011101 b
b1110011010001001111000101000011000001000000111111101010100110011 D"
#99
b111001101000100111100010100001100000100000011111110101010011001 "
b1010010110001011001100011000010010001100010000011111101001011111 b
b1101110100101100011011110110101101100100100011100001011111001010 D"
#100
b1110111010010110001101111011010110110010010001110000101111100101 "
b111011000011110001011101011101010110101000010001100110110111011 b
b111001101000100111100010100001100000100000011111110101010011001 D"
#101
b1011100110100010011110001010000110000010000001111111010101001100 "
b111100010110011011010000011000010010100000011111011110111000101 b
b1110111010010110001101111011010110110010010001110000101111100101 D"
#102
b111011101001011000110111101101011011001001000111000010111110010 "
b10100111001010110010111101101101011000101001001001101110110010 b
b1011100110100010011110001010000110000010000001111111010101001100 D"
#103
b101110011010001001111000101000011000001000000111111101010100110 "
b1100001100010110111000110000000100010000100000111111110000111111 b
b111011101001011000110111101101011011001001000111000010111110010 D"
#104
b11101110100101100011011110110101101100100100011100001011111001 "
b1110110010111100110101011111010111100010000100011001001101111111 b
b101110011010001001111000101000011000001000000111111101010100110 D"
#105
b1010111001101000100111100010100001100000100000011111110101010011 "
b111000101101110010100000110100100100000000101111111001110000010 b
b11101110100101100011011110110101101100100100011100001011111001 D"
#106
b1001110111010010110001101111011010110110010010001110000101111100 "
b1101001110010101000111110011111000111001010010010011011111100100 b
b1010111001101000100111100010100001100000100000011111110101010011 D"
#107
b101011100110100010011110001010000110000010000001111111010101001 "
b111010101101010001101000101000100001000001110111000001111110 b
b1001110111010010110001101111011010110110010010001110000101111100 D"
#108
b1100111011101001011000110111101101011011001001000111000010111110 "
b101000101111001101000111110101111001100101010110010011001110111 b
b101011100110100010011110001010000110000010000001111111010101001 D"
#109
b10101110011010001001111000101000011000001000000111111101010100 "
b1110101011011100001010001101101001001000001001110110011110001101 b
b1100111011101001011000110111101101011011001001000111000010111110 D"
#110
b110011101110100101100011011110110101101100100100011100001011111 "
b10111110101010001101101111010011110010100100100110111101000000 b
b10101110011010001001111000101000011000001000000111111101010100 D"
#111
b1001010111001101000100111100010100001100000100000011111110101010 "
b1001110111010010100001011001110011000010000001100110000011111101 b
b110011101110100101100011011110110101101100100100011100001011111 D"
#112
b11001110111010010110001101111011010110110010010001110000101111 "
b1010001011111011010011110101011100011001010111101100010001100110 b
b1001010111001101000100111100010100001100000100000011111110101010 D"
#113
b1100101011100110100010011110001010000110000010000001111111010101 "
b1101110100111000010110011011010000011000010011100100011110011010 b
b11001110111010010110001101111011010110110010010001110000101111 D"
#114
b1001100111011101001011000110111101101011011001001000111000010111 "
b101111111010100111001010110000111101101101011000101011000001001 b
b1100101011100110100010011110001010000110000010000001111111010101 D"
#115
b1110010101110011010001001111000101000011000001000000111111101010 "
b1011101110100101100010110011000110000100100011000100000111111010 b
b1001100111011101001011000110111101101011011001001000111000010111 D"
#116
b100110011101110100101100011011110110101101100100100011100001011 "
b1100010101110110000111100010111010111010101101010000100011001101 b
b1110010101110011010001001111000101000011000001000000111111101010 D"
#117
b1111001010111001101000100111100010100001100000100000011111110101 "
b1011001001111000101100110110100000110000100101000000111110111101 b
b100110011101110100101100011011110110101101100100100011100001011 D"
#118
b1010011001110111010010110001101111011010110110010010001110000101 "
b11111100101001110010101100101111011011010110001010010010011011 b
b1111001010111001101000100111100010100001100000100000011111110101 D"
#119
b1111100101011100110100010011110001010000110000010000001111111010 "
b111111111000011000101101110001100000001000100001000001111111100 b
b1010011001110111010010110001101111011010110110010010001110000101 D"
#120
b101001100111011101001011000110111101101011011001001000111000010 "
b1000001011101100101111001101010111110101111000100001000110010011 b
b1111100101011100110100010011110001010000110000010000001111111010 D"
#121
b111110010101110011010001001111000101000011000001000000111111101 "
b1110010001110001011011100101000001101001001000000001011111110011 b
b101001100111011101001011000110111101101011011001001000111000010 D"
#122
b1010100110011101110100101100011011110110101101100100100011100001 "
b111111011010011100101010001111100111110001110010100100100110111 b
b111110010101110011010001001111000101000011000001000000111111101 D"
#123
b1011111001010111001101000100111100010100001100000100000011111110 "
b111011100001110101011010100011010001010001000010000011101110000 b
b1010100110011101110100101100011011110110101101100100100011100001 D"
#124
b101010011001110111010010110001101111011010110110010010001110000 "
b1000110101010001011110011010001111101011110011001010101100100110 b
b1011111001010111001101000100111100010100001100000100000011111110 D"
#125
b101111100101011100110100010011110001010000110000010000001111111 "
b100000011101010110111000010100011011010010010000010011101100111 b
b101010011001110111010010110001101111011010110110010010001110000 D"
#126
b1010101001100111011101001011000110111101101011011001001000111000 "
b1111110100101111101010100011011011110100111100101001001001101111 b
b101111100101011100110100010011110001010000110000010000001111111 D"
#127
b10111110010101110011010001001111000101000011000001000000111111 "
b110011010011101110100101000010110011100110000100000011001100000 b
b1010101001100111011101001011000110111101101011011001001000111000 D"
#128
b1101010100110011101110100101100011011110110101101100100100011100 "
b1001101010100010111110110100111101010111000110010101111011000100 b
b10111110010101110011010001001111000101000011000001000000111111 D"
#129
b1011111001010111001101000100111100010100001100000100000011111 "
b100111011101001110000101100110110100000110000100111001000111 b
b1101010100110011101110100101100011011110110101101100100100011100 D"
#130
b1110101010011001110111010010110001101111011010110110010010001110 "
b1111101001011111110101001110010101100001111011011010110001010110 b
b1011111001010111001101000100111100010100001100000100000011111 D"
#131
b101111100101011100110100010011110001010000110000010000001111 "
b1100110110111011101001011000101100110001100001001000110001000001 b
b1110101010011001110111010010110001101111011010110110010010001110 D"
#132
b1111010101001100111011101001011000110111101101011011001001000111 "
b1011110111000101011101100001111000101110101110101011010100001000 b
b101111100101011100110100010011110001010000110000010000001111 D"
#133
b1000010111110010101110011010001001111000101000011000001000000111 "
b1001101110110010011110001011001101101000001100001001010000001111 b
b1111010101001100111011101001011000110111101101011011001001000111 D"
#134
b1111101010100110011101110100101100011011110110101101100100100011 "
b1111110000111111001010011100101011001011110110110101100010100100 b
b1000010111110010101110011010001001111000101000011000001000000111 D"
#135
b1100001011111001010111001101000100111100010100001100000100000011 "
b1001001101111111110000110001011011100011000000010001000010000011 b
b1111101010100110011101110100101100011011110110101101100100100011 D"
#136
b1111110101010011001110111010010110001101111011010110110010010001 "
b1111001110000010111011001011110011010101111101011110001000010001 b
b1100001011111001010111001101000100111100010100001100000100000011 D"
#137
b1110000101111100101011100110100010011110001010000110000010000001 "
b11011111100100011100010110111001010000011010010010000000010111 b
b1111110101010011001110111010010110001101111011010110110010010001 D"
#138
b1111111010101001100111011101001011000110111101101011011001001000 "
b111000001111110110100111001010100011111001111100011100101001001 b
b1110000101111100101011100110100010011110001010000110000010000001 D"
#139
b111000010111110010101110011010001001111000101000011000001000000 "
b10011001110111000011101010110101000110100010100010000100000111 b
b1111111010101001100111011101001011000110111101101011011001001000 D"
#140
b111111101010100110011101110100101100011011110110101101100100100 "
b110011110001101010100010111100110100011111010111100110010101011 b
b111000010111110010101110011010001001111000101000011000001000000 D"
#141
b11100001011111001010111001101000100111100010100001100000100000 "
b110111101000000111010101101110000101000110110100100100000100111 b
b111111101010100110011101110100101100011011110110101101100100100 D"
#142
b11111110101010011001110111010010110001101111011010110110010010 "
b110000011111101001011111010101000110110111101001111001010010010 b
b11100001011111001010111001101000100111100010100001100000100000 D"
#143
b1110000101111100101011100110100010011110001010000110000010000 "
b1100010001100110100111011101001010000101100111001100001000000110 b
b11111110101010011001110111010010110001101111011010110110010010 D"
#144
b1111111010101001100111011101001011000110111101101011011001001 "
b100011110011010101000101111101101001111010101110001100101011110 b
b1110000101111100101011100110100010011110001010000110000010000 D"
#145
b1000111000010111110010101110011010001001111000101000011000001000 "
b101011000001001110111010011100001011001101101000001100001001110 b
b1111111010101001100111011101001011000110111101101011011001001 D"
#146
b111111101010100110011101110100101100011011110110101101100100 "
b100000111111010010111111101010011100101011000011110110110101100 b
b1000111000010111110010101110011010001001111000101000011000001000 D"
#147
b100011100001011111001010111001101000100111100010100001100000100 "
b100011001101101110111010010110001011001100011000010010001100 b
b111111101010100110011101110100101100011011110110101101100100 D"
#148
b11111110101010011001110111010010110001101111011010110110010 "
b111110111101110001010111011000011110001011101011101010110101 b
b100011100001011111001010111001101000100111100010100001100000100 D"
#149
b10001110000101111100101011100110100010011110001010000110000010 "
b1010010010011011101100100111100010110011011010000011000010010100 b
b11111110101010011001110111010010110001101111011010110110010 D"
#150
b1111111010101001100111011101001011000110111101101011011001 "
b1000001111111100001111110010100111001010110010111101101101011000 b
b10001110000101111100101011100110100010011110001010000110000010 D"
#151
b1001000111000010111110010101110011010001001111000101000011000001 "
b1000110010011011111111100001100010110111000110000000100010000 b
b1111111010101001100111011101001011000110111101101011011001 D"
#152
b1000000111111101010100110011101110100101100011011110110101101100 "
b1011111110011100000101110110010111100110101011111010111100010 b
b1001000111000010111110010101110011010001001111000101000011000001 D"
#153
b100100011100001011111001010111001101000100111100010100001100000 "
b100100100110111111001000111000101101110010100000110100100100000 b
b1000000111111101010100110011101110100101100011011110110101101100 D"
#154
b100000011111110101010011001110111010010110001101111011010110110 "
b11101110000011111101101001110010101000111110011111000111001 b
b100100011100001011111001010111001101000100111100010100001100000 D"
#155
b10010001110000101111100101011100110100010011110001010000110000 "
b1010101100100110011101110000111010101101010001101000101000100001 b
b100000011111110101010011001110111010010110001101111011010110110 D"
#156
b10000001111111010101001100111011101001011000110111101101011011 "
b10011101100111100011010101000101111001101000111110101111001100 b
b10010001110000101111100101011100110100010011110001010000110000 D"
#157
b1001001000111000010111110010101110011010001001111000101000011000 "
b1001001001101111010000001110101011011100001010001101101001001000 b
b10000001111111010101001100111011101001011000110111101101011011 D"
#158
b1000000111111101010100110011101110100101100011011110110101101 "
b11001100000111111010010111110101010001101101111010011110010 b
b1001001000111000010111110010101110011010001001111000101000011000 D"
#159
b1100100100011100001011111001010111001101000100111100010100001100 "
b101111011000100011001101001110111010010100001011001110011000010 b
b1000000111111101010100110011101110100101100011011110110101101 D"
#160
b100000011111110101010011001110111010010110001101111011010110 "
b100111001000111100110101010001011111011010011110101011100011001 b
b1100100100011100001011111001010111001101000100111100010100001100 D"
#161
b110010010001110000101111100101011100110100010011110001010000110 "
b1010110001010110000010011101110100111000010110011011010000011000 b
b100000011111110101010011001110111010010110001101111011010110 D"
#162
b10000001111111010101001100111011101001011000110111101101011 "
b1000110001000001111110100101111111010100111001010110000111101101 b
b110010010001110000101111100101011100110100010011110001010000110 D"
#163
b1011001001000111000010111110010101110011010001001111000101000011 "
b1011010100001000110011011011101110100101100010110011000110000100 b
b10000001111111010101001100111011101001011000110111101101011 D"
#164
b1000001000000111111101010100110011101110100101100011011110110101 "
b1001010000001111101111011100010101110110000111100010111010111010 b
b1011001001000111000010111110010101110011010001001111000101000011 D"
#165
b1101100100100011100001011111001010111001101000100111100010100001 "
b101100010100100100110111011001001111000101100110110100000110000 b
b1000001000000111111101010100110011101110100101100011011110110101 D"
#166
b1100000100000011111110101010011001110111010010110001101111011010 "
b1000010000011111111000011111100101001110010101100101111011011 b
b1101100100100011100001011111001010111001101000100111100010100001 D"
#167
b110110010010001110000101111100101011100110100010011110001010000 "
b1110001000010001100100110111111111000011000101101110001100000001 b
b1100000100000011111110101010011001110111010010110001101111011010 D"
#168
b110000010000001111111010101001100111011101001011000110111101101 "
b10000000010111111100111000001011101100101111001101010111110101 b
b110110010010001110000101111100101011100110100010011110001010000 D"
#169
b1011011001001000111000010111110010101110011010001001111000101000 "
b11100101001001001101111110010001110001011011100101000001101001 b
b110000010000001111111010101001100111011101001011000110111101101 D"
#170
b11000001000000111111101010100110011101110100101100011011110110 "
b10000100000111011100000111111011010011100101010001111100111110 b
b1011011001001000111000010111110010101110011010001001111000101000 D"
#171
b101101100100100011100001011111001010111001101000100111100010100 "
b1100110010101011001001100111011100001110101011010100011010001010 b
b11000001000000111111101010100110011101110100101100011011110110 D"
#172
b1100000100000011111110101010011001110111010010110001101111011 "
b100100000100111011001111000110101010001011110011010001111101011 b
b101101100100100011100001011111001010111001101000100111100010100 D"
#173
b1010110110010010001110000101111100101011100110100010011110001010 "
b1111001010010010011011110100000011101010110111000010100011011010 b
b1100000100000011111110101010011001110111010010110001101111011 D"
#174
b110000010000001111111010101001100111011101001011000110111101 "
b1100001000000110011000001111110100101111101010100011011011110100 b
b1010110110010010001110000101111100101011100110100010011110001010 D"
#175
b1101011011001001000111000010111110010101110011010001001111000101 "
b1100101011110110001000110011010011101110100101000010110011100 b
b110000010000001111111010101001100111011101001011000110111101 D"
#176
b1000011000001000000111111101010100110011101110100101100011011110 "
b1100001001110010001111001101010100010111110110100111101010111 b
b1101011011001001000111000010111110010101110011010001001111000101 D"
#177
b110101101100100100011100001011111001010111001101000100111100010 "
b1110110110101100010101100000100111011101001110000101100110110100 b
b1000011000001000000111111101010100110011101110100101100011011110 D"
#178
b100001100000100000011111110101010011001110111010010110001101111 "
b1000010010001100010000011111101001011111110101001110010101100001 b
b110101101100100100011100001011111001010111001101000100111100010 D"
#179
b1011010110110010010001110000101111100101011100110100010011110001 "
b1011101010110101000010001100110110111011101001011000101100110001 b
b100001100000100000011111110101010011001110111010010110001101111 D"
