serdes_test/.Xil/Vivado-956-21-10244/hw_ila_data_1/zip_work/waveform.vcd
$date
        2021-Oct-04 12:08:54
$end
$version
        Vivado v2020.2 (64-bit)
$end
$timescale
        1ps
$end
$scope module dut $end
$var reg 64 " dout [63:0] $end
$var reg 7 b errorCounter [6:0] $end
$var reg 4 i foundFrames [3:0] $end
$var reg 64 m prbs_from_check [63:0] $end
$var reg 64 O" gt0_rxdata_i [63:0] $end
$var reg 8 1# userData [7:0] $end
$var reg 64 9# usererrorBits [63:0] $end
$var reg 7 y# usererrorCounter [6:0] $end
$var reg 9 "$ searchedFrames [8:0] $end
$var reg 64 +$ errorBits [63:0] $end
$var reg 16 k$ mask [15:0] $end
$var reg 24 {$ tot_align_err_count [23:0] $end
$var reg 64 5% userdataBits [63:0] $end
$var reg 64 u% userBits [63:0] $end
$var reg 10 W& alignAddr [9:0] $end
$var reg 1 a& aligned $end
$var reg 1 b& bypass $end
$var reg 1 c& errorFlag $end
$var reg 1 d& gt0_rxusrclk2_i $end
$var reg 1 e& SYS_RST $end
$var reg 1 f& _TRIGGER $end
$var reg 1 g& _WINDOW $end
$var reg 1 h& _GAP $end
$upscope $end
$enddefinitions $end
#0
$dumpvars
b11101110110010010101011101010111011000110011010001011100101100 "
b11111 b
b0 i
b1011011001001000111000010111110010101110011010001001111000101000 m
b1110011011101111101011110101000010001100110110111111111001011000 O"
b0 1#
b10000000000000001000000000000000100000000000000010000000 9#
b100 y#
b1001001 "$
b10001010001000111101001011110010101111011111011010111010001100 +$
b0 k$
b10100011111110011101010 {$
b0 5%
b0 u%
b11000 W&
0a&
0b&
1c&
0d&
0e&
0f&
1g&
0h&
$end
#1
b1100101111100001100010011110001110000000000010010001010111011110 "
b100001 b
b111010010110001101111011010110110010010001110000101111100101011 m
b111001011000011010010010100000010111111110111000001011100100101 O"
b1001010 "$
b11000001011000011000000111100000011000011000000100000001110 +$
b10100011111110100001001 {$
#2
b1001000111010111001010100110110001101010011001111000100100011000 "
b101001 b
b1010111001101000100111100010100001100000100000011111110101010011 m
b1010100010111001111100011000101001001001111111110010001111001011 O"
b1001011 "$
b10110010000111111111111011101010100001011100001010111010000010 +$
b10100011111110100101010 {$
#3
b1110011101111111010001101111100101000110000000100000110111101010 "
b11101 b
b1001100111011101001011000110111101101011011001001000111000010111 m
b110101001110100010100010100100000111011110000111111011011011100 O"
b1001100 "$
b100111100000011111010000111100001001010111101010100100000000111 +$
b10100011111110101010011 {$
#4
b100111111101000100110000011110110111111101110110100010000001011 "
b100111 b
b1000000111111101010100110011101110100101100011011110110101101100 m
b1100110101011111010111100010010101011001011100111011100000110101 O"
b1001101 "$
b110010110001001000101111100101111100000100010001110100010001101 +$
b10100011111110101110000 {$
#5
b1111111110110000101001110111010010100101100001100000010011111011 "
b100010 b
b1101110100101100011011110110101101100100100011100001011111001010 m
b1110000100000110110100100000000100111011011111000110101011001011 O"
b1001110 "$
b100000001010000001100000001100000001000000110000011100001111 +$
b10100011111110110010111 {$
#6
b1010010101111101010011110001001111010011110101010010001110000110 "
b10011 b
b110001101111011010110110010010001110000101111100101011100110100 m
b101000111110111101001111101010010010011001110100000011100010110 O"
b1001111 "$
b110011010000010000101011100001011100011100011111110000010000110 +$
b10100011111110110111001 {$
#7
b1111010001010011110110000011011001011100110001000000011011110010 "
b100001 b
b111000010111110010101110011010001001111000101000011000001000000 m
b1001010001101100111001100101000000110011010001111110100100111101 O"
b1010000 "$
b1001001011000100111101110101011011011011001101010101001111000001 +$
b10100011111110111001100 {$
#8
b101111000110110101001111000111111101110011011101001100011000110 "
b11101 b
b110100010011110001010000110000010000001111111010101001100111011 m
b1101101000111010101110001000101011110110011000110011010010101110 O"
b1010001 "$
b1001110011001011111111000101000011010101001110000101001111001111 +$
b10100011111110111101101 {$
#9
b111001010101000011010001001010100101000011001011000000011110010 "
b1000010111110010101110011010001001111000101000011000001000000111 m
b1100001010001101101000001000001001110010011111001101010101010111 O"
b1010010 "$
b1101010111000011000110000010011110011100110000010001001111000110 +$
b10100011111111000001010 {$
#10
b1010110010010111110110101100010011111101101110010100110111100001 "
b10001 b
b1010101001100111011101001011000110111101101011011001001000111000 m
b1010011101101011000011110010110101100010111100000100111010101001 O"
b1010011 "$
b1001110011001101111100000101011011011101001110010101010111001001 +$
b10100011111111000100111 {$
#11
b1011010001011000001110110100100100011110001111010100010011110000 "
b11100 b
b1110111010010110001101111011010110110010010001110000101111100101 m
b10110000011001100011000110010001100010010011111101001010111110 O"
b1010100 "$
b1101101111000100000111100010110110010110110011110001101011000001 +$
b10100011111111000111000 {$
#12
b101111011001101111011000110011101110010010100110010001101111101 "
b100010 b
b110000010000001111111010101001100111011101001011000110111101 m
b1011000010110001011101011001010110101000000001100110110110011101 O"
b1010101 "$
b1101100011001111000111000010010010010101110010000001001011001010 +$
b10100011111111001010100 {$
#13
b101010100101110100100110010010110001011000100010010000101110100 "
b100011 b
b1010000110000010000001111111010101001100111011101001011000110111 m
b1100010111011011010000011100010010100000001111011110111001101011 O"
b1010110 "$
b100001000000001111011010111000101001111111111100100011000000100 +$
b10100011111111001110110 {$
#14
b1010111001100101011110111011100110110110101010101001101000110100 "
b11101 b
b1010101001100111011101001011000110111101101011011001001000111000 m
b100111000010110010111101001101011000101011001001101110111010011 O"
b1010111 "$
b1011100001001000000001001110001101111001010010011111010101001101 +$
b10100011111111010011001 {$
#15
b10100010011110110010110001101011000010000010110001110000110100 "
b100011 b
b101111100101011100110100010011110001010000110000010000001111111 m
b1100011110111000110000100100010000100010111111110000110111001 O"
b1011000 "$
b1111111101001111111010111001001000111110101111011011010101001010 +$
b10100011111111010110110 {$
#16
b1101101000111111101101100101000111010001110111001100100100010011 "
b100001 b
b1001110111010010110001101111011010110110010010001110000101111100 m
b110010110100110101011111110111100010000110011001001101110111110 O"
b1011001 "$
b1111111101001001111001111001010000110110101111001011001101001100 +$
b10100011111111011011001 {$
#17
b1110011001111111001011000110111100111100001000000110100010001 "
b11100 b
b1111011010110110010010001110000101111100101011100110100010011110 m
b1000101100110010100000110000100100000000111111111001110001010111 O"
b1011010 "$
b1111000101001110111000011001111000111100101100101011101001001011 +$
b10100011111111011111010 {$
#18
b1110111010010101110100110010111001101000011011100110001110001101 "
b11101 b
b101000011000001000000111111101010100110011101110100101100011011 m
b1001110011101000111110011011000111001010000010011011111101100011 O"
b1011011 "$
b1011010101001100000011011110110001110100010000111111110101001000 +$
b10100011111111100010110 {$
#19
b111111100011011110110100001011111101010000100000011000001001 "
b11110 b
b1111111010101001100111011101001011000110111101101011011001001 m
b111010100101010001101000001000100001000011110111000001110110110 O"
b1011100 "$
b10110010001001111111101011000010101101011100101010000110001101 +$
b10100011111111100110011 {$
#20
b1111111101001011111011001001110000111001101110111011111101000000 "
b101001 b
b1011100110100010011110001010000110000010000001111111010101001100 m
b1000101110001101000111110001111001100101000110010011001111111000 O"
b1011101 "$
b100110000001110111001100111011101000001111100110100011000001010 +$
b10100011111111101010001 {$
#21
b1000001011111011101101001010001101110000101000011000001000000000 "
b100101 b
b100011100001011111001010111001101000100111100010100001100000100 m
b101011010100001010001101001001001000001011110110011110000101010 O"
b1011110 "$
b1111000101000000111000001001010000110000101100001011010101000100 +$
b10100011111111101111010 {$
#22
b1111011010100001011110010100101100010111110101111101000100100111 "
b100011 b
b111000010111110010101110011010001001111000101000011000001000000 m
b111110100010001101101111110011110010100110100110111101001000111 O"
b1011111 "$
b1011011001000001000000111110001101111111010001011111001101000101 +$
b10100011111111110011111 {$
#23
b1100001011110000010101111101110000110010010110001100000000000010 "
b100000 b
b1101100100100011100001011111001010111001101000100111100010100001 m
b1110111011010100001011001010011000010000011100110000011110101001 O"
b1100000 "$
b1011100001000000000010011110111101111101010010101111110001000100 +$
b10100011111111111000010 {$
#24
b1111011001011010001100101010001110001011111010100110101010011100 "
b1010000110000010000001111111010101001100111011101001011000110 m
b1011110011010011110101111100011001010101101100010001101110100 O"
b1100001 "$
b1111001001000101111000111001011100111111101101011011001001000000 +$
b10100011111111111100010 {$
#25
b1110010101110110101011000110110010010001001011000110000110000100 "
b11110 b
b1111110101010011001110111010010110001101111011010110110010010001 m
b1110100110000010110011011110000011000010001100100011110010010101 O"
b1100010 "$
b10111110000010111111001011100110101110011101011010100110000110 +$
b10100100000000000000010 {$
#26
b1111010010101000100100111101111011000000111110011011110101001001 "
b11000 b
b1010000110000010000001111111010101001100111011101001011000110 m
b1111111011100111001010110100111101101101001000101011000000001110 O"
b1100011 "$
b1101011011000000000101110010001010011011110001010001001011000100 +$
b10100100000000000100000 {$
#27
b111100110110000010111000011111101001101000110100011100101000000 "
b100001 b
b100110011101110100101100011011110110101101100100100011100001011 m
b1101110101101100010110011100110000100100001000100000111110010010 O"
b1100100 "$
b101100001001000010010000011000000110000001110000011000001101 +$
b10100100000000000111000 {$
#28
b111000001011010110010011110100001100011011101100101011100100111 "
b11111 b
b1000010111110010101110011010001001111000101000011000001000000111 m
b10101111110000111100010011010111010101111010000100011000101101 O"
b1100101 "$
b1111000101000110111011001001001000111000101100011011001101000010 +$
b10100100000000001011001 {$
#29
b11000001010001001010101001011100100001100011110001010100100101 "
b100010 b
b1101111011010110110010010001110000101111100101011100110100010 m
b1001001110000101100110110000000110000100111000000111110110101110 O"
b1100110 "$
b1011100001000110000001011110100101110101010010111111101001000010 +$
b10100100000000001111000 {$
#30
b11000010101010011000010111111110111101101100101010111010011110 "
b100011 b
b111111101010100110011101110100101100011011110110101101100100100 m
b1111100100001110010101100001111011011010100001010010010010011101 O"
b1100111 "$
b1111110001000010111001011001110100110101101110111011101101000111 +$
b10100100000000010011010 {$
#31
b1011100101100100110101100111100011110110001100000111100011000 "
b11011 b
b101101100100100011100001011111001010111001101000100111100010100 m
b1111111001011000101101110101100000001000110001000001111110100001 O"
b1101000 "$
b110101110000000000100001100101111100110100001001110111010000101 +$
b10100100000000010111101 {$
#32
b1010111011110001110111011001001010101110101011101100011001101 "
b10011 b
b1011100100101111001101110111110101111010100001000110011011011 O"
b1101001 "$
b100111100000101111001000111111001000010111101000100111000000001 +$
b10100100000000011011000 {$
#33
b1000100100011000110010111110000110001001111000111000000000001001 "
b11110 b
b1110101010011001110111010010110001101111011010110110010010001110 m
b10001111001011011100101100001101001001010000001011111111011100 O"
b1101010 "$
b110101110001110000100011100000111101010100001101110000110001010 +$
b10100100000000011101011 {$
#34
b110111101010100100011101011100101010011011000110101001100111 "
b11111 b
b111101101011011001001000111000010111110010101110011010001001111 m
b1111011011011100101010001011100111110001100010100100100111111111 O"
b1101011 "$
b100110000001000111010100111000101001001111100100100000000001100 +$
b10100100000000100001001 {$
#35
b100010000001011111001110111111101000110111110010100011000000010 "
b100110 b
b10110001101111011010110110010010001110000101111100101011100110 m
b1011100000110101011010100111010001010001010010000011101111000011 O"
b1101100 "$
b1111111101000111111001101001111000111010101111101011110001000011 +$
b10100100000000100101000 {$
#36
b10011111011010011111110100010011000001111011011111110111011 "
b11100 b
b1101011011001001000111000010111110010101110011010001001111000101 m
b110101011001011110011010101111101011110001001010101100101110011 O"
b1101101 "$
b1111001001000011111011111001000100110111101101001011010001000110 +$
b10100100000000101001110 {$
#37
b10001110000110111111111011000010100111011101001010010110000110 "
b11101 b
b1001011000110111101101011011001001000111000010111110010101110011 m
b11100010110111000010000011011010010000000010011101101111100 O"
b1101110 "$
b10000110000101111110101011001110100100011110111010000010000001 +$
b10100100000000101101010 {$
#38
b11011110010101001010111110101001111000100111101001111010101 "
b1011001001000111000010111110010101110011010001001111000101000011 m
b1110100100111101010100011111011110100111110101001001001100111010 O"
b1101111 "$
b1001001011000010111110110101000011010011001101000101010111000111 +$
b10100100000000110000111 {$
#39
b1001100011000110111101000101001111011000001101100101110011000100 "
b11000 b
b1111111010101001100111011101001011000110111101101011011001 m
b11010010101110100101000110110011100110010100000011001101000111 O"
b1110000 "$
b1001001011001100111110100101101011011111001101100101101011001000 +$
b10100100000000110100100 {$
#40
b1000000011110010010111100011011010100111100011111110111001101110 "
b101000 b
b10001110000101111100101011100110100010011110001010000110000010 m
b1101010101010111110110100011101010111000100010101111011001100011 O"
b1110001 "$
b1001000111000001111101000101010111010100001100000101010011000101 +$
b10100100000000110111100 {$
#41
b100110111100001011100101010100001101000100101010010100001100101 "
b100010 b
b1110010101110011010001001111000101000011000001000000111111101010 m
b100111010101001110000101000110110100000100000100111001001111100 O"
b1110010 "$
b10100001000000000110000101000000100000010000000100100001100 +$
b10100100000000111100100 {$
#42
b100010011110000101011001001011111011010110001001111110110111001 "
b11101 b
b100100011100001011111001010111001101000100111100010100001100000 m
b1101001010111110101001110110101100001111001011010110001011110000 O"
b1110011 "$
b1011101101000011000001101110101001111010010011101111110101000110 +$
b10100100000001000000110 {$
#43
b10001101111101101101000101100000111011010010010001111000111101 "
b100000 b
b1111001010111001101000100111100010100001100000100000011111110101 m
b110110110011101001011000001100110001100011001000110001001001111 O"
b1110100 "$
b110010110000001000110101100011111100100100010111110000110000100 +$
b10100100000001000100011 {$
#44
b10000101110100010111101100110111101100011001110111001001010011 "
b100011 b
b1001011000110111101101011011001001000111000010111110010101110011 m
b1110111001101011101100001011000101110101100101011010100000000110 O"
b1110101 "$
b10100000000000011100000011000000000000010110000000000000101 +$
b10100100000001001000011 {$
#45
b1001101000110100010101010010111010010011001001011000101100010001 "
b11100 b
b1111111010101001100111011101001011000110111101101011011001 m
b1101110111010011110001011101101101000001110001001010000000111101 O"
b1110110 "$
b1011011001001001000011101110111101111011010001101111101001001100 +$
b10100100000001001100110 {$
#46
b1110000110100101011100110010101111011101110011011011010101010 "
b1101 b
b1001001000111000010111110010101110011010001001111000101000011000 m
b1110000110111001010011100001011001011110100110101100010101100100 O"
b1110111 "$
b1011010101001010000000011110101001111100010000101111101101001110 +$
b10100100000001010000010 {$
#47
b1100100100010011001010001001111011001011000110101100001000001011 "
b100011 b
b111010010110001101111011010110110010010001110000101111100101011 m
b1001101110111110000110001111011100011000010010001000010001011111 O"
b1111000 "$
b10001010001110111110001011101010100111011111001010100010001010 +$
b10100100000001010001111 {$
#48
b110100010001110110100011111110110110010100011101000111011100 "
b11100 b
b1111111010101001100111011101001011000110111101101011011001001 m
b1001110001010111011001011010011010101111111011110001000011001100 O"
b1111001 "$
b100000001100000010100000010100001001000000100000000100001001 +$
b10100100000001010110010 {$
#49
b110001110001101000111001100111111100101100011011110011110000100 "
b1100 b
b100000011111110101010011001110111010010110001101111011010110 m
b1011111101100011100010110011001010000011000010010000000011111111 O"
b1111010 "$
b110100010000101000100111100100011101001100000011110100110000001 +$
b10100100000001011001110 {$
#50
b11000001001111011101001010111010011001011100110100001101110 "
b100100 b
b1101011011001001000111000010111110010101110011010001001111000101 m
b1000001110110110100111001110100011111001101100011100101000001001 O"
b1111011 "$
b1101011011000110000110110010010010010011110001000001010011000010 +$
b10100100000001011011010 {$
#51
b1011111101000000000011111110001101111011010000101111110101000010 "
b100000 b
b10011110001010000110000010000001111111010101001100111011101001 m
b11001111111000011101010010101000110100000100010000100001111011 O"
b1111100 "$
b10100001110000011110000110000001100000010010000111100001010 +$
b10100100000001011111110 {$
#52
b1000001000000000111111110100101111101100100111000011100110111011 "
b10001110000101111100101011100110100010011110001010000110000010 m
b11110000101010100010111000110100011111000111100110010100011001 O"
b1111101 "$
b1011010101000100000000001110000001110000010000001111010001000001 +$
b10100100000001100011110 {$
#53
b1101000100100111100000101111101110110100101000110111000010100001 "
b1101 b
b101010011001110111010010110001101111011010110110010010001110000 m
b111101001000111010101101010000101000110100100100100000101111011 O"
b1111110 "$
b10000110000011111101101011010110101100011110101010011010000111 +$
b10100100000001100111110 {$
#54
b1100000000000010111101101010000101111001010010110001011111010111 "
b11010 b
b1101100100100011100001011111001010111001101000100111100010100001 m
b11110101001011111010001000110110111111001111001010011010011 O"
b1111111 "$
b1001110011000101111111010101101011011001001110100101110011000000 +$
b10100100000001101001011 {$
#55
b110101010011100110000101111000001010111110111000011001001011000 "
b11011 b
b1010010110001101111011010110110010010001110000101111100101011100 m
b10001101110100111011101101010000101100101001100001000001110011 O"
b10000000 "$
b1101011011001110000101100010100010010111110001110001110111001011 +$
b10100100000001101100101 {$
#56
b110000110000100111101100101101000110010101000111000101111101010 "
b10101 b
b110110010010001110000101111100101011100110100010011110001010000 m
b11110010010101000101111001101001111010111110001100101010110110 O"
b0 "$
b100000000100000001110000100100001101000000010000100000000000 +$
b10100100000001110000000 {$
b11001 W&
#57
b1011110101001001111001010111011010101100011011001001000100101100 "
b100001100000100000011111110101010011001110111010010110001101111 m
b1011000000001110111010011000001011001101111000001100001000110010 O"
b1 "$
b110010110001111000110111100110111101000100010011110111010001011 +$
b10100100000001110010101 {$
#58
b1110010000000010110100101010000101001101011110110000001111100111 "
b100001 b
b1011011001001000111000010111110010101110011010001001111000101000 m
b111110010010111111101110011100101011010011110110110100100010 O"
b10 "$
b11000001101000000000000100100001011000011010000111000001000 +$
b10100100000001110101010 {$
#59
b101111010011100111001101100000001110011111111000011011001101000 "
b100010 b
b1100010100001100000100000011111110101010011001110111010010110001 m
b100011000101101110111010110110001011001110011000010010000100010 O"
b11 "$
b10001010000000111110011011000010101011011111101010011110000101 +$
b10100100000001111001011 {$
#60
b101010110010100110000100110101000100110101000111000111111011010 "
b100110011101110100101100011011110110101101100100100011100001011 m
b111110110101110001010111111000011110001001101011101010111101000 O"
b100 "$
b101100000001000001000000101000000010000001000000111100000100 +$
b10100100000001111101101 {$
#61
b1011100101111001110000010100011010101000010111001000010100111100 "
b1100 b
b1010101001100111011101001011000110111101101011011001001000111000 m
b10010010011101100100111000010110011011000000011000010011100000 O"
b101 "$
b10000100001110110000101001111011100111000111000111011101010110 +$
b10100100000010000001111 {$
#62
b11110101100000110000001010100010000111111111101111010011001001 "
b100011 b
b101111100101011100110100010011110001010000110000010000001111111 m
b1111110100001111110010000111001010110000111101101101010000101 O"
b110 "$
b1001001110010011100001111011111000110010011100111000101100011 +$
b10100100000010000011011 {$
#63
b110001100110111010111011011000001101000001111110111100100011010 "
b10001 b
b111011101001011000110111101101011011001001000111000010111110010 m
b1000110011011011111111100101100010110111010110000000100011000100 O"
b111 "$
b1111111111110011101101101101101110011011000011100001110111100010 +$
b10100100000010000111110 {$
#64
b100100101010101000111101011101101110010000101011101010110 "
b11111 b
b1000110111101101011011001001000111000010111110010101110011010001 m
b1011111111011100000101110010010111100110111011111010111101010000 O"
b1000 "$
b1110011001010010010110110110000100100010010001001010010101000011 +$
b10100100000010001001111 {$
#65
b1010101010011110001001000110000100101110100001110010010110001111 "
b1110 b
b10011110001010000110000010000001111111010101001100111011101001 m
b100100111111111001000111100101101110010110000110100100101000000 O"
b1001 "$
b100101000101011110110110111001001011110110111010111000100111011 +$
b10100100000010001101110 {$
#66
b1101100001000001101001010101001000101010111111010100110110010 "
b100000 b
b0 m
b11101111000011111101101101110010101000101110011111000110001010 O"
b1010 "$
b1110111011011010001100010010000110101010110001100010010111001011 +$
b10100100000010001111100 {$
#67
b1111110011101101000100110010110010011110111111110001101011100110 "
b10111110010101110011010001001111000101000011000001000000111111 m
b101100101110011101110000011010101101010011101000101000101001000 O"
b1011 "$
b10011010101111010011000101101010010010100111001001100110111111 +$
b10100100000010010011100 {$
#68
b1001010000011001000100011110111000111111101000100110000111110101 "
b101001 b
b11110001010000110000010000001111111010101001100111011101001011 m
b11101101111100011010101100101111001101010111110101111000100101 O"
b1100 "$
b1010101010011110001001000110000100101110100001110010010110001111 +$
b10100100000010010111100 {$
#69
b100111001010111100011010001100011111111110000011001110111010011 "
b11011 b
b1110000101111100101011100110100010011110001010000110000010000001 m
b1001001100111010000001110001011011100001000001101101001000000001 O"
b1101 "$
b11010010011101111110011011100110000000010100111011100110001101 +$
b10100100000010011100101 {$
#70
b111001000010010000110011100101010010101111101110011111001001100 "
b100101 b
b11001110111010010110001101111011010110110010010001110000101111 m
b11001101000111111010010011110101010001111101111010011111010100 O"
b1110 "$
b1100000010111101110100100010111101100100010110010110110110101101 +$
b10100100000010100000000 {$
#71
b1011101110111011011000000001101111010011010011110110001011011001 "
b100000 b
b110001101111011010110110010010001110000101111100101011100110100 m
b1111011001100011001101001010111010010100011011001110011001010000 O"
b1111 "$
b111010101100101101111111000011010100001100010100000000101110100 +$
b10100100000010100100101 {$
#72
b1010000110010110000000001100101101111011110110001001110000111101 "
b100010 b
b1110111010010110001101111011010110110010010001110000101111100101 m
b111001001111100110101010101011111011010001110101011100010001010 O"
b10000 "$
b111110111101101110101011100011000101001000010001000000111111100 +$
b10100100000010101000101 {$
#73
b1111011111100101001101111000011011001011101000001010001101010100 "
b11110 b
b1110011010001001111000101000011000001000000111111101010100110011 m
b110001011110000010011101010100111000010100011011010000010000010 O"
b10001 "$
b1000101101001010000101110111011100101010010010110100101111000 +$
b10100100000010101100111 {$
#74
b111100011110100000100101100001010110001010111010110101100010011 "
b100001 b
b1101101011011001001000111000010111110010101110011010001001111000 m
b110001001001111110100101011111010100111011010110000111100101101 O"
b10010 "$
b101010100101101010101111010111001100001000010000110100100111100 +$
b10100100000010110000101 {$
#75
b1100101001001110100011001111011011010000011000111110110000100110 "
b100010 b
b1010000110000010000001111111010101001100111011101001011000110 m
b1010100000000110011011011001110100101100000110011000110001100100 O"
b10011 "$
b100011100011111111000100100110101110011110001110100100100001110 +$
b10100100000010110100110 {$
#76
b10110001000101100001001101001001111010001101101011001110011111 "
b11110 b
b1101111011010110110010010001110000101111100101011100110100010 m
b1010000000111101111011100110101110110000101100010111010110010101 O"
b10100 "$
b10110100111100000101000000001100111001000110010000000100101100 +$
b10100100000010111001000 {$
#77
b1101100110101001011010011101000101010110101110000100110010010101 "
b100001 b
b1001100111011101001011000110111101101011011001001000111000010111 m
b1100010101100100110111011101001111000101110110110100000111000100 O"
b10101 "$
b110110011000100010100100011110000011000110000001011100111010101 +$
b10100100000010111100110 {$
#78
b101000101101011100001101000010111000100101111110111011100100 "
b11110 b
b100010011110001010000110000010000001111111010101001100111011101 m
b1000010001011111111000011011100101001110000101100101111010011010 O"
b10110 "$
b1101000110010100010101011101010101010101100100010101010110000100 +$
b10100100000011000000111 {$
#79
b100011001110011001001110100110110100000011110000010111101101001 "
b1100000100000011111110101010011001110111010010110001101111011010 m
b1000011001100100110111011111000011000111101110001100001001000 O"
b10111 "$
b1011010110011000101010001011110100010001010100100011110110001000 +$
b10100100000011000100101 {$
#80
b1001111100010001001101010100010001101010111111011101100001000111 "
b100001 b
b1111010101001100111011101001011000110111101101011011001001000111 m
b11111111100111000101011101100101101001101010111111101111 O"
b11000 "$
b1001110101011000001010101101010101011001010100101101010101001000 +$
b10100100000011001000011 {$
#81
b1010001010111010100011100011010001110001001111101001011100110101 "
b10111 b
b11111110101010011001110111010010110001101111011010110110010 m
b1100101000001001101111110110001110001011001100101000001100001001 O"
b11001 "$
b1100101100101110100010100111011011001111110111001111010100111110 +$
b10100100000011001100100 {$
#82
b1111011000001011000110000010010010111010010101010100111110111001 "
b11100 b
b1100011011110110101101100100100011100001011111001010111001101000 m
b100001111011100000111011011010011100111010001111100110110001 O"
b11010 "$
b1011001100111111110010011101101110010111110011011001110100101110 +$
b10100100000011001111011 {$
#83
b1110010111101100111111010000001100111100100011101110111100001010 "
b11101 b
b100101100011011110110101101100100100011100001011111001010111001 m
b110010100011001001100111111100001110101001010100011010000010001 O"
b11011 "$
b1001100011100100011110011010101011111100110010100110110111110101 +$
b10100100000011010010111 {$
#84
b1100001110000100000010010000000111111110001011111011001001110001 "
b1010000110000010000001111111010101001100111011101001011000110 m
b100000101111011001111000010101010001011100011010001111100011110 O"
b11100 "$
b110010001001100001110000111110010010000010000100011100101011101 +$
b10100100000011010110100 {$
#85
b101110001011110010001111001110100001000111011111101000110001101 "
b11110 b
b100110011101110100101100011011110110101101100100100011100001011 m
b1001010011010011011110100100011101010110101000010100011010010010 O"
b11101 "$
b1011110100010000110000101111110110011001110100001011110100000000 +$
b10100100000011011010001 {$
#86
b1100100101100010000000100000100111011010100001011110011100101110 "
b100111 b
b1111110101010011001110111010010110001101111011010110110010010001 m
b1000001110011000001111010100101111101000100011011011111100111 O"
b11110 "$
b1111000111011100101111011111110110010101000100110011110111001100 +$
b10100100000011011101111 {$
#87
b10110110101011101010110111000000001011110000110101111101110010 "
b101000 b
b11101110100101100011011110110101101100100100011100001011111001 m
b1100101010110110001000110111010011101110110101000010110010100110 O"
b11111 "$
b1000111101101010100111110011011001001011100111011111010101111010 +$
b10100100000011100010110 {$
#88
b100010010110001100001100001000011011011011010111100100010001100 "
b100101 b
b100000011111110101010011001110111010010110001101111011010110 m
b1100001000110010001111001001010100010111100110100111101011111000 O"
b100000 "$
b1010000100001101011111000011100010000101000000101011110100011100 +$
b10100100000011100111110 {$
#89
b1111100111111101010010011110010110110110111011000010110011 "
b11011 b
b100010011110001010000110000010000001111111010101001100111011101 m
b110110100100010101100000000111011101001100000101100110111100000 O"
b100001 "$
b1111001011000111100011111110010010110110000101000010010111010111 +$
b10100100000011101100011 {$
#90
b11011001101000111001000000001011010010101000010100110101111011 "
b11110 b
b1001011000110111101101011011001001000111000010111110010101110011 m
b10010000100010000011111001001011111110111001110010101101001111 O"
b100010 "$
b10010110110100011111100100001110110001100110111000000110100100 +$
b10100100000011101111110 {$
#91
b1000111111011010010111101001110011100110110000000111001111111100 "
b100111 b
b1001000111000010111110010101110011010001001111000101000011000001 m
b1101010111101000010001100010110111011101011011000101100111001100 O"
b100011 "$
b1000000110001010001010011010100100000010101000101010001 +$
b10100100000011110011100 {$
#92
b1000010100111100010101011001010011000010011010100010011010100011 "
b111100010100001100000100000011111110101010011001110111010010110 m
b1000010011100000011111011010111000101011111100001111000100110101 O"
b100100 "$
b1001010111010000010000001001010111010001110100000101010111000000 +$
b10100100000011111000011 {$
#93
b1111010011001001101110010111100111000001010001101010100001011100 "
b11011 b
b111111101010100110011101110100101100011011110110101101100100 m
b1101101010000101001001001001110110010011100001011001101100000001 O"
b100101 "$
b1010011110101010000111010101111000000011100111010001110110111010 +$
b10100100000011111101010 {$
#94
b111100100011010001111010110000011000000101010001000011111111110 "
b100011 b
b1111101010100110011101110100101100011011110110101101100100100011 m
b100011000100000111111010000111111001000011100101011000011110 O"
b100110 "$
b1111011101111011110111001001101100010011100011001001110101101010 +$
b10100100000100000000101 {$
#95
b101011101010110011000110011011101011101101100000110100000111111 "
b11110 b
b1000010111110010101110011010001001111000101000011000001000000111 m
b1010111101010000100011001101101111111110010110001011011101011000 O"
b100111 "$
b1000101011010110110011000100100111101110000001010100110111000111 +$
b10100100000100000101000 {$
#96
b10010110001111000000010010010101010100011110101110110111001000 "
b10011 b
b1101111011010110110010010001110000101111100101011100110100010 m
b100100101000000101111111101110000010111001001011110011011101111 O"
b101000 "$
b111001101111110011100011001011011010100111000111000101111111 +$
b10100100000100001000110 {$
#97
b1010100110110010101010101001111000100100011000010010111010000111 "
b11001 b
b1100111011101001011000110111101101011011001001000111000010111110 m
b1111000110001010010010011111111100100011110010110111001011000011 O"
b101001 "$
b1111110011101000100001001100001010111000000010010000010111111001 +$
b10100100000100001011001 {$
#98
b1101011100110000110110000100000110100101010100100010101011111 "
b100010 b
b10000001111111010101001100111011101001011000110111101101011011 m
b101000101001000001110111100001111110110110111001010100010111001 O"
b101010 "$
b100110010001100101110100001010011011000010000101101000110011101 +$
b10100100000100001110010 {$
#99
b110000111110101111111001110110100010011001011001001111011111111 "
b100110 b
b1011111001010111001101000100111100010100001100000100000011111110 m
b101111000100101010110010111001110111000001101010110101001110100 O"
b101011 "$
b1110101101100110011000100101111000001111010111101001110101110110 +$
b10100100000100010010100 {$
#100
b1001110111010011100101000001100100010001111011100011111110100010 "
b100000 b
b11110001010000110000010000001111111010101001100111011101001011 m
b1101001000000001001110110111110001101010110010111100110101011111 O"
b101100 "$
b1000100111001101111111100101000011001101000000100101010111011100 +$
b10100100000100010111010 {$
#101
b11111001001100010011100101011110001101000110001111111111000001 "
b100101 b
b1011011001001000111000010111110010101110011010001001111000101000 m
b1010011111010100100100110011101000000111000101101110000100000110 O"
b101101 "$
b1010010010110001001011110100011100100000100110100000010110100001 +$
b10100100000100011011010 {$
#102
b110001011011001011100100001001000011001110010101001010111110111 "
b11101 b
b101011100110100010011110001010000110000010000001111111010101001 m
b1110011001010000001100110100011111101001001111010101000111110111 O"
b101110 "$
b101110110100101001111011110111011101001100010101110100110110100 +$
b10100100000100011111111 {$
#103
b1001110000111101101110111011101101100000000110111101001101001111 "
b11100 b
b1110000101111100101011100110100010011110001010000110000010000 m
b1011100010001010111101100110001100110100101011101001010001101100 O"
b101111 "$
b10101110011011011101010110010110111111100001101010000110001010 +$
b10100100000100100011100 {$
#104
b1010001101010100101000011001011000000000110010110111101111011000 "
b100101 b
b10011110001010000110000010000001111111010101001100111011101001 m
b1010000010000010011100100111110011010101010101111101101000111010 O"
b110000 "$
b110100101111000000000010100001110111101010110000000000101101000 +$
b10100100000100100111000 {$
#105
b110101100010011111101111110010100110111100001101100101110100000 "
b100000 b
b101011100110100010011110001010000110000010000001111111010101001 m
b111100101101011000101111000001001110101010011100001010001101 O"
b110001 "$
b111111011110110111001111101111100001010000011111001100111100111 +$
b10100100000100101011101 {$
#106
b1110110000100110011110001111010000010010110000101011000101011101 "
b11010 b
b100101100011011110110101101100100100011100001011111001010111001 m
b1000110001100100011000100100111111010010101111101010011101101011 O"
b110010 "$
b1011101110110111101000111001101100011111010011110001110110100110 +$
b10100100000100101111101 {$
#107
b1011001110011111110010100100111010001100111101101101000001100011 "
b100101 b
b100001100000100000011111110101010011001110111010010110001101111 m
b111010110010101101010000000011001101101100111010010110000011001 O"
b110011 "$
b1111010001100000111011101000001000110000100010111000010101110001 +$
b10100100000100110010111 {$
