serdes_test/.Xil/Vivado-4328-21-10244/hw_ila_data_2/zip_work/waveform.vcd
$date
        2021-Jul-26 14:43:49
$end
$version
        Vivado v2020.2 (64-bit)
$end
$timescale
        1ps
$end
$scope module dut $end
$var reg 64 " gt0_txdata_i [63:0] $end
$var reg 7 b errorCount_to_check_source [6:0] $end
$var reg 64 i map_dout [63:0] $end
$var reg 64 K" prbs_from_check_to_check_source [63:0] $end
$var reg 64 -# shifter_dout [63:0] $end
$var reg 1 m# gtwizard_0_exdes_i/rxresetdone_vio_i $end
$var reg 1 n# gtwizard_0_exdes_i/soft_reset_vio_i $end
$var reg 1 o# _TRIGGER $end
$var reg 1 p# _WINDOW $end
$var reg 1 q# _GAP $end
$upscope $end
$enddefinitions $end
#0
$dumpvars
b1111101010100110011101110100101100011011110110101101100100100011 "
b0 b
b1100000100111011101001110000101100110110100000110000100111001000 i
b1000010111110010101110011010001001111000101000011000001000000111 K"
b1100110000011111101001011111010101000110110111101001111001010010 -#
0m#
0n#
0o#
1p#
0q#
$end
#1
b1100001011111001010111001101000100111100010100001100000100000011 "
b11111101001011111110101001110010101100001111011011010110001010 i
b1111101010100110011101110100101100011011110110101101100100100011 K"
b1101100010001100110100111011101001010000101100111001100001000000 -#
#2
b1111110101010011001110111010010110001101111011010110110010010001 "
b1100110110111011101001011000101100110001100001001000110001000 i
b1100001011111001010111001101000100111100010100001100000100000011 K"
b1100100011110011010101000101111101101001111010101110001100101011 -#
#3
b1110000101111100101011100110100010011110001010000110000010000001 "
b1111011110111000101011101100001111000101110101110101011010100001 i
b1111110101010011001110111010010110001101111011010110110010010001 K"
b1000101011000001001110111010011100001011001101101000001100001001 -#
#4
b1111111010101001100111011101001011000110111101101011011001001000 "
b1001001101110110010011110001011001101101000001100001001010000001 i
b1110000101111100101011100110100010011110001010000110000010000001 K"
b1000100000111111010010111111101010011100101011000011110110110101 -#
#5
b111000010111110010101110011010001001111000101000011000001000000 "
b111111110000111111001010011100101011001011110110110101100010100 i
b1111111010101001100111011101001011000110111101101011011001001000 K"
b1010000100011001101101110111010010110001011001100011000010010001 -#
#6
b111111101010100110011101110100101100011011110110101101100100100 "
b11001001101111111110000110001011011100011000000010001000010000 i
b111000010111110010101110011010001001111000101000011000001000000 K"
b1000000111110111101110001010111011000011110001011101011101010110 -#
#7
b11100001011111001010111001101000100111100010100001100000100000 "
b1111111001110000010111011001011110011010101111101011110001000010 i
b111111101010100110011101110100101100011011110110101101100100100 K"
b1010010010011011101100100111100010110011011010000011000010010 -#
#8
b11111110101010011001110111010010110001101111011010110110010010 "
b10011011111100100011100010110111001010000011010010010000000010 i
b11100001011111001010111001101000100111100010100001100000100000 K"
b1000001111111100001111110010100111001010110010111101101101011 -#
#9
b1110000101111100101011100110100010011110001010000110000010000 "
b1110111000001111110110100111001010100011111001111100011100101001 i
b11111110101010011001110111010010110001101111011010110110010010 K"
b100001000110010011011111111100001100010110111000110000000100010 -#
#10
b1111111010101001100111011101001011000110111101101011011001001 "
b110010011001110111000011101010110101000110100010100010000100000 i
b1110000101111100101011100110100010011110001010000110000010000 K"
b1011111110011100000101110110010111100110101011111010111100 -#
#11
b1000111000010111110010101110011010001001111000101000011000001000 "
b1110110011110001101010100010111100110100011111010111100110010101 i
b1111111010101001100111011101001011000110111101101011011001001 K"
b10100100100110111111001000111000101101110010100000110100100100 -#
#12
b111111101010100110011101110100101100011011110110101101100100 "
b100110111101000000111010101101110000101000110110100100100000100 i
b1000111000010111110010101110011010001001111000101000011000001000 K"
b10000011101110000011111101101001110010101000111110011111000111 -#
#13
b100011100001011111001010111001101000100111100010100001100000100 "
b1100110000011111101001011111010101000110110111101001111001010010 i
b111111101010100110011101110100101100011011110110101101100100 K"
b1001010101100100110011101110000111010101101010001101000101000100 -#
#14
b11111110101010011001110111010010110001101111011010110110010 "
b1101100010001100110100111011101001010000101100111001100001000000 i
b100011100001011111001010111001101000100111100010100001100000100 K"
b10011101100111100011010101000101111001101000111110101111001 -#
#15
b10001110000101111100101011100110100010011110001010000110000010 "
b1100100011110011010101000101111101101001111010101110001100101011 i
b11111110101010011001110111010010110001101111011010110110010 K"
b101001001001101111010000001110101011011100001010001101101001001 -#
#16
b1111111010101001100111011101001011000110111101101011011001 "
b1000101011000001001110111010011100001011001101101000001100001001 i
b10001110000101111100101011100110100010011110001010000110000010 K"
b100000011001100000111111010010111110101010001101101111010011110 -#
#17
b1001000111000010111110010101110011010001001111000101000011000001 "
b1000100000111111010010111111101010011100101011000011110110110101 i
b1111111010101001100111011101001011000110111101101011011001 K"
b10101111011000100011001101001110111010010100001011001110011000 -#
#18
b1000000111111101010100110011101110100101100011011110110101101100 "
b1010000100011001101101110111010010110001011001100011000010010001 i
b1001000111000010111110010101110011010001001111000101000011000001 K"
b100111001000111100110101010001011111011010011110101011100011 -#
#19
b100100011100001011111001010111001101000100111100010100001100000 "
b1000000111110111101110001010111011000011110001011101011101010110 i
b1000000111111101010100110011101110100101100011011110110101101100 K"
b1011010110001010110000010011101110100111000010110011011010000011 -#
#20
b100000011111110101010011001110111010010110001101111011010110110 "
b1010010010011011101100100111100010110011011010000011000010010 i
b100100011100001011111001010111001101000100111100010100001100000 K"
b1001000110001000001111110100101111111010100111001010110000111101 -#
#21
b10010001110000101111100101011100110100010011110001010000110000 "
b1000001111111100001111110010100111001010110010111101101101011 i
b100000011111110101010011001110111010010110001101111011010110110 K"
b101011010100001000110011011011101110100101100010110011000110000 -#
#22
b10000001111111010101001100111011101001011000110111101101011011 "
b100001000110010011011111111100001100010110111000110000000100010 i
b10010001110000101111100101011100110100010011110001010000110000 K"
b1001010000001111101111011100010101110110000111100010111010111 -#
#23
b1001001000111000010111110010101110011010001001111000101000011000 "
b1011111110011100000101110110010111100110101011111010111100 i
b10000001111111010101001100111011101001011000110111101101011011 K"
b110101100010100100100110111011001001111000101100110110100000110 -#
#24
b1000000111111101010100110011101110100101100011011110110101101 "
b10100100100110111111001000111000101101110010100000110100100100 i
b1001001000111000010111110010101110011010001001111000101000011000 K"
b10001000010000011111111000011111100101001110010101100101111011 -#
#25
b1100100100011100001011111001010111001101000100111100010100001100 "
b10000011101110000011111101101001110010101000111110011111000111 i
b1000000111111101010100110011101110100101100011011110110101101 K"
b1011110001000010001100100110111111111000011000101101110001100000 -#
#26
b100000011111110101010011001110111010010110001101111011010110 "
b1001010101100100110011101110000111010101101010001101000101000100 i
b1100100100011100001011111001010111001101000100111100010100001100 K"
b10010000000010111111100111000001011101100101111001101010111110 -#
#27
b110010010001110000101111100101011100110100010011110001010000110 "
b10011101100111100011010101000101111001101000111110101111001 i
b100000011111110101010011001110111010010110001101111011010110 K"
b1100011100101001001001101111110010001110001011011100101000001101 -#
#28
b10000001111111010101001100111011101001011000110111101101011 "
b101001001001101111010000001110101011011100001010001101101001001 i
b110010010001110000101111100101011100110100010011110001010000110 K"
b100010000100000111011100000111111011010011100101010001111100111 -#
#29
b1011001001000111000010111110010101110011010001001111000101000011 "
b100000011001100000111111010010111110101010001101101111010011110 i
b10000001111111010101001100111011101001011000110111101101011 K"
b111100110010101011001001100111011100001110101011010100011010001 -#
#30
b1000001000000111111101010100110011101110100101100011011110110101 "
b10101111011000100011001101001110111010010100001011001110011000 i
b1011001001000111000010111110010101110011010001001111000101000011 K"
b100100100000100111011001111000110101010001011110011010001111101 -#
#31
b1101100100100011100001011111001010111001101000100111100010100001 "
b100111001000111100110101010001011111011010011110101011100011 i
b1000001000000111111101010100110011101110100101100011011110110101 K"
b1001111001010010010011011110100000011101010110111000010100011011 -#
#32
b1100000100000011111110101010011001110111010010110001101111011010 "
b1011010110001010110000010011101110100111000010110011011010000011 i
b1101100100100011100001011111001010111001101000100111100010100001 K"
b1001100001000000110011000001111110100101111101010100011011011110 -#
#33
b110110010010001110000101111100101011100110100010011110001010000 "
b1001000110001000001111110100101111111010100111001010110000111101 i
b1100000100000011111110101010011001110111010010110001101111011010 K"
b1110001100101011110110001000110011010011101110100101000010110011 -#
#34
b110000010000001111111010101001100111011101001011000110111101101 "
b101011010100001000110011011011101110100101100010110011000110000 i
b110110010010001110000101111100101011100110100010011110001010000 K"
b1000001100001001110010001111001101010100010111110110100111101010 -#
#35
b1011011001001000111000010111110010101110011010001001111000101000 "
b1001010000001111101111011100010101110110000111100010111010111 i
b110000010000001111111010101001100111011101001011000110111101101 K"
b11110110110101100010101100000100111011101001110000101100110110 -#
#36
b11000001000000111111101010100110011101110100101100011011110110 "
b110101100010100100100110111011001001111000101100110110100000110 i
b1011011001001000111000010111110010101110011010001001111000101000 K"
b11000010010001100010000011111101001011111110101001110010101100 -#
#37
b101101100100100011100001011111001010111001101000100111100010100 "
b10001000010000011111111000011111100101001110010101100101111011 i
b11000001000000111111101010100110011101110100101100011011110110 K"
b1101011101010110101000010001100110110111011101001011000101100110 -#
#38
b1100000100000011111110101010011001110111010010110001101111011 "
b1011110001000010001100100110111111111000011000101101110001100000 i
b101101100100100011100001011111001010111001101000100111100010100 K"
b11000010010100000011111011110111000101011101100001111000101 -#
#39
b1010110110010010001110000101111100101011100110100010011110001010 "
b10010000000010111111100111000001011101100101111001101010111110 i
b1100000100000011111110101010011001110111010010110001101111011 K"
b111101101101011000101001001001101110110010011110001011001101101 -#
#40
b110000010000001111111010101001100111011101001011000110111101 "
b1100011100101001001001101111110010001110001011011100101000001101 i
b1010110110010010001110000101111100101011100110100010011110001010 K"
b110000000100010000100000111111110000111111001010011100101011001 -#
#41
b1101011011001001000111000010111110010101110011010001001111000101 "
b100010000100000111011100000111111011010011100101010001111100111 i
b110000010000001111111010101001100111011101001011000110111101 K"
b1011111010111100010000100011001001101111111110000110001011011100 -#
#42
b1000011000001000000111111101010100110011101110100101100011011110 "
b111100110010101011001001100111011100001110101011010100011010001 i
b1101011011001001000111000010111110010101110011010001001111000101 K"
b110100100100000000101111111001110000010111011001011110011010 -#
#43
b110101101100100100011100001011111001010111001101000100111100010 "
b100100100000100111011001111000110101010001011110011010001111101 i
b1000011000001000000111111101010100110011101110100101100011011110 K"
b1110011111000111001010010010011011111100100011100010110111001010 -#
#44
b100001100000100000011111110101010011001110111010010110001101111 "
b1001111001010010010011011110100000011101010110111000010100011011 i
b110101101100100100011100001011111001010111001101000100111100010 K"
b1101000101000100001000001110111000001111110110100111001010100011 -#
#45
b1011010110110010010001110000101111100101011100110100010011110001 "
b1001100001000000110011000001111110100101111101010100011011011110 i
b100001100000100000011111110101010011001110111010010110001101111 K"
b111110101111001100101010110010011001110111000011101010110101000 -#
#46
b1010000110000010000001111111010101001100111011101001011000110111 "
b1110001100101011110110001000110011010011101110100101000010110011 i
b1011010110110010010001110000101111100101011100110100010011110001 K"
b1101101001001000001001110110011110001101010100010111100110100 -#
#47
b1101101011011001001000111000010111110010101110011010001001111000 "
b1000001100001001110010001111001101010100010111110110100111101010 i
b1010000110000010000001111111010101001100111011101001011000110111 K"
b1101111010011110010100100100110111101000000111010101101110000101 -#
#48
b101000011000001000000111111101010100110011101110100101100011011 "
b11110110110101100010101100000100111011101001110000101100110110 i
b1101101011011001001000111000010111110010101110011010001001111000 K"
b1011001110011000010000001100110000011111101001011111010101000110 -#
#49
b1110110101101100100100011100001011111001010111001101000100111100 "
b11000010010001100010000011111101001011111110101001110010101100 i
b101000011000001000000111111101010100110011101110100101100011011 K"
b1110101011100011001010111101100010001100110100111011101001010000 -#
#50
b10100001100000100000011111110101010011001110111010010110001101 "
b1101011101010110101000010001100110110111011101001011000101100110 i
b1110110101101100100100011100001011111001010111001101000100111100 K"
b11011010000011000010011100100011110011010101000101111101101001 -#
#51
b1111011010110110010010001110000101111100101011100110100010011110 "
b11000010010100000011111011110111000101011101100001111000101 i
b10100001100000100000011111110101010011001110111010010110001101 K"
b1010110000111101101101011000101011000001001110111010011100001011 -#
#52
b1010000110000010000001111111010101001100111011101001011000110 "
b111101101101011000101001001001101110110010011110001011001101101 i
b1111011010110110010010001110000101111100101011100110100010011110 K"
b110011000110000100100011000100000111111010010111111101010011100 -#
#53
b111101101011011001001000111000010111110010101110011010001001111 "
b110000000100010000100000111111110000111111001010011100101011001 i
b1010000110000010000001111111010101001100111011101001011000110 K"
b1100010111010111010101101010000100011001101101110111010010110001 -#
#54
b1000101000011000001000000111111101010100110011101110100101100011 "
b1011111010111100010000100011001001101111111110000110001011011100 i
b111101101011011001001000111000010111110010101110011010001001111 K"
b110110100000110000100101000000111110111101110001010111011000011 -#
#55
b1011110110101101100100100011100001011111001010111001101000100111 "
b110100100100000000101111111001110000010111011001011110011010 i
b1000101000011000001000000111111101010100110011101110100101100011 K"
b101100101111011011010110001010010010011011101100100111100010110 -#
#56
b1100010100001100000100000011111110101010011001110111010010110001 "
b1110011111000111001010010010011011111100100011100010110111001010 i
b1011110110101101100100100011100001011111001010111001101000100111 K"
b1101110001100000001000100001000001111111100001111110010100111001 -#
#57
b1101111011010110110010010001110000101111100101011100110100010011 "
b1101000101000100001000001110111000001111110110100111001010100011 i
b1100010100001100000100000011111110101010011001110111010010110001 K"
b1001101010111110101111000100001000110010011011111111100001100010 -#
#58
b1110001010000110000010000001111111010101001100111011101001011000 "
b111110101111001100101010110010011001110111000011101010110101000 i
b1101111011010110110010010001110000101111100101011100110100010011 K"
b1100101000001101001001000000001011111110011100000101110110010111 -#
#59
b110111101101011011001001000111000010111110010101110011010001001 "
b1101101001001000001001110110011110001101010100010111100110100 i
b1110001010000110000010000001111111010101001100111011101001011000 K"
b1010001111100111110001110010100100100110111111001000111000101101 -#
#60
b1111000101000011000001000000111111101010100110011101110100101100 "
b1101111010011110010100100100110111101000000111010101101110000101 i
b110111101101011011001001000111000010111110010101110011010001001 K"
b1010100011010001010001000010000011101110000011111101101001110010 -#
#61
b11011110110101101100100100011100001011111001010111001101000100 "
b1011001110011000010000001100110000011111101001011111010101000110 i
b1111000101000011000001000000111111101010100110011101110100101100 K"
b11010001111101011110011001010101100100110011101110000111010101 -#
#62
b111100010100001100000100000011111110101010011001110111010010110 "
b1110101011100011001010111101100010001100110100111011101001010000 i
b11011110110101101100100100011100001011111001010111001101000100 K"
b1000010100011011010010010000010011101100111100011010101000101111 -#
#63
b1101111011010110110010010001110000101111100101011100110100010 "
b11011010000011000010011100100011110011010101000101111101101001 i
b111100010100001100000100000011111110101010011001110111010010110 K"
b100011011011110100111100101001001001101111010000001110101011011 -#
#64
b11110001010000110000010000001111111010101001100111011101001011 "
b1010110000111101101101011000101011000001001110111010011100001011 i
b1101111011010110110010010001110000101111100101011100110100010 K"
b101000010110011100110000100000011001100000111111010010111110101 -#
#65
b1000110111101101011011001001000111000010111110010101110011010001 "
b110011000110000100100011000100000111111010010111111101010011100 i
b11110001010000110000010000001111111010101001100111011101001011 K"
b110100111101010111000110010101111011000100011001101001110111010 -#
#66
b1001111000101000011000001000000111111101010100110011101110100101 "
b1100010111010111010101101010000100011001101101110111010010110001 i
b1000110111101101011011001001000111000010111110010101110011010001 K"
b101100110110100000110000100111001000111100110101010001011111 -#
#67
b1100011011110110101101100100100011100001011111001010111001101000 "
b110110100000110000100101000000111110111101110001010111011000011 i
b1001111000101000011000001000000111111101010100110011101110100101 K"
b1001110010101100001111011011010110001010110000010011101110100111 -#
#68
b100111100010100001100000100000011111110101010011001110111010010 "
b101100101111011011010110001010010010011011101100100111100010110 i
b1100011011110110101101100100100011100001011111001010111001101000 K"
b1011000101100110001100001001000110001000001111110100101111111010 -#
#69
b110001101111011010110110010010001110000101111100101011100110100 "
b1101110001100000001000100001000001111111100001111110010100111001 i
b100111100010100001100000100000011111110101010011001110111010010 K"
b1100001111000101110101110101011010100001000110011011011101110100 -#
#70
b10011110001010000110000010000001111111010101001100111011101001 "
b1001101010111110101111000100001000110010011011111111100001100010 i
b110001101111011010110110010010001110000101111100101011100110100 K"
b1011001101101000001100001001010000001111101111011100010101110 -#
#71
b1011000110111101101011011001001000111000010111110010101110011010 "
b1100101000001101001001000000001011111110011100000101110110010111 i
b10011110001010000110000010000001111111010101001100111011101001 K"
b11100101011001011110110110101100010100100100110111011001001111 -#
#72
b1001111000101000011000001000000111111101010100110011101110100 "
b1010001111100111110001110010100100100110111111001000111000101101 i
b1011000110111101101011011001001000111000010111110010101110011010 K"
b110001011011100011000000010001000010000011111111000011111100101 -#
#73
b101100011011110110101101100100100011100001011111001010111001101 "
b1010100011010001010001000010000011101110000011111101101001110010 i
b1001111000101000011000001000000111111101010100110011101110100 K"
b1001011110011010101111101011110001000010001100100110111111111000 -#
#74
b1000100111100010100001100000100000011111110101010011001110111010 "
b11010001111101011110011001010101100100110011101110000111010101 i
b101100011011110110101101100100100011100001011111001010111001101 K"
b10110111001010000011010010010000000010111111100111000001011101 -#
#75
b10110001101111011010110110010010001110000101111100101011100110 "
b1000010100011011010010010000010011101100111100011010101000101111 i
b1000100111100010100001100000100000011111110101010011001110111010 K"
b111001010100011111001111100011100101001001001101111110010001110 -#
#76
b100010011110001010000110000010000001111111010101001100111011101 "
b100011011011110100111100101001001001101111010000001110101011011 i
b10110001101111011010110110010010001110000101111100101011100110 K"
b1101010110101000110100010100010000100000111011100000111111011010 -#
#77
b1001011000110111101101011011001001000111000010111110010101110011 "
b101000010110011100110000100000011001100000111111010010111110101 i
b100010011110001010000110000010000001111111010101001100111011101 K"
b10111100110100011111010111100110010101011001001100111011100001 -#
#78
b1010001001111000101000011000001000000111111101010100110011101110 "
b110100111101010111000110010101111011000100011001101001110111010 i
b1001011000110111101101011011001001000111000010111110010101110011 K"
b101101110000101000110110100100100000100111011001111000110101010 -#
#79
b100101100011011110110101101100100100011100001011111001010111001 "
b101100110110100000110000100111001000111100110101010001011111 i
b1010001001111000101000011000001000000111111101010100110011101110 K"
b1111010101000110110111101001111001010010010011011110100000011101 -#
#80
b1101000100111100010100001100000100000011111110101010011001110111 "
b1001110010101100001111011011010110001010110000010011101110100111 i
b100101100011011110110101101100100100011100001011111001010111001 K"
b1011101001010000101100111001100001000000110011000001111110100101 -#
#81
b1010010110001101111011010110110010010001110000101111100101011100 "
b1011000101100110001100001001000110001000001111110100101111111010 i
b1101000100111100010100001100000100000011111110101010011001110111 K"
b101111101101001111010101110001100101011110110001000110011010011 -#
#82
b110100010011110001010000110000010000001111111010101001100111011 "
b1100001111000101110101110101011010100001000110011011011101110100 i
b1010010110001101111011010110110010010001110000101111100101011100 K"
b1010011100001011001101101000001100001001110010001111001101010100 -#
#83
b1101001011000110111101101011011001001000111000010111110010101110 "
b1011001101101000001100001001010000001111101111011100010101110 i
b110100010011110001010000110000010000001111111010101001100111011 K"
b1111101010011100101011000011110110110101100010101100000100111011 -#
#84
b11010001001111000101000011000001000000111111101010100110011101 "
b11100101011001011110110110101100010100100100110111011001001111 i
b1101001011000110111101101011011001001000111000010111110010101110 K"
b111010010110001011001100011000010010001100010000011111101001011 -#
#85
b1110100101100011011110110101101100100100011100001011111001010111 "
b110001011011100011000000010001000010000011111111000011111100101 i
b11010001001111000101000011000001000000111111101010100110011101 K"
b1010111011000011110001011101011101010110101000010001100110110111 -#
#86
b1001101000100111100010100001100000100000011111110101010011001110 "
b1001011110011010101111101011110001000010001100100110111111111000 i
b1110100101100011011110110101101100100100011100001011111001010111 K"
b100111100010110011011010000011000010010100000011111011110111000 -#
#87
b111010010110001101111011010110110010010001110000101111100101011 "
b10110111001010000011010010010000000010111111100111000001011101 i
b1001101000100111100010100001100000100000011111110101010011001110 K"
b1110010100111001010110010111101101101011000101001001001101110110 -#
#88
b1100110100010011110001010000110000010000001111111010101001100111 "
b111001010100011111001111100011100101001001001101111110010001110 i
b111010010110001101111011010110110010010001110000101111100101011 K"
b1111100001100010110111000110000000100010000100000111111110000111 -#
#89
b1011101001011000110111101101011011001001000111000010111110010101 "
b1101010110101000110100010100010000100000111011100000111111011010 i
b1100110100010011110001010000110000010000001111111010101001100111 K"
b101110110010111100110101011111010111100010000100011001001101111 -#
#90
b1110011010001001111000101000011000001000000111111101010100110011 "
b10111100110100011111010111100110010101011001001100111011100001 i
b1011101001011000110111101101011011001001000111000010111110010101 K"
b1000111000101101110010100000110100100100000000101111111001110000 -#
#91
b1101110100101100011011110110101101100100100011100001011111001010 "
b101101110000101000110110100100100000100111011001111000110101010 i
b1110011010001001111000101000011000001000000111111101010100110011 K"
b1101101001110010101000111110011111000111001010010010011011111100 -#
#92
b111001101000100111100010100001100000100000011111110101010011001 "
b1111010101000110110111101001111001010010010011011110100000011101 i
b1101110100101100011011110110101101100100100011100001011111001010 K"
b1110000111010101101010001101000101000100001000001110111000001111 -#
#93
b1110111010010110001101111011010110110010010001110000101111100101 "
b1011101001010000101100111001100001000000110011000001111110100101 i
b111001101000100111100010100001100000100000011111110101010011001 K"
b1010101000101111001101000111110101111001100101010110010011001110 -#
#94
b1011100110100010011110001010000110000010000001111111010101001100 "
b101111101101001111010101110001100101011110110001000110011010011 i
b1110111010010110001101111011010110110010010001110000101111100101 K"
b1110101011011100001010001101101001001000001001110110011110001 -#
#95
b111011101001011000110111101101011011001001000111000010111110010 "
b1010011100001011001101101000001100001001110010001111001101010100 i
b1011100110100010011110001010000110000010000001111111010101001100 K"
b1010010111110101010001101101111010011110010100100100110111101000 -#
#96
b101110011010001001111000101000011000001000000111111101010100110 "
b1111101010011100101011000011110110110101100010101100000100111011 i
b111011101001011000110111101101011011001001000111000010111110010 K"
b1101001110111010010100001011001110011000010000001100110000011111 -#
#97
b11101110100101100011011110110101101100100100011100001011111001 "
b111010010110001011001100011000010010001100010000011111101001011 i
b101110011010001001111000101000011000001000000111111101010100110 K"
b101010001011111011010011110101011100011001010111101100010001100 -#
#98
b1010111001101000100111100010100001100000100000011111110101010011 "
b1010111011000011110001011101011101010110101000010001100110110111 i
b11101110100101100011011110110101101100100100011100001011111001 K"
b11101110100111000010110011011010000011000010011100100011110011 -#
#99
b1001110111010010110001101111011010110110010010001110000101111100 "
b100111100010110011011010000011000010010100000011111011110111000 i
b1010111001101000100111100010100001100000100000011111110101010011 K"
b100101111111010100111001010110000111101101101011000101011000001 -#
#100
b101011100110100010011110001010000110000010000001111111010101001 "
b1110010100111001010110010111101101101011000101001001001101110110 i
b1001110111010010110001101111011010110110010010001110000101111100 K"
b1011011101110100101100010110011000110000100100011000100000111111 -#
#101
b1100111011101001011000110111101101011011001001000111000010111110 "
b1111100001100010110111000110000000100010000100000111111110000111 i
b101011100110100010011110001010000110000010000001111111010101001 K"
b1011100010101110110000111100010111010111010101101010000100011001 -#
#102
b10101110011010001001111000101000011000001000000111111101010100 "
b101110110010111100110101011111010111100010000100011001001101111 i
b1100111011101001011000110111101101011011001001000111000010111110 K"
b111011001001111000101100110110100000110000100101000000111110111 -#
#103
b110011101110100101100011011110110101101100100100011100001011111 "
b1000111000101101110010100000110100100100000000101111111001110000 i
b10101110011010001001111000101000011000001000000111111101010100 K"
b1000011111100101001110010101100101111011011010110001010010010011 -#
#104
b1001010111001101000100111100010100001100000100000011111110101010 "
b1101101001110010101000111110011111000111001010010010011011111100 i
b110011101110100101100011011110110101101100100100011100001011111 K"
b110111111111000011000101101110001100000001000100001000001111111 -#
#105
b11001110111010010110001101111011010110110010010001110000101111 "
b1110000111010101101010001101000101000100001000001110111000001111 i
b1001010111001101000100111100010100001100000100000011111110101010 K"
b111000001011101100101111001101010111110101111000100001000110010 -#
#106
b1100101011100110100010011110001010000110000010000001111111010101 "
b1010101000101111001101000111110101111001100101010110010011001110 i
b11001110111010010110001101111011010110110010010001110000101111 K"
b1111110010001110001011011100101000001101001001000000001011111110 -#
#107
b1001100111011101001011000110111101101011011001001000111000010111 "
b1110101011011100001010001101101001001000001001110110011110001 i
b1100101011100110100010011110001010000110000010000001111111010101 K"
b111111011010011100101010001111100111110001110010100100100110 -#
#108
b1110010101110011010001001111000101000011000001000000111111101010 "
b1010010111110101010001101101111010011110010100100100110111101000 i
b1001100111011101001011000110111101101011011001001000111000010111 K"
b1100111011100001110101011010100011010001010001000010000011101110 -#
#109
b100110011101110100101100011011110110101101100100100011100001011 "
b1101001110111010010100001011001110011000010000001100110000011111 i
b1110010101110011010001001111000101000011000001000000111111101010 K"
b1111000110101010001011110011010001111101011110011001010101100100 -#
#110
b1111001010111001101000100111100010100001100000100000011111110101 "
b101010001011111011010011110101011100011001010111101100010001100 i
b100110011101110100101100011011110110101101100100100011100001011 K"
b1110100000011101010110111000010100011011010010010000010011101100 -#
#111
b1010011001110111010010110001101111011010110110010010001110000101 "
b11101110100111000010110011011010000011000010011100100011110011 i
b1111001010111001101000100111100010100001100000100000011111110101 K"
b1111110100101111101010100011011011110100111100101001001001101 -#
#112
b1111100101011100110100010011110001010000110000010000001111111010 "
b100101111111010100111001010110000111101101101011000101011000001 i
b1010011001110111010010110001101111011010110110010010001110000101 K"
b1000110011010011101110100101000010110011100110000100000011001100 -#
#113
b101001100111011101001011000110111101101011011001001000111000010 "
b1011011101110100101100010110011000110000100100011000100000111111 i
b1111100101011100110100010011110001010000110000010000001111111010 K"
b1111001101010100010111110110100111101010111000110010101111011000 -#
#114
b111110010101110011010001001111000101000011000001000000111111101 "
b1011100010101110110000111100010111010111010101101010000100011001 i
b101001100111011101001011000110111101101011011001001000111000010 K"
b1100000100111011101001110000101100110110100000110000100111001000 -#
#115
b1010100110011101110100101100011011110110101101100100100011100001 "
b111011001001111000101100110110100000110000100101000000111110111 i
b111110010101110011010001001111000101000011000001000000111111101 K"
b11111101001011111110101001110010101100001111011011010110001010 -#
#116
b1011111001010111001101000100111100010100001100000100000011111110 "
b1000011111100101001110010101100101111011011010110001010010010011 i
b1010100110011101110100101100011011110110101101100100100011100001 K"
b1100110110111011101001011000101100110001100001001000110001000 -#
#117
b101010011001110111010010110001101111011010110110010010001110000 "
b110111111111000011000101101110001100000001000100001000001111111 i
b1011111001010111001101000100111100010100001100000100000011111110 K"
b1111011110111000101011101100001111000101110101110101011010100001 -#
#118
b101111100101011100110100010011110001010000110000010000001111111 "
b111000001011101100101111001101010111110101111000100001000110010 i
b101010011001110111010010110001101111011010110110010010001110000 K"
b1001001101110110010011110001011001101101000001100001001010000001 -#
#119
b1010101001100111011101001011000110111101101011011001001000111000 "
b1111110010001110001011011100101000001101001001000000001011111110 i
b101111100101011100110100010011110001010000110000010000001111111 K"
b111111110000111111001010011100101011001011110110110101100010100 -#
#120
b10111110010101110011010001001111000101000011000001000000111111 "
b111111011010011100101010001111100111110001110010100100100110 i
b1010101001100111011101001011000110111101101011011001001000111000 K"
b11001001101111111110000110001011011100011000000010001000010000 -#
#121
b1101010100110011101110100101100011011110110101101100100100011100 "
b1100111011100001110101011010100011010001010001000010000011101110 i
b10111110010101110011010001001111000101000011000001000000111111 K"
b1111111001110000010111011001011110011010101111101011110001000010 -#
#122
b1011111001010111001101000100111100010100001100000100000011111 "
b1111000110101010001011110011010001111101011110011001010101100100 i
b1101010100110011101110100101100011011110110101101100100100011100 K"
b10011011111100100011100010110111001010000011010010010000000010 -#
#123
b1110101010011001110111010010110001101111011010110110010010001110 "
b1110100000011101010110111000010100011011010010010000010011101100 i
b1011111001010111001101000100111100010100001100000100000011111 K"
b1110111000001111110110100111001010100011111001111100011100101001 -#
#124
b101111100101011100110100010011110001010000110000010000001111 "
b1111110100101111101010100011011011110100111100101001001001101 i
b1110101010011001110111010010110001101111011010110110010010001110 K"
b110010011001110111000011101010110101000110100010100010000100000 -#
#125
b1111010101001100111011101001011000110111101101011011001001000111 "
b1000110011010011101110100101000010110011100110000100000011001100 i
b101111100101011100110100010011110001010000110000010000001111 K"
b1110110011110001101010100010111100110100011111010111100110010101 -#
#126
b1000010111110010101110011010001001111000101000011000001000000111 "
b1111001101010100010111110110100111101010111000110010101111011000 i
b1111010101001100111011101001011000110111101101011011001001000111 K"
b100110111101000000111010101101110000101000110110100100100000100 -#
#127
b1111101010100110011101110100101100011011110110101101100100100011 "
b1100000100111011101001110000101100110110100000110000100111001000 i
b1000010111110010101110011010001001111000101000011000001000000111 K"
b1100110000011111101001011111010101000110110111101001111001010010 -#
#128
b1100001011111001010111001101000100111100010100001100000100000011 "
b11111101001011111110101001110010101100001111011011010110001010 i
b1111101010100110011101110100101100011011110110101101100100100011 K"
b1101100010001100110100111011101001010000101100111001100001000000 -#
#129
b1111110101010011001110111010010110001101111011010110110010010001 "
b1100110110111011101001011000101100110001100001001000110001000 i
b1100001011111001010111001101000100111100010100001100000100000011 K"
b1100100011110011010101000101111101101001111010101110001100101011 -#
#130
b1110000101111100101011100110100010011110001010000110000010000001 "
b1111011110111000101011101100001111000101110101110101011010100001 i
b1111110101010011001110111010010110001101111011010110110010010001 K"
b1000101011000001001110111010011100001011001101101000001100001001 -#
#131
b1111111010101001100111011101001011000110111101101011011001001000 "
b1001001101110110010011110001011001101101000001100001001010000001 i
b1110000101111100101011100110100010011110001010000110000010000001 K"
b1000100000111111010010111111101010011100101011000011110110110101 -#
#132
b111000010111110010101110011010001001111000101000011000001000000 "
b111111110000111111001010011100101011001011110110110101100010100 i
b1111111010101001100111011101001011000110111101101011011001001000 K"
b1010000100011001101101110111010010110001011001100011000010010001 -#
#133
b111111101010100110011101110100101100011011110110101101100100100 "
b11001001101111111110000110001011011100011000000010001000010000 i
b111000010111110010101110011010001001111000101000011000001000000 K"
b1000000111110111101110001010111011000011110001011101011101010110 -#
#134
b11100001011111001010111001101000100111100010100001100000100000 "
b1111111001110000010111011001011110011010101111101011110001000010 i
b111111101010100110011101110100101100011011110110101101100100100 K"
b1010010010011011101100100111100010110011011010000011000010010 -#
#135
b11111110101010011001110111010010110001101111011010110110010010 "
b10011011111100100011100010110111001010000011010010010000000010 i
b11100001011111001010111001101000100111100010100001100000100000 K"
b1000001111111100001111110010100111001010110010111101101101011 -#
