serdes_test/.Xil/Vivado-23052-21-10244/hw_ila_data_2/zip_work/waveform.vcd
$date
        2021-Jul-06 17:29:26
$end
$version
        Vivado v2020.2 (64-bit)
$end
$timescale
        1ps
$end
$scope module dut $end
$var reg 32 " gt0_txdata_i [31:0] $end
$var reg 32 B map_dout [31:0] $end
$var reg 6 b errorCount_to_check_source [5:0] $end
$var reg 32 h prbs_from_check_to_check_source [31:0] $end
$var reg 1 *" gtwizard_0_exdes_i/rxresetdone_vio_i $end
$var reg 1 +" gtwizard_0_exdes_i/soft_reset_vio_i $end
$var reg 1 ," _TRIGGER $end
$var reg 1 -" _WINDOW $end
$var reg 1 ." _GAP $end
$upscope $end
$enddefinitions $end
#0
$dumpvars
b1000000111111101010100110011 "
b1110011010001100110111101101101 B
b0 b
b10111010010110001101111011010110 h
0*"
0+"
0,"
1-"
0."
$end
#1
b11100110100010011110001010000110 "
b10111010101100110111110000 B
b1000000111111101010100110011 h
#2
b1100100100011100001011111001010 "
b111101100000110011010100101001 B
b11100110100010011110001010000110 h
#3
b11011101001011000110111101101011 "
b11100001010111110100000100111 B
b1100100100011100001011111001010 h
#4
b100000011111110101010011001 "
b11001111000110101011111010110110 B
b11011101001011000110111101101011 h
#5
b1110011010001001111000101000011 "
b1000101010100011011111000011 B
b100000011111110101010011001 h
#6
b10110010010001110000101111100101 "
b11110100000011001101010110100100 B
b1110011010001001111000101000011 h
#7
b11101110100101100011011110110101 "
b1110001101011001010001010011101 B
b10110010010001110000101111100101 h
#8
b10000010000001111111010101001100 "
b111111011010011111100011011001 B
b11101110100101100011011110110101 h
#9
b10111001101000100111100010100001 "
b100001101010001101110100001110 B
b10000010000001111111010101001100 h
#10
b11011001001000111000010111110010 "
b11010011001100010101011010010001 B
b10111001101000100111100010100001 h
#11
b1110111010010110001101111011010 "
b11000111101100001000100101110101 B
b11011001001000111000010111110010 h
#12
b11000001000000111111101010100110 "
b11111100101001101110001001100111 B
b1110111010010110001101111011010 h
#13
b1011100110100010011110001010000 "
b10000101101000000111011100111001 B
b11000001000000111111101010100110 h
#14
b1101100100100011100001011111001 "
b1001110110001010101101001000100 B
b1011100110100010011110001010000 h
#15
b111011101001011000110111101101 "
b11110110000010010010111010111 B
b1101100100100011100001011111001 h
#16
b1100000100000011111110101010011 "
b11110010100110011000101110011111 B
b111011101001011000110111101101 h
#17
b10101110011010001001111000101000 "
b10100100000011101111111100100 B
b1100000100000011111110101010011 h
#18
b10110110010010001110000101111100 "
b111011000101100110101100010010 B
b10101110011010001001111000101000 h
#19
b10011101110100101100011011110110 "
b1111001000001101001010101011110 B
b10110110010010001110000101111100 h
#20
b110000010000001111111010101001 "
b11001011011001010010110101111101 B
b10011101110100101100011011110110 h
#21
b1010111001101000100111100010100 "
b1010000000001000111111110010011 B
b110000010000001111111010101001 h
#22
b1011011001001000111000010111110 "
b11101100010110001010111001001000 B
b1010111001101000100111100010100 h
#23
b11001110111010010110001101111011 "
b11100110000110000101010001111011 B
b1011011001001000111000010111110 h
#24
b11000001000000111111101010100 "
b101111100101111011010011110110 B
b11001110111010010110001101111011 h
#25
b101011100110100010011110001010 "
b1000010000100001111111001001100 B
b11000001000000111111101010100 h
#26
b10101101100100100011100001011111 "
b10110010011000111011100000100011 B
b101011100110100010011110001010 h
#27
b1100111011101001011000110111101 "
b10011011011000010101001011101110 B
b10101101100100100011100001011111 h
#28
b1100000100000011111110101010 "
b10111100010111001101000111011011 B
b1100111011101001011000110111101 h
#29
b10010101110011010001001111000101 "
b1010010000001111101000110011 B
b1100000100000011111110101010 h
#30
b11010110110010010001110000101111 "
b11001001100011111110000010001101 B
b10010101110011010001001111000101 h
#31
b110011101110100101100011011110 "
b1101101100001110100101010111010 B
b11010110110010010001110000101111 h
#32
b10000110000010000001111111010101 "
b11110000011100110100011001101111 B
b110011101110100101100011011110 h
#33
b11001010111001101000100111100010 "
b101001000000101110101011001101 B
b10000110000010000001111111010101 h
#34
b1101011011001001000111000010111 "
b100111001111011000001100110101 B
b11001010111001101000100111100010 h
#35
b10011001110111010010110001101111 "
b10110110000111000010101111101000 B
b1101011011001001000111000010111 h
#36
b1000011000001000000111111101010 "
b11000011110011110001101010111110 B
b10011001110111010010110001101111 h
#37
b11100101011100110100010011110001 "
b10100100000010001010101000110111 B
b1000011000001000000111111101010 h
#38
b10110101101100100100011100001011 "
b10011101111101000000110011010101 B
b11100101011100110100010011110001 h
#39
b1001100111011101001011000110111 "
b11011001011100011010110010100010 B
b10110101101100100100011100001011 h
#40
b10100001100000100000011111110101 "
b1110001111110110100111111000 B
b1001100111011101001011000110111 h
#41
b11110010101110011010001001111000 "
b10010001001000011010100011011101 B
b10100001100000100000011111110101 h
#42
b11011010110110010010001110000101 "
b1110101110100110011000101010110 B
b11110010101110011010001001111000 h
#43
b10100110011101110100101100011011 "
b1100111110001111011000010001001 B
b11011010110110010010001110000101 h
#44
b1010000110000010000001111111010 "
b111001111111001010011011100010 B
b10100110011101110100101100011011 h
#45
b11111001010111001101000100111100 "
b1000100100001011010000001110111 B
b1010000110000010000001111111010 h
#46
b11101101011011001001000111000010 "
b11010111010011101100010101011010 B
b11111001010111001101000100111100 h
#47
b1010011001110111010010110001101 "
b10011111000111101100000100100101 B
b11101101011011001001000111000010 h
#48
b101000011000001000000111111101 "
b11100100111100101001100110001011 B
b1010011001110111010010110001101 h
#49
b1111100101011100110100010011110 "
b10010000101001000000111011111 B
b101000011000001000000111111101 h
#50
b11110110101101100100100011100001 "
b1011110001110110001011001101011 B
b1111100101011100110100010011110 h
#51
b10101001100111011101001011000110 "
b1111101011110010000011010010101 B
b11110110101101100100100011100001 h
#52
b10100001100000100000011111110 "
b10010011110010110110010100101101 B
b10101001100111011101001011000110 h
#53
b10111110010101110011010001001111 "
b1001000010100000000010001111111 B
b10100001100000100000011111110 h
#54
b1111011010110110010010001110000 "
b1111011111011000101100010101110 B
b10111110010101110011010001001111 h
#55
b1010100110011101110100101100011 "
b11110110111001100001100001010100 B
b1111011010110110010010001110000 h
#56
b10001010000110000010000001111111 "
b1001100001011111001011110110100 B
b1010100110011101110100101100011 h
#57
b1011111001010111001101000100111 "
b100011010000100001000011111110 B
b10001010000110000010000001111111 h
#58
b10111101101011011001001000111000 "
b11101110101100100110001110111000 B
b1011111001010111001101000100111 h
#59
b10101010011001110111010010110001 "
b11011011100110110110000101010010 B
b10111101101011011001001000111000 h
#60
b11000101000011000001000000111111 "
b110011101111000101110011010001 B
b10101010011001110111010010110001 h
#61
b101111100101011100110100010011 "
b10001101000010100100000011111010 B
b11000101000011000001000000111111 h
#62
b11011110110101101100100100011100 "
b10111010110010011000111111100000 B
b101111100101011100110100010011 h
#63
b11010101001100111011101001011000 "
b1101111011011011000011101001010 B
b11011110110101101100100100011100 h
#64
b11100010100001100000100000011111 "
b11001101111100000111001101000110 B
b11010101001100111011101001011000 h
#65
b10111110010101110011010001001 "
b110101001010010000001011101010 B
b11100010100001100000100000011111 h
#66
b1101111011010110110010010001110 "
b11101000001001110011110110000011 B
b10111110010101110011010001001 h
#67
b11101010100110011101110100101100 "
b10111110101101100001110000101011 B
b1101111011010110110010010001110 h
#68
b11110001010000110000010000001111 "
b110111110000111100111100011010 B
b11101010100110011101110100101100 h
#69
b1011111001010111001101000100 "
b11010101101001000000100010101010 B
b11110001010000110000010000001111 h
#70
b110111101101011011001001000111 "
b10100010100111011111010000001100 B
b1011111001010111001101000100 h
#71
b11110101010011001110111010010110 "
b11111000110110010111000110101100 B
b110111101101011011001001000111 h
#72
b1111000101000011000001000000111 "
b11011101000011100011111101101001 B
b11110101010011001110111010010110 h
#73
b10000101111100101011100110100010 "
b1010110100100010010000110101000 B
b1111000101000011000001000000111 h
#74
b11011110110101101100100100011 "
b10001001011101011101001100110001 B
b10000101111100101011100110100010 h
#75
b11111010101001100111011101001011 "
b11100010011001111100011110110000 B
b11011110110101101100100100011 h
#76
b111100010100001100000100000011 "
b1110111001110011111110010100110 B
b11111010101001100111011101001011 h
#77
b11000010111110010101110011010001 "
b1011010010001001000010110100000 B
b111100010100001100000100000011 h
#78
b10001101111011010110110010010001 "
b100101110101110100111011000101 B
b11000010111110010101110011010001 h
#79
b11111101010100110011101110100101 "
b10001011100111110001111011000001 B
b10001101111011010110110010010001 h
#80
b10011110001010000110000010000001 "
b11011111111001001111001010011001 B
b11111101010100110011101110100101 h
#81
b11100001011111001010111001101000 "
b1101011000100100001010010000001 B
b10011110001010000110000010000001 h
#82
b11000110111101101011011001001000 "
b10010101010111100011101100010110 B
b11100001011111001010111001101000 h
#83
b11111110101010011001110111010010 "
b101101011111010111100100000110 B
b11000110111101101011011001001000 h
#84
b1001111000101000011000001000000 "
b1111111100100111100101101100101 B
b11111110101010011001110111010010 h
#85
b1110000101111100101011100110100 "
b10101110010010000101000000000100 B
b1001111000101000011000001000000 h
#86
b1100011011110110101101100100100 "
b1010100011110111110110001011000 B
b1110000101111100101011100110100 h
#87
b1111111010101001100111011101001 "
b10110100111101101110011000011000 B
b1100011011110110101101100100100 h
#88
b100111100010100001100000100000 "
b11111110010011000010111110010111 B
b1111111010101001100111011101001 h
#89
b111000010111110010101110011010 "
b10111000001000110100001000010000 B
b100111100010100001100000100000 h
#90
b10110001101111011010110110010010 "
b1010010111011101011001001100011 B
b111000010111110010101110011010 h
#91
b111111101010100110011101110100 "
b11010001110110111001101101100001 B
b10110001101111011010110110010010 h
#92
b10011110001010000110000010000 "
b11111010001100111011110001011100 B
b111111101010100110011101110100 h
#93
b11100001011111001010111001101 "
b11100000100011010000101001000000 B
b10011110001010000110000010000 h
#94
b1011000110111101101011011001001 "
b1001010101110101100100110001111 B
b11100001011111001010111001101 h
#95
b11111110101010011001110111010 "
b1000110011011110110110110000111 B
b1011000110111101101011011001001 h
#96
b10001001111000101000011000001000 "
b11101010110011011111000001110011 B
b11111110101010011001110111010 h
#97
b10001110000101111100101011100110 "
b10000011001101010010100100000010 B
b10001001111000101000011000001000 h
#98
b101100011011110110101101100100 "
b101011111010000010011100111101 B
b10001110000101111100101011100110 h
#99
b1111111010101001100111011101 "
b11010101111101011011000011100 B
b101100011011110110101101100100 h
#100
b1000100111100010100001100000100 "
b10101010001101111100001111001111 B
b1111111010101001100111011101 h
#101
b1000111000010111110010101110011 "
b1100110101011010010000001000 B
b1000100111100010100001100000100 h
#102
b10010110001101111011010110110010 "
b10101100101000101001110111110100 B
b1000111000010111110010101110011 h
#103
b111111101010100110011101110 "
b1101001111110001101100101110001 B
b10010110001101111011010110110010 h
#104
b10100010011110001010000110000010 "
b10101000110111010000111000111111 B
b111111101010100110011101110 h
#105
b100011100001011111001010111001 "
b110001010101101001000100100001 B
b10100010011110001010000110000010 h
#106
b1001011000110111101101011011001 "
b10110000100010010111010111010011 B
b100011100001011111001010111001 h
#107
b11111110101010011001110111 "
b10100110111000100110011111000111 B
b1001011000110111101101011011001 h
#108
b11010001001111000101000011000001 "
b10100000011101110011100111111100 B
b11111110101010011001110111 h
#109
b10010001110000101111100101011100 "
b11000101010110100100010010000101 B
b11010001001111000101000011000001 h
#110
b10100101100011011110110101101100 "
b11000001001001011101011101001110 B
b10010001110000101111100101011100 h
#111
b10000001111111010101001100111011 "
b10011001100010111001111100011110 B
b10100101100011011110110101101100 h
#112
b1101000100111100010100001100000 "
b10000001110111111110010011110010 B
b10000001111111010101001100111011 h
#113
b1001000111000010111110010101110 "
b10110011010110001001000010100 B
b1101000100111100010100001100000 h
#114
b11010010110001101111011010110110 "
b110100101010101111000111011 B
b1001000111000010111110010101110 h
#115
b1000000111111101010100110011101 "
b1100101001011010111110101111001 B
b11010010110001101111011010110110 h
#116
b110100010011110001010000110000 "
b100011111111001001111001011 B
b1000000111111101010100110011101 h
#117
b100100011100001011111001010111 "
b1011000101011100100100001010000 B
b110100010011110001010000110000 h
#118
b11101001011000110111101101011011 "
b11000010101000111101111101100 B
b100100011100001011111001010111 h
#119
b100000011111110101010011001110 "
b10010111101101001111011011100110 B
b11101001011000110111101101011011 h
#120
b10011010001001111000101000011000 "
b10000111111100100110000101111 B
b100000011111110101010011001110 h
#121
b10010010001110000101111100101011 "
b1100011101110000010001101000010 B
b10011010001001111000101000011000 h
#122
b1110100101100011011110110101101 "
b1100001010100101110111010110010 B
b10010010001110000101111100101011 h
#123
b10000001111111010101001100111 "
b1011100110100011101101110011011 B
b1110100101100011011110110101101 h
#124
b11001101000100111100010100001100 "
b1000000111110100011001110111100 B
b10000001111111010101001100111 h
#125
b11001001000111000010111110010101 "
b10001111111000001000110100001010 B
b11001101000100111100010100001100 h
#126
b10111010010110001101111011010110 "
b10000111010010101011101011001001 B
b11001001000111000010111110010101 h
#127
b1000000111111101010100110011 "
b1110011010001100110111101101101 B
b10111010010110001101111011010110 h
#128
b11100110100010011110001010000110 "
b10111010101100110111110000 B
b1000000111111101010100110011 h
#129
b1100100100011100001011111001010 "
b111101100000110011010100101001 B
b11100110100010011110001010000110 h
#130
b11011101001011000110111101101011 "
b11100001010111110100000100111 B
b1100100100011100001011111001010 h
#131
b100000011111110101010011001 "
b11001111000110101011111010110110 B
b11011101001011000110111101101011 h
#132
b1110011010001001111000101000011 "
b1000101010100011011111000011 B
b100000011111110101010011001 h
#133
b10110010010001110000101111100101 "
b11110100000011001101010110100100 B
b1110011010001001111000101000011 h
#134
b11101110100101100011011110110101 "
b1110001101011001010001010011101 B
b10110010010001110000101111100101 h
#135
b10000010000001111111010101001100 "
b111111011010011111100011011001 B
b11101110100101100011011110110101 h
#136
b10111001101000100111100010100001 "
b100001101010001101110100001110 B
b10000010000001111111010101001100 h
#137
b11011001001000111000010111110010 "
b11010011001100010101011010010001 B
b10111001101000100111100010100001 h
#138
b1110111010010110001101111011010 "
b11000111101100001000100101110101 B
b11011001001000111000010111110010 h
#139
b11000001000000111111101010100110 "
b11111100101001101110001001100111 B
b1110111010010110001101111011010 h
#140
b1011100110100010011110001010000 "
b10000101101000000111011100111001 B
b11000001000000111111101010100110 h
#141
b1101100100100011100001011111001 "
b1001110110001010101101001000100 B
b1011100110100010011110001010000 h
#142
b111011101001011000110111101101 "
b11110110000010010010111010111 B
b1101100100100011100001011111001 h
#143
b1100000100000011111110101010011 "
b11110010100110011000101110011111 B
b111011101001011000110111101101 h
#144
b10101110011010001001111000101000 "
b10100100000011101111111100100 B
b1100000100000011111110101010011 h
#145
b10110110010010001110000101111100 "
b111011000101100110101100010010 B
b10101110011010001001111000101000 h
#146
b10011101110100101100011011110110 "
b1111001000001101001010101011110 B
b10110110010010001110000101111100 h
#147
b110000010000001111111010101001 "
b11001011011001010010110101111101 B
b10011101110100101100011011110110 h
#148
b1010111001101000100111100010100 "
b1010000000001000111111110010011 B
b110000010000001111111010101001 h
#149
b1011011001001000111000010111110 "
b11101100010110001010111001001000 B
b1010111001101000100111100010100 h
#150
b11001110111010010110001101111011 "
b11100110000110000101010001111011 B
b1011011001001000111000010111110 h
#151
b11000001000000111111101010100 "
b101111100101111011010011110110 B
b11001110111010010110001101111011 h
#152
b101011100110100010011110001010 "
b1000010000100001111111001001100 B
b11000001000000111111101010100 h
#153
b10101101100100100011100001011111 "
b10110010011000111011100000100011 B
b101011100110100010011110001010 h
#154
b1100111011101001011000110111101 "
b10011011011000010101001011101110 B
b10101101100100100011100001011111 h
#155
b1100000100000011111110101010 "
b10111100010111001101000111011011 B
b1100111011101001011000110111101 h
#156
b10010101110011010001001111000101 "
b1010010000001111101000110011 B
b1100000100000011111110101010 h
#157
b11010110110010010001110000101111 "
b11001001100011111110000010001101 B
b10010101110011010001001111000101 h
#158
b110011101110100101100011011110 "
b1101101100001110100101010111010 B
b11010110110010010001110000101111 h
#159
b10000110000010000001111111010101 "
b11110000011100110100011001101111 B
b110011101110100101100011011110 h
#160
b11001010111001101000100111100010 "
b101001000000101110101011001101 B
b10000110000010000001111111010101 h
#161
b1101011011001001000111000010111 "
b100111001111011000001100110101 B
b11001010111001101000100111100010 h
#162
b10011001110111010010110001101111 "
b10110110000111000010101111101000 B
b1101011011001001000111000010111 h
#163
b1000011000001000000111111101010 "
b11000011110011110001101010111110 B
b10011001110111010010110001101111 h
#164
b11100101011100110100010011110001 "
b10100100000010001010101000110111 B
b1000011000001000000111111101010 h
#165
b10110101101100100100011100001011 "
b10011101111101000000110011010101 B
b11100101011100110100010011110001 h
#166
b1001100111011101001011000110111 "
b11011001011100011010110010100010 B
b10110101101100100100011100001011 h
#167
b10100001100000100000011111110101 "
b1110001111110110100111111000 B
b1001100111011101001011000110111 h
#168
b11110010101110011010001001111000 "
b10010001001000011010100011011101 B
b10100001100000100000011111110101 h
#169
b11011010110110010010001110000101 "
b1110101110100110011000101010110 B
b11110010101110011010001001111000 h
#170
b10100110011101110100101100011011 "
b1100111110001111011000010001001 B
b11011010110110010010001110000101 h
#171
b1010000110000010000001111111010 "
b111001111111001010011011100010 B
b10100110011101110100101100011011 h
#172
b11111001010111001101000100111100 "
b1000100100001011010000001110111 B
b1010000110000010000001111111010 h
#173
b11101101011011001001000111000010 "
b11010111010011101100010101011010 B
b11111001010111001101000100111100 h
#174
b1010011001110111010010110001101 "
b10011111000111101100000100100101 B
b11101101011011001001000111000010 h
#175
b101000011000001000000111111101 "
b11100100111100101001100110001011 B
b1010011001110111010010110001101 h
#176
b1111100101011100110100010011110 "
b10010000101001000000111011111 B
b101000011000001000000111111101 h
#177
b11110110101101100100100011100001 "
b1011110001110110001011001101011 B
b1111100101011100110100010011110 h
#178
b10101001100111011101001011000110 "
b1111101011110010000011010010101 B
b11110110101101100100100011100001 h
#179
b10100001100000100000011111110 "
b10010011110010110110010100101101 B
b10101001100111011101001011000110 h
#180
b10111110010101110011010001001111 "
b1001000010100000000010001111111 B
b10100001100000100000011111110 h
#181
b1111011010110110010010001110000 "
b1111011111011000101100010101110 B
b10111110010101110011010001001111 h
#182
b1010100110011101110100101100011 "
b11110110111001100001100001010100 B
b1111011010110110010010001110000 h
#183
b10001010000110000010000001111111 "
b1001100001011111001011110110100 B
b1010100110011101110100101100011 h
#184
b1011111001010111001101000100111 "
b100011010000100001000011111110 B
b10001010000110000010000001111111 h
#185
b10111101101011011001001000111000 "
b11101110101100100110001110111000 B
b1011111001010111001101000100111 h
#186
b10101010011001110111010010110001 "
b11011011100110110110000101010010 B
b10111101101011011001001000111000 h
#187
b11000101000011000001000000111111 "
b110011101111000101110011010001 B
b10101010011001110111010010110001 h
#188
b101111100101011100110100010011 "
b10001101000010100100000011111010 B
b11000101000011000001000000111111 h
#189
b11011110110101101100100100011100 "
b10111010110010011000111111100000 B
b101111100101011100110100010011 h
#190
b11010101001100111011101001011000 "
b1101111011011011000011101001010 B
b11011110110101101100100100011100 h
#191
b11100010100001100000100000011111 "
b11001101111100000111001101000110 B
b11010101001100111011101001011000 h
#192
b10111110010101110011010001001 "
b110101001010010000001011101010 B
b11100010100001100000100000011111 h
#193
b1101111011010110110010010001110 "
b11101000001001110011110110000011 B
b10111110010101110011010001001 h
#194
b11101010100110011101110100101100 "
b10111110101101100001110000101011 B
b1101111011010110110010010001110 h
#195
b11110001010000110000010000001111 "
b110111110000111100111100011010 B
b11101010100110011101110100101100 h
#196
b1011111001010111001101000100 "
b11010101101001000000100010101010 B
b11110001010000110000010000001111 h
#197
b110111101101011011001001000111 "
b10100010100111011111010000001100 B
b1011111001010111001101000100 h
#198
b11110101010011001110111010010110 "
b11111000110110010111000110101100 B
b110111101101011011001001000111 h
#199
b1111000101000011000001000000111 "
b11011101000011100011111101101001 B
b11110101010011001110111010010110 h
#200
b10000101111100101011100110100010 "
b1010110100100010010000110101000 B
b1111000101000011000001000000111 h
#201
b11011110110101101100100100011 "
b10001001011101011101001100110001 B
b10000101111100101011100110100010 h
#202
b11111010101001100111011101001011 "
b11100010011001111100011110110000 B
b11011110110101101100100100011 h
#203
b111100010100001100000100000011 "
b1110111001110011111110010100110 B
b11111010101001100111011101001011 h
#204
b11000010111110010101110011010001 "
b1011010010001001000010110100000 B
b111100010100001100000100000011 h
#205
b10001101111011010110110010010001 "
b100101110101110100111011000101 B
b11000010111110010101110011010001 h
#206
b11111101010100110011101110100101 "
b10001011100111110001111011000001 B
b10001101111011010110110010010001 h
#207
b10011110001010000110000010000001 "
b11011111111001001111001010011001 B
b11111101010100110011101110100101 h
#208
b11100001011111001010111001101000 "
b1101011000100100001010010000001 B
b10011110001010000110000010000001 h
#209
b11000110111101101011011001001000 "
b10010101010111100011101100010110 B
b11100001011111001010111001101000 h
#210
b11111110101010011001110111010010 "
b101101011111010111100100000110 B
b11000110111101101011011001001000 h
#211
b1001111000101000011000001000000 "
b1111111100100111100101101100101 B
b11111110101010011001110111010010 h
#212
b1110000101111100101011100110100 "
b10101110010010000101000000000100 B
b1001111000101000011000001000000 h
#213
b1100011011110110101101100100100 "
b1010100011110111110110001011000 B
b1110000101111100101011100110100 h
#214
b1111111010101001100111011101001 "
b10110100111101101110011000011000 B
b1100011011110110101101100100100 h
#215
b100111100010100001100000100000 "
b11111110010011000010111110010111 B
b1111111010101001100111011101001 h
#216
b111000010111110010101110011010 "
b10111000001000110100001000010000 B
b100111100010100001100000100000 h
#217
b10110001101111011010110110010010 "
b1010010111011101011001001100011 B
b111000010111110010101110011010 h
#218
b111111101010100110011101110100 "
b11010001110110111001101101100001 B
b10110001101111011010110110010010 h
#219
b10011110001010000110000010000 "
b11111010001100111011110001011100 B
b111111101010100110011101110100 h
#220
b11100001011111001010111001101 "
b11100000100011010000101001000000 B
b10011110001010000110000010000 h
#221
b1011000110111101101011011001001 "
b1001010101110101100100110001111 B
b11100001011111001010111001101 h
#222
b11111110101010011001110111010 "
b1000110011011110110110110000111 B
b1011000110111101101011011001001 h
#223
b10001001111000101000011000001000 "
b11101010110011011111000001110011 B
b11111110101010011001110111010 h
#224
b10001110000101111100101011100110 "
b10000011001101010010100100000010 B
b10001001111000101000011000001000 h
#225
b101100011011110110101101100100 "
b101011111010000010011100111101 B
b10001110000101111100101011100110 h
#226
b1111111010101001100111011101 "
b11010101111101011011000011100 B
b101100011011110110101101100100 h
#227
b1000100111100010100001100000100 "
b10101010001101111100001111001111 B
b1111111010101001100111011101 h
#228
b1000111000010111110010101110011 "
b1100110101011010010000001000 B
b1000100111100010100001100000100 h
#229
b10010110001101111011010110110010 "
b10101100101000101001110111110100 B
b1000111000010111110010101110011 h
#230
b111111101010100110011101110 "
b1101001111110001101100101110001 B
b10010110001101111011010110110010 h
#231
b10100010011110001010000110000010 "
b10101000110111010000111000111111 B
b111111101010100110011101110 h
#232
b100011100001011111001010111001 "
b110001010101101001000100100001 B
b10100010011110001010000110000010 h
#233
b1001011000110111101101011011001 "
b10110000100010010111010111010011 B
b100011100001011111001010111001 h
#234
b11111110101010011001110111 "
b10100110111000100110011111000111 B
b1001011000110111101101011011001 h
#235
b11010001001111000101000011000001 "
b10100000011101110011100111111100 B
b11111110101010011001110111 h
#236
b10010001110000101111100101011100 "
b11000101010110100100010010000101 B
b11010001001111000101000011000001 h
#237
b10100101100011011110110101101100 "
b11000001001001011101011101001110 B
b10010001110000101111100101011100 h
#238
b10000001111111010101001100111011 "
b10011001100010111001111100011110 B
b10100101100011011110110101101100 h
#239
b1101000100111100010100001100000 "
b10000001110111111110010011110010 B
b10000001111111010101001100111011 h
#240
b1001000111000010111110010101110 "
b10110011010110001001000010100 B
b1101000100111100010100001100000 h
#241
b11010010110001101111011010110110 "
b110100101010101111000111011 B
b1001000111000010111110010101110 h
#242
b1000000111111101010100110011101 "
b1100101001011010111110101111001 B
b11010010110001101111011010110110 h
#243
b110100010011110001010000110000 "
b100011111111001001111001011 B
b1000000111111101010100110011101 h
#244
b100100011100001011111001010111 "
b1011000101011100100100001010000 B
b110100010011110001010000110000 h
#245
b11101001011000110111101101011011 "
b11000010101000111101111101100 B
b100100011100001011111001010111 h
#246
b100000011111110101010011001110 "
b10010111101101001111011011100110 B
b11101001011000110111101101011011 h
#247
b10011010001001111000101000011000 "
b10000111111100100110000101111 B
b100000011111110101010011001110 h
#248
b10010010001110000101111100101011 "
b1100011101110000010001101000010 B
b10011010001001111000101000011000 h
#249
b1110100101100011011110110101101 "
b1100001010100101110111010110010 B
b10010010001110000101111100101011 h
#250
b10000001111111010101001100111 "
b1011100110100011101101110011011 B
b1110100101100011011110110101101 h
#251
b11001101000100111100010100001100 "
b1000000111110100011001110111100 B
b10000001111111010101001100111 h
#252
b11001001000111000010111110010101 "
b10001111111000001000110100001010 B
b11001101000100111100010100001100 h
#253
b10111010010110001101111011010110 "
b10000111010010101011101011001001 B
b11001001000111000010111110010101 h
#254
b1000000111111101010100110011 "
b1110011010001100110111101101101 B
b10111010010110001101111011010110 h
#255
b11100110100010011110001010000110 "
b10111010101100110111110000 B
b1000000111111101010100110011 h
#256
b1100100100011100001011111001010 "
b111101100000110011010100101001 B
b11100110100010011110001010000110 h
#257
b11011101001011000110111101101011 "
b11100001010111110100000100111 B
b1100100100011100001011111001010 h
#258
b100000011111110101010011001 "
b11001111000110101011111010110110 B
b11011101001011000110111101101011 h
#259
b1110011010001001111000101000011 "
b1000101010100011011111000011 B
b100000011111110101010011001 h
#260
b10110010010001110000101111100101 "
b11110100000011001101010110100100 B
b1110011010001001111000101000011 h
#261
b11101110100101100011011110110101 "
b1110001101011001010001010011101 B
b10110010010001110000101111100101 h
#262
b10000010000001111111010101001100 "
b111111011010011111100011011001 B
b11101110100101100011011110110101 h
#263
b10111001101000100111100010100001 "
b100001101010001101110100001110 B
b10000010000001111111010101001100 h
#264
b11011001001000111000010111110010 "
b11010011001100010101011010010001 B
b10111001101000100111100010100001 h
#265
b1110111010010110001101111011010 "
b11000111101100001000100101110101 B
b11011001001000111000010111110010 h
#266
b11000001000000111111101010100110 "
b11111100101001101110001001100111 B
b1110111010010110001101111011010 h
#267
b1011100110100010011110001010000 "
b10000101101000000111011100111001 B
b11000001000000111111101010100110 h
#268
b1101100100100011100001011111001 "
b1001110110001010101101001000100 B
b1011100110100010011110001010000 h
#269
b111011101001011000110111101101 "
b11110110000010010010111010111 B
b1101100100100011100001011111001 h
#270
b1100000100000011111110101010011 "
b11110010100110011000101110011111 B
b111011101001011000110111101101 h
#271
b10101110011010001001111000101000 "
b10100100000011101111111100100 B
b1100000100000011111110101010011 h
#272
b10110110010010001110000101111100 "
b111011000101100110101100010010 B
b10101110011010001001111000101000 h
#273
b10011101110100101100011011110110 "
b1111001000001101001010101011110 B
b10110110010010001110000101111100 h
#274
b110000010000001111111010101001 "
b11001011011001010010110101111101 B
b10011101110100101100011011110110 h
#275
b1010111001101000100111100010100 "
b1010000000001000111111110010011 B
b110000010000001111111010101001 h
#276
b1011011001001000111000010111110 "
b11101100010110001010111001001000 B
b1010111001101000100111100010100 h
#277
b11001110111010010110001101111011 "
b11100110000110000101010001111011 B
b1011011001001000111000010111110 h
#278
b11000001000000111111101010100 "
b101111100101111011010011110110 B
b11001110111010010110001101111011 h
#279
b101011100110100010011110001010 "
b1000010000100001111111001001100 B
b11000001000000111111101010100 h
#280
b10101101100100100011100001011111 "
b10110010011000111011100000100011 B
b101011100110100010011110001010 h
#281
b1100111011101001011000110111101 "
b10011011011000010101001011101110 B
b10101101100100100011100001011111 h
#282
b1100000100000011111110101010 "
b10111100010111001101000111011011 B
b1100111011101001011000110111101 h
#283
b10010101110011010001001111000101 "
b1010010000001111101000110011 B
b1100000100000011111110101010 h
#284
b11010110110010010001110000101111 "
b11001001100011111110000010001101 B
b10010101110011010001001111000101 h
#285
b110011101110100101100011011110 "
b1101101100001110100101010111010 B
b11010110110010010001110000101111 h
#286
b10000110000010000001111111010101 "
b11110000011100110100011001101111 B
b110011101110100101100011011110 h
#287
b11001010111001101000100111100010 "
b101001000000101110101011001101 B
b10000110000010000001111111010101 h
#288
b1101011011001001000111000010111 "
b100111001111011000001100110101 B
b11001010111001101000100111100010 h
#289
b10011001110111010010110001101111 "
b10110110000111000010101111101000 B
b1101011011001001000111000010111 h
#290
b1000011000001000000111111101010 "
b11000011110011110001101010111110 B
b10011001110111010010110001101111 h
#291
b11100101011100110100010011110001 "
b10100100000010001010101000110111 B
b1000011000001000000111111101010 h
#292
b10110101101100100100011100001011 "
b10011101111101000000110011010101 B
b11100101011100110100010011110001 h
#293
b1001100111011101001011000110111 "
b11011001011100011010110010100010 B
b10110101101100100100011100001011 h
#294
b10100001100000100000011111110101 "
b1110001111110110100111111000 B
b1001100111011101001011000110111 h
#295
b11110010101110011010001001111000 "
b10010001001000011010100011011101 B
b10100001100000100000011111110101 h
#296
b11011010110110010010001110000101 "
b1110101110100110011000101010110 B
b11110010101110011010001001111000 h
#297
b10100110011101110100101100011011 "
b1100111110001111011000010001001 B
b11011010110110010010001110000101 h
#298
b1010000110000010000001111111010 "
b111001111111001010011011100010 B
b10100110011101110100101100011011 h
#299
b11111001010111001101000100111100 "
b1000100100001011010000001110111 B
b1010000110000010000001111111010 h
#300
b11101101011011001001000111000010 "
b11010111010011101100010101011010 B
b11111001010111001101000100111100 h
#301
b1010011001110111010010110001101 "
b10011111000111101100000100100101 B
b11101101011011001001000111000010 h
#302
b101000011000001000000111111101 "
b11100100111100101001100110001011 B
b1010011001110111010010110001101 h
#303
b1111100101011100110100010011110 "
b10010000101001000000111011111 B
b101000011000001000000111111101 h
#304
b11110110101101100100100011100001 "
b1011110001110110001011001101011 B
b1111100101011100110100010011110 h
#305
b10101001100111011101001011000110 "
b1111101011110010000011010010101 B
b11110110101101100100100011100001 h
#306
b10100001100000100000011111110 "
b10010011110010110110010100101101 B
b10101001100111011101001011000110 h
#307
b10111110010101110011010001001111 "
b1001000010100000000010001111111 B
b10100001100000100000011111110 h
#308
b1111011010110110010010001110000 "
b1111011111011000101100010101110 B
b10111110010101110011010001001111 h
