serdes_test/.Xil/Vivado-4328-21-10244/hw_ila_data_1/zip_work/waveform.vcd
$date
        2021-Jul-26 14:43:53
$end
$version
        Vivado v2020.2 (64-bit)
$end
$timescale
        1ps
$end
$scope module dut $end
$var reg 64 " prbs_from_check [63:0] $end
$var reg 4 b foundFrames [3:0] $end
$var reg 6 f alignAddr [5:0] $end
$var reg 25 l tot_err_count [24:0] $end
$var reg 64 '" gt0_rxdata_i [63:0] $end
$var reg 64 g" dout [63:0] $end
$var reg 9 I# searchedFrames [8:0] $end
$var reg 64 R# errorBits [63:0] $end
$var reg 7 4$ errorCounter [6:0] $end
$var reg 1 ;$ aligned $end
$var reg 1 <$ bypass $end
$var reg 1 =$ errorFlag $end
$var reg 1 >$ gt0_rxusrclk2_i $end
$var reg 1 ?$ _TRIGGER $end
$var reg 1 @$ _WINDOW $end
$var reg 1 A$ _GAP $end
$upscope $end
$enddefinitions $end
#0
$dumpvars
b101100011011110110101101100100100011100001011111001010111001101 "
b1100 b
b101 f
b1000100110000100 l
b110011011010000011000010011100100011110011010101000101111101101 '"
b1000100111100010100001100000100000011111110101010011001110111010 g"
b0 I#
b0 R#
b0 4$
1;$
0<$
0=$
0>$
0?$
1@$
0A$
$end
#1
b1000100111100010100001100000100000011111110101010011001110111010 "
b1001010110000111101101101011000101011000001001110111010011100001 '"
b10110001101111011010110110010010001110000101111100101011100110 g"
#2
b10110001101111011010110110010010001110000101111100101011100110 "
b10110011000110000100100011000100000111111010010111111101010011 '"
b100010011110001010000110000010000001111111010101001100111011101 g"
#3
b100010011110001010000110000010000001111111010101001100111011101 "
b111100010111010111010101101010000100011001101101110111010010110 '"
b1001011000110111101101011011001001000111000010111110010101110011 g"
#4
b1001011000110111101101011011001001000111000010111110010101110011 "
b1100110110100000110000100101000000111110111101110001010111011000 '"
b1010001001111000101000011000001000000111111101010100110011101110 g"
#5
b1010001001111000101000011000001000000111111101010100110011101110 "
b10101100101111011011010110001010010010011011101100100111100010 '"
b100101100011011110110101101100100100011100001011111001010111001 g"
#6
b100101100011011110110101101100100100011100001011111001010111001 "
b101101110001100000001000100001000001111111100001111110010100111 '"
b1101000100111100010100001100000100000011111110101010011001110111 g"
#7
b1101000100111100010100001100000100000011111110101010011001110111 "
b1111001101010111110101111000100001000110010011011111111100001100 '"
b1010010110001101111011010110110010010001110000101111100101011100 g"
#8
b1010010110001101111011010110110010010001110000101111100101011100 "
b1011100101000001101001001000000001011111110011100000101110110010 '"
b110100010011110001010000110000010000001111111010101001100111011 g"
#9
b110100010011110001010000110000010000001111111010101001100111011 "
b101010001111100111110001110010100100100110111111001000111000101 '"
b1101001011000110111101101011011001001000111000010111110010101110 g"
#10
b1101001011000110111101101011011001001000111000010111110010101110 "
b1011010100011010001010001000010000011101110000011111101101001110 '"
b11010001001111000101000011000001000000111111101010100110011101 g"
#11
b11010001001111000101000011000001000000111111101010100110011101 "
b1110011010001111101011110011001010101100100110011101110000111010 '"
b1110100101100011011110110101101100100100011100001011111001010111 g"
#12
b1110100101100011011110110101101100100100011100001011111001010111 "
b111000010100011011010010010000010011101100111100011010101000101 '"
b1001101000100111100010100001100000100000011111110101010011001110 g"
#13
b1001101000100111100010100001100000100000011111110101010011001110 "
b1010100011011011110100111100101001001001101111010000001110101011 '"
b111010010110001101111011010110110010010001110000101111100101011 g"
#14
b111010010110001101111011010110110010010001110000101111100101011 "
b100101000010110011100110000100000011001100000111111010010111110 '"
b1100110100010011110001010000110000010000001111111010101001100111 g"
#15
b1100110100010011110001010000110000010000001111111010101001100111 "
b1110110100111101010111000110010101111011000100011001101001110111 '"
b1011101001011000110111101101011011001001000111000010111110010101 g"
#16
b1011101001011000110111101101011011001001000111000010111110010101 "
b1110000101100110110100000110000100111001000111100110101010001011 '"
b1110011010001001111000101000011000001000000111111101010100110011 g"
#17
b1110011010001001111000101000011000001000000111111101010100110011 "
b101001110010101100001111011011010110001010110000010011101110100 '"
b1101110100101100011011110110101101100100100011100001011111001010 g"
#18
b1101110100101100011011110110101101100100100011100001011111001010 "
b1001011000101100110001100001001000110001000001111110100101111111 '"
b111001101000100111100010100001100000100000011111110101010011001 g"
#19
b111001101000100111100010100001100000100000011111110101010011001 "
b1101100001111000101110101110101011010100001000110011011011101110 '"
b1110111010010110001101111011010110110010010001110000101111100101 g"
#20
b1110111010010110001101111011010110110010010001110000101111100101 "
b1110001011001101101000001100001001010000001111101111011100010101 '"
b1011100110100010011110001010000110000010000001111111010101001100 g"
#21
b1011100110100010011110001010000110000010000001111111010101001100 "
b1010011100101011001011110110110101100010100100100110111011001001 '"
b111011101001011000110111101101011011001001000111000010111110010 g"
#22
b111011101001011000110111101101011011001001000111000010111110010 "
b110001011011100011000000010001000010000011111111000011111100 '"
b101110011010001001111000101000011000001000000111111101010100110 g"
#23
b101110011010001001111000101000011000001000000111111101010100110 "
b1011001011110011010101111101011110001000010001100100110111111111 '"
b11101110100101100011011110110101101100100100011100001011111001 g"
#24
b11101110100101100011011110110101101100100100011100001011111001 "
b1100010110111001010000011010010010000000010111111100111000001011 '"
b1010111001101000100111100010100001100000100000011111110101010011 g"
#25
b1010111001101000100111100010100001100000100000011111110101010011 "
b100111001010100011111001111100011100101001001001101111110010001 '"
b1001110111010010110001101111011010110110010010001110000101111100 g"
#26
b1001110111010010110001101111011010110110010010001110000101111100 "
b11101010110101000110100010100010000100000111011100000111111011 '"
b101011100110100010011110001010000110000010000001111111010101001 g"
#27
b101011100110100010011110001010000110000010000001111111010101001 "
b100010111100110100011111010111100110010101011001001100111011100 '"
b1100111011101001011000110111101101011011001001000111000010111110 g"
#28
b1100111011101001011000110111101101011011001001000111000010111110 "
b1010101101110000101000110110100100100000100111011001111000110101 '"
b10101110011010001001111000101000011000001000000111111101010100 g"
#29
b10101110011010001001111000101000011000001000000111111101010100 "
b1011111010101000110110111101001111001010010010011011110100000011 '"
b110011101110100101100011011110110101101100100100011100001011111 g"
#30
b110011101110100101100011011110110101101100100100011100001011111 "
b111011101001010000101100111001100001000000110011000001111110100 '"
b1001010111001101000100111100010100001100000100000011111110101010 g"
#31
b1001010111001101000100111100010100001100000100000011111110101010 "
b1000101111101101001111010101110001100101011110110001000110011010 '"
b11001110111010010110001101111011010110110010010001110000101111 g"
#32
b11001110111010010110001101111011010110110010010001110000101111 "
b111010011100001011001101101000001100001001110010001111001101010 '"
b1100101011100110100010011110001010000110000010000001111111010101 g"
#33
b1100101011100110100010011110001010000110000010000001111111010101 "
b111111101010011100101011000011110110110101100010101100000100111 '"
b1001100111011101001011000110111101101011011001001000111000010111 g"
#34
b1001100111011101001011000110111101101011011001001000111000010111 "
b1110111010010110001011001100011000010010001100010000011111101001 '"
b1110010101110011010001001111000101000011000001000000111111101010 g"
#35
b1110010101110011010001001111000101000011000001000000111111101010 "
b1010111011000011110001011101011101010110101000010001100110110 '"
b100110011101110100101100011011110110101101100100100011100001011 g"
#36
b100110011101110100101100011011110110101101100100100011100001011 "
b1100100111100010110011011010000011000010010100000011111011110111 '"
b1111001010111001101000100111100010100001100000100000011111110101 g"
#37
b1111001010111001101000100111100010100001100000100000011111110101 "
b1111110010100111001010110010111101101101011000101001001001101110 '"
b1010011001110111010010110001101111011010110110010010001110000101 g"
#38
b1010011001110111010010110001101111011010110110010010001110000101 "
b1111111100001100010110111000110000000100010000100000111111110000 '"
b1111100101011100110100010011110001010000110000010000001111111010 g"
#39
b1111100101011100110100010011110001010000110000010000001111111010 "
b101110110010111100110101011111010111100010000100011001001101 '"
b101001100111011101001011000110111101101011011001001000111000010 g"
#40
b101001100111011101001011000110111101101011011001001000111000010 "
b1001000111000101101110010100000110100100100000000101111111001110 '"
b111110010101110011010001001111000101000011000001000000111111101 g"
#41
b111110010101110011010001001111000101000011000001000000111111101 "
b1111101101001110010101000111110011111000111001010010010011011111 '"
b1010100110011101110100101100011011110110101101100100100011100001 g"
#42
b1010100110011101110100101100011011110110101101100100100011100001 "
b1101110000111010101101010001101000101000100001000001110111000001 '"
b1011111001010111001101000100111100010100001100000100000011111110 g"
#43
b1011111001010111001101000100111100010100001100000100000011111110 "
b11010101000101111001101000111110101111001100101010110010011001 '"
b101010011001110111010010110001101111011010110110010010001110000 g"
#44
b101010011001110111010010110001101111011010110110010010001110000 "
b1110101011011100001010001101101001001000001001110110011110 '"
b101111100101011100110100010011110001010000110000010000001111111 g"
#45
b101111100101011100110100010011110001010000110000010000001111111 "
b1111010010111110101010001101101111010011110010100100100110111101 '"
b1010101001100111011101001011000110111101101011011001001000111000 g"
#46
b1010101001100111011101001011000110111101101011011001001000111000 "
b1001101001110111010010100001011001110011000010000001100110000011 '"
b10111110010101110011010001001111000101000011000001000000111111 g"
#47
b10111110010101110011010001001111000101000011000001000000111111 "
b110101010001011111011010011110101011100011001010111101100010001 '"
b1101010100110011101110100101100011011110110101101100100100011100 g"
#48
b1101010100110011101110100101100011011110110101101100100100011100 "
b10011101110100111000010110011011010000011000010011100100011110 '"
b1011111001010111001101000100111100010100001100000100000011111 g"
#49
b1011111001010111001101000100111100010100001100000100000011111 "
b1110100101111111010100111001010110000111101101101011000101011000 '"
b1110101010011001110111010010110001101111011010110110010010001110 g"
#50
b1110101010011001110111010010110001101111011010110110010010001110 "
b11011011101110100101100010110011000110000100100011000100000111 '"
b101111100101011100110100010011110001010000110000010000001111 g"
#51
b101111100101011100110100010011110001010000110000010000001111 "
b1111011100010101110110000111100010111010111010101101010000100011 '"
b1111010101001100111011101001011000110111101101011011001001000111 g"
#52
b1111010101001100111011101001011000110111101101011011001001000111 "
b110111011001001111000101100110110100000110000100101000000111110 '"
b1000010111110010101110011010001001111000101000011000001000000111 g"
#53
b1000010111110010101110011010001001111000101000011000001000000111 "
b1111000011111100101001110010101100101111011011010110001010010010 '"
b1111101010100110011101110100101100011011110110101101100100100011 g"
#54
b1111101010100110011101110100101100011011110110101101100100100011 "
b100110111111111000011000101101110001100000001000100001000001111 '"
b1100001011111001010111001101000100111100010100001100000100000011 g"
#55
b1100001011111001010111001101000100111100010100001100000100000011 "
b1100111000001011101100101111001101010111110101111000100001000110 '"
b1111110101010011001110111010010110001101111011010110110010010001 g"
#56
b1111110101010011001110111010010110001101111011010110110010010001 "
b1101111110010001110001011011100101000001101001001000000001011111 '"
b1110000101111100101011100110100010011110001010000110000010000001 g"
#57
b1110000101111100101011100110100010011110001010000110000010000001 "
b1100000111111011010011100101010001111100111110001110010100100100 '"
b1111111010101001100111011101001011000110111101101011011001001000 g"
#58
b1111111010101001100111011101001011000110111101101011011001001000 "
b1001100111011100001110101011010100011010001010001000010000011101 '"
b111000010111110010101110011010001001111000101000011000001000000 g"
#59
b111000010111110010101110011010001001111000101000011000001000000 "
b1001111000110101010001011110011010001111101011110011001010101100 '"
b111111101010100110011101110100101100011011110110101101100100100 g"
#60
b111111101010100110011101110100101100011011110110101101100100100 "
b1011110100000011101010110111000010100011011010010010000010011101 '"
b11100001011111001010111001101000100111100010100001100000100000 g"
#61
b11100001011111001010111001101000100111100010100001100000100000 "
b1000001111110100101111101010100011011011110100111100101001001001 '"
b11111110101010011001110111010010110001101111011010110110010010 g"
#62
b11111110101010011001110111010010110001101111011010110110010010 "
b1000110011010011101110100101000010110011100110000100000011001 '"
b1110000101111100101011100110100010011110001010000110000010000 g"
#63
b1110000101111100101011100110100010011110001010000110000010000 "
b1111001101010100010111110110100111101010111000110010101111011 '"
b1111111010101001100111011101001011000110111101101011011001001 g"
#64
b1111111010101001100111011101001011000110111101101011011001001 "
b101100000100111011101001110000101100110110100000110000100111001 '"
b1000111000010111110010101110011010001001111000101000011000001000 g"
#65
b1000111000010111110010101110011010001001111000101000011000001000 "
b11111101001011111110101001110010101100001111011011010110001 '"
b111111101010100110011101110100101100011011110110101101100100 g"
#66
b111111101010100110011101110100101100011011110110101101100100 "
b10001100110110111011101001011000101100110001100001001000110001 '"
b100011100001011111001010111001101000100111100010100001100000100 g"
#67
b100011100001011111001010111001101000100111100010100001100000100 "
b11111011110111000101011101100001111000101110101110101011010100 '"
b11111110101010011001110111010010110001101111011010110110010 g"
#68
b11111110101010011001110111010010110001101111011010110110010 "
b1001001001101110110010011110001011001101101000001100001001010000 '"
b10001110000101111100101011100110100010011110001010000110000010 g"
#69
b10001110000101111100101011100110100010011110001010000110000010 "
b111111110000111111001010011100101011001011110110110101100010 '"
b1111111010101001100111011101001011000110111101101011011001 g"
#70
b1111111010101001100111011101001011000110111101101011011001 "
b100011001001101111111110000110001011011100011000000010001000010 '"
b1001000111000010111110010101110011010001001111000101000011000001 g"
#71
b1001000111000010111110010101110011010001001111000101000011000001 "
b101111111001110000010111011001011110011010101111101011110001000 '"
b1000000111111101010100110011101110100101100011011110110101101100 g"
#72
b1000000111111101010100110011101110100101100011011110110101101100 "
b10010011011111100100011100010110111001010000011010010010000000 '"
b100100011100001011111001010111001101000100111100010100001100000 g"
#73
b100100011100001011111001010111001101000100111100010100001100000 "
b1110111000001111110110100111001010100011111001111100011100101 '"
b100000011111110101010011001110111010010110001101111011010110110 g"
#74
b100000011111110101010011001110111010010110001101111011010110110 "
b1010110010011001110111000011101010110101000110100010100010000100 '"
b10010001110000101111100101011100110100010011110001010000110000 g"
#75
b10010001110000101111100101011100110100010011110001010000110000 "
b1001110110011110001101010100010111100110100011111010111100110010 '"
b10000001111111010101001100111011101001011000110111101101011011 g"
#76
b10000001111111010101001100111011101001011000110111101101011011 "
b100100110111101000000111010101101110000101000110110100100100000 '"
b1001001000111000010111110010101110011010001001111000101000011000 g"
#77
b1001001000111000010111110010101110011010001001111000101000011000 "
b1100110000011111101001011111010101000110110111101001111001010 '"
b1000000111111101010100110011101110100101100011011110110101101 g"
#78
b1000000111111101010100110011101110100101100011011110110101101 "
b111101100010001100110100111011101001010000101100111001100001000 '"
b1100100100011100001011111001010111001101000100111100010100001100 g"
#79
b1100100100011100001011111001010111001101000100111100010100001100 "
b11100100011110011010101000101111101101001111010101110001100101 '"
b100000011111110101010011001110111010010110001101111011010110 g"
#80
b100000011111110101010011001110111010010110001101111011010110 "
b1011000101011000001001110111010011100001011001101101000001100001 '"
b110010010001110000101111100101011100110100010011110001010000110 g"
#81
b110010010001110000101111100101011100110100010011110001010000110 "
b11000100000111111010010111111101010011100101011000011110110110 '"
b10000001111111010101001100111011101001011000110111101101011 g"
#82
b10000001111111010101001100111011101001011000110111101101011 "
b1101010000100011001101101110111010010110001011001100011000010010 '"
b1011001001000111000010111110010101110011010001001111000101000011 g"
#83
b1011001001000111000010111110010101110011010001001111000101000011 "
b101000000111110111101110001010111011000011110001011101011101010 '"
b1000001000000111111101010100110011101110100101100011011110110101 g"
#84
b1000001000000111111101010100110011101110100101100011011110110101 "
b110001010010010011011101100100111100010110011011010000011000010 '"
b1101100100100011100001011111001010111001101000100111100010100001 g"
#85
b1101100100100011100001011111001010111001101000100111100010100001 "
b100001000001111111100001111110010100111001010110010111101101101 '"
b1100000100000011111110101010011001110111010010110001101111011010 g"
#86
b1100000100000011111110101010011001110111010010110001101111011010 "
b1000100001000110010011011111111100001100010110111000110000000100 '"
b110110010010001110000101111100101011100110100010011110001010000 g"
#87
b110110010010001110000101111100101011100110100010011110001010000 "
b1000000001011111110011100000101110110010111100110101011111010111 '"
b110000010000001111111010101001100111011101001011000110111101101 g"
#88
b110000010000001111111010101001100111011101001011000110111101101 "
b1110010100100100110111111001000111000101101110010100000110100100 '"
b1011011001001000111000010111110010101110011010001001111000101000 g"
#89
b1011011001001000111000010111110010101110011010001001111000101000 "
b1000010000011101110000011111101101001110010101000111110011111000 '"
b11000001000000111111101010100110011101110100101100011011110110 g"
#90
b11000001000000111111101010100110011101110100101100011011110110 "
b11001010101100100110011101110000111010101101010001101000101000 '"
b101101100100100011100001011111001010111001101000100111100010100 g"
#91
b101101100100100011100001011111001010111001101000100111100010100 "
b10000010011101100111100011010101000101111001101000111110101111 '"
b1100000100000011111110101010011001110111010010110001101111011 g"
#92
b1100000100000011111110101010011001110111010010110001101111011 "
b1100101001001001101111010000001110101011011100001010001101101001 '"
b1010110110010010001110000101111100101011100110100010011110001010 g"
#93
b1010110110010010001110000101111100101011100110100010011110001010 "
b100000011001100000111111010010111110101010001101101111010011 '"
b110000010000001111111010101001100111011101001011000110111101 g"
#94
b110000010000001111111010101001100111011101001011000110111101 "
b110010101111011000100011001101001110111010010100001011001110011 '"
b1101011011001001000111000010111110010101110011010001001111000101 g"
#95
b1101011011001001000111000010111110010101110011010001001111000101 "
b110000100111001000111100110101010001011111011010011110101011100 '"
b1000011000001000000111111101010100110011101110100101100011011110 g"
#96
b1000011000001000000111111101010100110011101110100101100011011110 "
b1011011010110001010110000010011101110100111000010110011011010000 '"
b110101101100100100011100001011111001010111001101000100111100010 g"
#97
b110101101100100100011100001011111001010111001101000100111100010 "
b1001000110001000001111110100101111111010100111001010110000111 '"
b100001100000100000011111110101010011001110111010010110001101111 g"
#98
b100001100000100000011111110101010011001110111010010110001101111 "
b1110101011010100001000110011011011101110100101100010110011000110 '"
b1011010110110010010001110000101111100101011100110100010011110001 g"
#99
b1011010110110010010001110000101111100101011100110100010011110001 "
b1100001001010000001111101111011100010101110110000111100010111010 '"
b1010000110000010000001111111010101001100111011101001011000110111 g"
#100
b1010000110000010000001111111010101001100111011101001011000110111 "
b110110101100010100100100110111011001001111000101100110110100000 '"
b1101101011011001001000111000010111110010101110011010001001111000 g"
#101
b1101101011011001001000111000010111110010101110011010001001111000 "
b10001000010000011111111000011111100101001110010101100101111 '"
b101000011000001000000111111101010100110011101110100101100011011 g"
#102
b101000011000001000000111111101010100110011101110100101100011011 "
b1101011110001000010001100100110111111111000011000101101110001100 '"
b1110110101101100100100011100001011111001010111001101000100111100 g"
#103
b1110110101101100100100011100001011111001010111001101000100111100 "
b1010010010000000010111111100111000001011101100101111001101010111 '"
b10100001100000100000011111110101010011001110111010010110001101 g"
#104
b10100001100000100000011111110101010011001110111010010110001101 "
b1111100011100101001001001101111110010001110001011011100101000001 '"
b1111011010110110010010001110000101111100101011100110100010011110 g"
#105
b1111011010110110010010001110000101111100101011100110100010011110 "
b10100010000100000111011100000111111011010011100101010001111100 '"
b1010000110000010000001111111010101001100111011101001011000110 g"
#106
b1010000110000010000001111111010101001100111011101001011000110 "
b1010111100110010101011001001100111011100001110101011010100011010 '"
b111101101011011001001000111000010111110010101110011010001001111 g"
#107
b111101101011011001001000111000010111110010101110011010001001111 "
b110100100100000100111011001111000110101010001011110011010001111 '"
b1000101000011000001000000111111101010100110011101110100101100011 g"
#108
b1000101000011000001000000111111101010100110011101110100101100011 "
b1101001111001010010010011011110100000011101010110111000010100011 '"
b1011110110101101100100100011100001011111001010111001101000100111 g"
#109
b1011110110101101100100100011100001011111001010111001101000100111 "
b111001100001000000110011000001111110100101111101010100011011011 '"
b1100010100001100000100000011111110101010011001110111010010110001 g"
#110
b1100010100001100000100000011111110101010011001110111010010110001 "
b101110001100101011110110001000110011010011101110100101000010110 '"
b1101111011010110110010010001110000101111100101011100110100010011 g"
#111
b1101111011010110110010010001110000101111100101011100110100010011 "
b1101000001100001001110010001111001101010100010111110110100111101 '"
b1110001010000110000010000001111111010101001100111011101001011000 g"
#112
b1110001010000110000010000001111111010101001100111011101001011000 "
b1000011110110110101100010101100000100111011101001110000101100110 '"
b110111101101011011001001000111000010111110010101110011010001001 g"
#113
b110111101101011011001001000111000010111110010101110011010001001 "
b1100011000010010001100010000011111101001011111110101001110010101 '"
b1111000101000011000001000000111111101010100110011101110100101100 g"
#114
b1111000101000011000001000000111111101010100110011101110100101100 "
b1011101011101010110101000010001100110110111011101001011000101100 '"
b11011110110101101100100100011100001011111001010111001101000100 g"
#115
b11011110110101101100100100011100001011111001010111001101000100 "
b1010000011000010010100000011111011110111000101011101100001111000 '"
b111100010100001100000100000011111110101010011001110111010010110 g"
#116
b111100010100001100000100000011111110101010011001110111010010110 "
b10111101101101011000101001001001101110110010011110001011001101 '"
b1101111011010110110010010001110000101111100101011100110100010 g"
#117
b1101111011010110110010010001110000101111100101011100110100010 "
b1000110000000100010000100000111111110000111111001010011100101011 '"
b11110001010000110000010000001111111010101001100111011101001011 g"
#118
b11110001010000110000010000001111111010101001100111011101001011 "
b101011111010111100010000100011001001101111111110000110001011011 '"
b1000110111101101011011001001000111000010111110010101110011010001 g"
#119
b1000110111101101011011001001000111000010111110010101110011010001 "
b100000110100100100000000101111111001110000010111011001011110011 '"
b1001111000101000011000001000000111111101010100110011101110100101 g"
#120
b1001111000101000011000001000000111111101010100110011101110100101 "
b111110011111000111001010010010011011111100100011100010110111001 '"
b1100011011110110101101100100100011100001011111001010111001101000 g"
#121
b1100011011110110101101100100100011100001011111001010111001101000 "
b1101000101000100001000001110111000001111110110100111001010100 '"
b100111100010100001100000100000011111110101010011001110111010010 g"
#122
b100111100010100001100000100000011111110101010011001110111010010 "
b1000111110101111001100101010110010011001110111000011101010110101 '"
b110001101111011010110110010010001110000101111100101011100110100 g"
#123
b110001101111011010110110010010001110000101111100101011100110100 "
b1010001101101001001000001001110110011110001101010100010111100110 '"
b10011110001010000110000010000001111111010101001100111011101001 g"
#124
b10011110001010000110000010000001111111010101001100111011101001 "
b1101101111010011110010100100100110111101000000111010101101110000 '"
b1011000110111101101011011001001000111000010111110010101110011010 g"
#125
b1011000110111101101011011001001000111000010111110010101110011010 "
b1011001110011000010000001100110000011111101001011111010101000 '"
b1001111000101000011000001000000111111101010100110011101110100 g"
#126
b1001111000101000011000001000000111111101010100110011101110100 "
b11110101011100011001010111101100010001100110100111011101001010 '"
b101100011011110110101101100100100011100001011111001010111001101 g"
#127
b101100011011110110101101100100100011100001011111001010111001101 "
b110011011010000011000010011100100011110011010101000101111101101 '"
b1000100111100010100001100000100000011111110101010011001110111010 g"
#128
b1000100111100010100001100000100000011111110101010011001110111010 "
b1001010110000111101101101011000101011000001001110111010011100001 '"
b10110001101111011010110110010010001110000101111100101011100110 g"
#129
b10110001101111011010110110010010001110000101111100101011100110 "
b10110011000110000100100011000100000111111010010111111101010011 '"
b100010011110001010000110000010000001111111010101001100111011101 g"
#130
b100010011110001010000110000010000001111111010101001100111011101 "
b111100010111010111010101101010000100011001101101110111010010110 '"
b1001011000110111101101011011001001000111000010111110010101110011 g"
#131
b1001011000110111101101011011001001000111000010111110010101110011 "
b1100110110100000110000100101000000111110111101110001010111011000 '"
b1010001001111000101000011000001000000111111101010100110011101110 g"
#132
b1010001001111000101000011000001000000111111101010100110011101110 "
b10101100101111011011010110001010010010011011101100100111100010 '"
b100101100011011110110101101100100100011100001011111001010111001 g"
#133
b100101100011011110110101101100100100011100001011111001010111001 "
b101101110001100000001000100001000001111111100001111110010100111 '"
b1101000100111100010100001100000100000011111110101010011001110111 g"
#134
b1101000100111100010100001100000100000011111110101010011001110111 "
b1111001101010111110101111000100001000110010011011111111100001100 '"
b1010010110001101111011010110110010010001110000101111100101011100 g"
#135
b1010010110001101111011010110110010010001110000101111100101011100 "
b1011100101000001101001001000000001011111110011100000101110110010 '"
b110100010011110001010000110000010000001111111010101001100111011 g"
#136
b110100010011110001010000110000010000001111111010101001100111011 "
b101010001111100111110001110010100100100110111111001000111000101 '"
b1101001011000110111101101011011001001000111000010111110010101110 g"
#137
b1101001011000110111101101011011001001000111000010111110010101110 "
b1011010100011010001010001000010000011101110000011111101101001110 '"
b11010001001111000101000011000001000000111111101010100110011101 g"
#138
b11010001001111000101000011000001000000111111101010100110011101 "
b1110011010001111101011110011001010101100100110011101110000111010 '"
b1110100101100011011110110101101100100100011100001011111001010111 g"
#139
b1110100101100011011110110101101100100100011100001011111001010111 "
b111000010100011011010010010000010011101100111100011010101000101 '"
b1001101000100111100010100001100000100000011111110101010011001110 g"
#140
b1001101000100111100010100001100000100000011111110101010011001110 "
b1010100011011011110100111100101001001001101111010000001110101011 '"
b111010010110001101111011010110110010010001110000101111100101011 g"
#141
b111010010110001101111011010110110010010001110000101111100101011 "
b100101000010110011100110000100000011001100000111111010010111110 '"
b1100110100010011110001010000110000010000001111111010101001100111 g"
#142
b1100110100010011110001010000110000010000001111111010101001100111 "
b1110110100111101010111000110010101111011000100011001101001110111 '"
b1011101001011000110111101101011011001001000111000010111110010101 g"
#143
b1011101001011000110111101101011011001001000111000010111110010101 "
b1110000101100110110100000110000100111001000111100110101010001011 '"
b1110011010001001111000101000011000001000000111111101010100110011 g"
#144
b1110011010001001111000101000011000001000000111111101010100110011 "
b101001110010101100001111011011010110001010110000010011101110100 '"
b1101110100101100011011110110101101100100100011100001011111001010 g"
#145
b1101110100101100011011110110101101100100100011100001011111001010 "
b1001011000101100110001100001001000110001000001111110100101111111 '"
b111001101000100111100010100001100000100000011111110101010011001 g"
#146
b111001101000100111100010100001100000100000011111110101010011001 "
b1101100001111000101110101110101011010100001000110011011011101110 '"
b1110111010010110001101111011010110110010010001110000101111100101 g"
#147
b1110111010010110001101111011010110110010010001110000101111100101 "
b1110001011001101101000001100001001010000001111101111011100010101 '"
b1011100110100010011110001010000110000010000001111111010101001100 g"
#148
b1011100110100010011110001010000110000010000001111111010101001100 "
b1010011100101011001011110110110101100010100100100110111011001001 '"
b111011101001011000110111101101011011001001000111000010111110010 g"
#149
b111011101001011000110111101101011011001001000111000010111110010 "
b110001011011100011000000010001000010000011111111000011111100 '"
b101110011010001001111000101000011000001000000111111101010100110 g"
#150
b101110011010001001111000101000011000001000000111111101010100110 "
b1011001011110011010101111101011110001000010001100100110111111111 '"
b11101110100101100011011110110101101100100100011100001011111001 g"
#151
b11101110100101100011011110110101101100100100011100001011111001 "
b1100010110111001010000011010010010000000010111111100111000001011 '"
b1010111001101000100111100010100001100000100000011111110101010011 g"
#152
b1010111001101000100111100010100001100000100000011111110101010011 "
b100111001010100011111001111100011100101001001001101111110010001 '"
b1001110111010010110001101111011010110110010010001110000101111100 g"
#153
b1001110111010010110001101111011010110110010010001110000101111100 "
b11101010110101000110100010100010000100000111011100000111111011 '"
b101011100110100010011110001010000110000010000001111111010101001 g"
#154
b101011100110100010011110001010000110000010000001111111010101001 "
b100010111100110100011111010111100110010101011001001100111011100 '"
b1100111011101001011000110111101101011011001001000111000010111110 g"
#155
b1100111011101001011000110111101101011011001001000111000010111110 "
b1010101101110000101000110110100100100000100111011001111000110101 '"
b10101110011010001001111000101000011000001000000111111101010100 g"
#156
b10101110011010001001111000101000011000001000000111111101010100 "
b1011111010101000110110111101001111001010010010011011110100000011 '"
b110011101110100101100011011110110101101100100100011100001011111 g"
#157
b110011101110100101100011011110110101101100100100011100001011111 "
b111011101001010000101100111001100001000000110011000001111110100 '"
b1001010111001101000100111100010100001100000100000011111110101010 g"
#158
b1001010111001101000100111100010100001100000100000011111110101010 "
b1000101111101101001111010101110001100101011110110001000110011010 '"
b11001110111010010110001101111011010110110010010001110000101111 g"
#159
b11001110111010010110001101111011010110110010010001110000101111 "
b111010011100001011001101101000001100001001110010001111001101010 '"
b1100101011100110100010011110001010000110000010000001111111010101 g"
#160
b1100101011100110100010011110001010000110000010000001111111010101 "
b111111101010011100101011000011110110110101100010101100000100111 '"
b1001100111011101001011000110111101101011011001001000111000010111 g"
#161
b1001100111011101001011000110111101101011011001001000111000010111 "
b1110111010010110001011001100011000010010001100010000011111101001 '"
b1110010101110011010001001111000101000011000001000000111111101010 g"
#162
b1110010101110011010001001111000101000011000001000000111111101010 "
b1010111011000011110001011101011101010110101000010001100110110 '"
b100110011101110100101100011011110110101101100100100011100001011 g"
#163
b100110011101110100101100011011110110101101100100100011100001011 "
b1100100111100010110011011010000011000010010100000011111011110111 '"
b1111001010111001101000100111100010100001100000100000011111110101 g"
#164
b1111001010111001101000100111100010100001100000100000011111110101 "
b1111110010100111001010110010111101101101011000101001001001101110 '"
b1010011001110111010010110001101111011010110110010010001110000101 g"
#165
b1010011001110111010010110001101111011010110110010010001110000101 "
b1111111100001100010110111000110000000100010000100000111111110000 '"
b1111100101011100110100010011110001010000110000010000001111111010 g"
#166
b1111100101011100110100010011110001010000110000010000001111111010 "
b101110110010111100110101011111010111100010000100011001001101 '"
b101001100111011101001011000110111101101011011001001000111000010 g"
#167
b101001100111011101001011000110111101101011011001001000111000010 "
b1001000111000101101110010100000110100100100000000101111111001110 '"
b111110010101110011010001001111000101000011000001000000111111101 g"
#168
b111110010101110011010001001111000101000011000001000000111111101 "
b1111101101001110010101000111110011111000111001010010010011011111 '"
b1010100110011101110100101100011011110110101101100100100011100001 g"
#169
b1010100110011101110100101100011011110110101101100100100011100001 "
b1101110000111010101101010001101000101000100001000001110111000001 '"
b1011111001010111001101000100111100010100001100000100000011111110 g"
#170
b1011111001010111001101000100111100010100001100000100000011111110 "
b11010101000101111001101000111110101111001100101010110010011001 '"
b101010011001110111010010110001101111011010110110010010001110000 g"
#171
b101010011001110111010010110001101111011010110110010010001110000 "
b1110101011011100001010001101101001001000001001110110011110 '"
b101111100101011100110100010011110001010000110000010000001111111 g"
#172
b101111100101011100110100010011110001010000110000010000001111111 "
b1111010010111110101010001101101111010011110010100100100110111101 '"
b1010101001100111011101001011000110111101101011011001001000111000 g"
#173
b1010101001100111011101001011000110111101101011011001001000111000 "
b1001101001110111010010100001011001110011000010000001100110000011 '"
b10111110010101110011010001001111000101000011000001000000111111 g"
#174
b10111110010101110011010001001111000101000011000001000000111111 "
b110101010001011111011010011110101011100011001010111101100010001 '"
b1101010100110011101110100101100011011110110101101100100100011100 g"
#175
b1101010100110011101110100101100011011110110101101100100100011100 "
b10011101110100111000010110011011010000011000010011100100011110 '"
b1011111001010111001101000100111100010100001100000100000011111 g"
#176
b1011111001010111001101000100111100010100001100000100000011111 "
b1110100101111111010100111001010110000111101101101011000101011000 '"
b1110101010011001110111010010110001101111011010110110010010001110 g"
