serdes_test/.Xil/Vivado-23148-21-10244/hw_ila_data_1/zip_work/waveform.vcd
$date
        2021-Aug-18 16:09:08
$end
$version
        Vivado v2020.2 (64-bit)
$end
$timescale
        1ps
$end
$scope module dut $end
$var reg 64 " dout [63:0] $end
$var reg 64 b gt0_rxdata_i [63:0] $end
$var reg 64 D" prbs_from_check [63:0] $end
$var reg 64 &# errorBits [63:0] $end
$var reg 10 f# alignAddr [9:0] $end
$var reg 24 p# tot_err_count [23:0] $end
$var reg 9 *$ searchedFrames [8:0] $end
$var reg 4 3$ foundFrames [3:0] $end
$var reg 7 7$ errorCounter [6:0] $end
$var reg 1 >$ aligned $end
$var reg 1 ?$ bypass $end
$var reg 1 @$ errorFlag $end
$var reg 1 A$ gt0_rxusrclk2_i $end
$var reg 1 B$ _TRIGGER $end
$var reg 1 C$ _WINDOW $end
$var reg 1 D$ _GAP $end
$upscope $end
$enddefinitions $end
#0
$dumpvars
b1101111011010110110010010001110000101111100101011100110100010011 "
b1011010110001010010010011011101100100111100010110011011010000011 b
b1100010100001100000100000011111110101010011001110111010010110001 D"
b100000000000000000000000000000000000000000000000000000 &#
b1001000110 f#
b110011000110111011111100 p#
b1 *$
b1100 3$
b1 7$
1>$
0?$
1@$
0A$
0B$
1C$
0D$
$end
#1
b1110001010000110000010000001111111010101001100111011101001011000 "
b1000100001000001111111100001111110010100111001010110010111101 b
b1101111011010110110010010001110000101111100101011100110100010011 D"
b0 &#
b110011000110111011111101 p#
b10 *$
#2
b110111101001011011001001000111000010111110010101110011010001001 "
b101111000100001000110010011011111111100001100010110111000110000 b
b1110001010000110000010000001111111010101001100111011101001011000 D"
b110011000110111011111110 p#
b11 *$
#3
b1111000101000011000001000000111111101010100110011101110100101100 "
b1001001000000001011111110011100000101110110010111100110101011111 b
b110111101101011011001001000111000010111110010101110011010001001 D"
b110011000110111011111111 p#
b100 *$
b0 7$
0@$
#4
b11011110010101101100100100011100001011111001010111001101000100 "
b1110001110010100100100110111111001000111000101101110010100000110 b
b1111000101000011000001000000111111101010100110011101110100101100 D"
b100000000000000000000000000000000000000000000000000000 &#
b0 *$
#5
b111100010000001100000100000011111110101010011001110111010010110 "
b1010001000010000011101110000011111101101001110010101000111110011 b
b11011110110101101100100100011100001011111001010111001101000100 D"
b0 &#
b1 7$
1@$
#6
b1101111011010110110010010001110000101111100101011100110100010 "
b1011110011001010101100100110011101110000111010101101010001101000 b
b111100010100001100000100000011111110101010011001110111010010110 D"
b100000000000000000000000000000000000000000000000000000 &#
b110011000110111100000000 p#
b1 *$
b0 7$
0@$
#7
b11110001010000110000010000001111111010101001100111011101001011 "
b1010010010000010011101100111100011010101000101111001101000111110 b
b1101111011010110110010010001110000101111100101011100110100010 D"
b0 *$
#8
b1000110111001101011011001001000111000010111110010101110011010001 "
b100111100101001001001101111010000001110101011011100001010001101 b
b11110001010000110000010000001111111010101001100111011101001011 D"
b0 &#
#9
b1001111000001000011000001000000111111101010100110011101110100101 "
b1100110000100000011001100000111111010010111110101010001101101111 b
b1000110111101101011011001001000111000010111110010101110011010001 D"
b1 7$
1@$
#10
b1100011011010110101101100100100011100001011111001010111001101000 "
b111000110010101111011000100011001101001110111010010100001011001 b
b1001111000101000011000001000000111111101010100110011101110100101 D"
b100000000000000000000000000000000000000000000000000000 &#
b110011000110111100000001 p#
b1 *$
b0 7$
0@$
#11
b100111100010100001100000100000011111110101010011001110111010010 "
b100000110000100111001000111100110101010001011111011010011110101 b
b1100011011110110101101100100100011100001011111001010111001101000 D"
b0 *$
b1 7$
1@$
#12
b110001101011011010110110010010001110000101111100101011100110100 "
b1111011011010110001010110000010011101110100111000010110011011 b
b100111100010100001100000100000011111110101010011001110111010010 D"
b110011000110111100000010 p#
b1 *$
#13
b10011110001010000110000010000001111111010101001100111011101001 "
b1100001001000110001000001111110100101111111010100111001010110 b
b110001101111011010110110010010001110000101111100101011100110100 D"
b0 &#
b110011000110111100000011 p#
b10 *$
b0 7$
0@$
#14
b1011000110011101101011011001001000111000010111110010101110011010 "
b1110101110101011010100001000110011011011101110100101100010110011 b
b10011110001010000110000010000001111111010101001100111011101001 D"
b100000000000000000000000000000000000000000000000000000 &#
b0 *$
#15
b1001111000101000011000001000000111111101010100110011101110100 "
b1000001100001001010000001111101111011100010101110110000111100010 b
b1011000110111101101011011001001000111000010111110010101110011010 D"
b0 &#
b1 7$
1@$
#16
b101100011011110110101101100100100011100001011111001010111001101 "
b1011110110110101100010100100100110111011001001111000101100110110 b
b1001111000101000011000001000000111111101010100110011101110100 D"
b100000000000000000000000000000000000000000000000000000 &#
b110011000110111100000100 p#
b1 *$
#17
b1000100111000010100001100000100000011111110101010011001110111010 "
b11000000010001000010000011111111000011111100101001110010101100 b
b101100011011110110101101100100100011100001011111001010111001101 D"
b0 &#
b110011000110111100000101 p#
b10 *$
#18
b10110001001111011010110110010010001110000101111100101011100110 "
b101111101011110001000010001100100110111111111000011000101101110 b
b1000100111100010100001100000100000011111110101010011001110111010 D"
b110011000110111100000110 p#
b11 *$
b0 7$
0@$
#19
b100010011010001010000110000010000001111111010101001100111011101 "
b11010010010000000010111111100111000001011101100101111001101 b
b10110001101111011010110110010010001110000101111100101011100110 D"
b100000000000000000000000000000000000000000000000000000 &#
b0 *$
b1 7$
1@$
#20
b1001011000010111101101011011001001000111000010111110010101110011 "
b1111001111100011100101001001001101111110010001110001011011100101 b
b100010011110001010000110000010000001111111010101001100111011101 D"
b110011000110111100000111 p#
b1 *$
b0 7$
0@$
#21
b1010001001011000101000011000001000000111111101010100110011101110 "
b110100010100010000100000111011100000111111011010011100101010001 b
b1001011000110111101101011011001001000111000010111110010101110011 D"
b0 *$
b1 7$
1@$
#22
b100101100011011110110101101100100100011100001011111001010111001 "
b11111010111100110010101011001001100111011100001110101011010100 b
b1010001001111000101000011000001000000111111101010100110011101110 D"
b110011000110111100001000 p#
b1 *$
b0 7$
0@$
#23
b1101000100011100010100001100000100000011111110101010011001110111 "
b1000110110100100100000100111011001111000110101010001011110011010 b
b100101100011011110110101101100100100011100001011111001010111001 D"
b0 *$
#24
b1010010110001101111011010110110010010001110000101111100101011100 "
b110111101001111001010010010011011110100000011101010110111000010 b
b1101000100111100010100001100000100000011111110101010011001110111 D"
b0 &#
b1 7$
1@$
#25
b110100010011110001010000110000010000001111111010101001100111011 "
b101100111001100001000000110011000001111110100101111101010100011 b
b1010010110001101111011010110110010010001110000101111100101011100 D"
b100000000000000000000000000000000000000000000000000000 &#
b110011000110111100001001 p#
b1 *$
#26
b1101001011000110111101101011011001001000111000010111110010101110 "
b1111010101110001100101011110110001000110011010011101110100101000 b
b110100010011110001010000110000010000001111111010101001100111011 D"
b0 &#
b110011000110111100001010 p#
b10 *$
#27
b11010001001111000101000011000001000000111111101010100110011101 "
b1001101101000001100001001110010001111001101010100010111110110100 b
b1101001011000110111101101011011001001000111000010111110010101110 D"
b110011000110111100001011 p#
b11 *$
#28
b1110100101000011011110110101101100100100011100001011111001010111 "
b101011000011110110110101100010101100000100111011101001110000101 b
b11010001001111000101000011000001000000111111101010100110011101 D"
b110011000110111100001100 p#
b100 *$
#29
b1001101000000111100010100001100000100000011111110101010011001110 "
b1011001100011000010010001100010000011111101001011111110101001110 b
b1110100101100011011110110101101100100100011100001011111001010111 D"
b110011000110111100001101 p#
b101 *$
b0 7$
0@$
#30
b111010010010001101111011010110110010010001110000101111100101011 "
b1110001011101011101010110101000010001100110110111011101001011000 b
b1001101000100111100010100001100000100000011111110101010011001110 D"
b100000000000000000000000000000000000000000000000000000 &#
b0 *$
b1 7$
1@$
#31
b1100110100010011110001010000110000010000001111111010101001100111 "
b11011010000011000010010100000011111011110111000101011101100001 b
b111010010110001101111011010110110010010001110000101111100101011 D"
b110011000110111100001110 p#
b1 *$
b0 7$
0@$
#32
b1011101001011000110111101101011011001001000111000010111110010101 "
b1010110010111101101101011000101001001001101110110010011110001011 b
b1100110100010011110001010000110000010000001111111010101001100111 D"
b0 *$
#33
b1110011010001001111000101000011000001000000111111101010100110011 "
b110111000110000000100010000100000111111110000111111001010011100 b
b1011101001011000110111101101011011001001000111000010111110010101 D"
b0 &#
#34
b1101110100001100011011110110101101100100100011100001011111001010 "
b1100110101011111010111100010000100011001001101111111110000110001 b
b1110011010001001111000101000011000001000000111111101010100110011 D"
#35
b111001101000100111100010100001100000100000011111110101010011001 "
b1110010100000110100100100000000101111111001110000010111011001011 b
b1101110100101100011011110110101101100100100011100001011111001010 D"
b1 7$
1@$
#36
b1110111010010110001101111011010110110010010001110000101111100101 "
b101000111110011111000111001010010010011011111100100011100010110 b
b111001101000100111100010100001100000100000011111110101010011001 D"
b100000000000000000000000000000000000000000000000000000 &#
b110011000110111100001111 p#
b1 *$
#37
b1011100110000010011110001010000110000010000001111111010101001100 "
b1101010001101000101000100001000001110111000001111110110100111001 b
b1110111010010110001101111011010110110010010001110000101111100101 D"
b0 &#
b110011000110111100010000 p#
b10 *$
#38
b111011101001011000110111101101011011001001000111000010111110010 "
b1001101000111110101111001100101010110010011001110111000011101010 b
b1011100110100010011110001010000110000010000001111111010101001100 D"
b110011000110111100010001 p#
b11 *$
b0 7$
0@$
#39
b101110011010001001111000101000011000001000000111111101010100110 "
b1100001010001101101001001000001001110110011110001101010100010111 b
b111011101001011000110111101101011011001001000111000010111110010 D"
b100000000000000000000000000000000000000000000000000000 &#
b0 *$
#40
b11101110000101100011011110110101101100100100011100001011111001 "
b1010001101101111010011110010100100100110111101000000111010101101 b
b101110011010001001111000101000011000001000000111111101010100110 D"
b0 &#
#41
b1010111001001000100111100010100001100000100000011111110101010011 "
b10100001011001110011000010000001100110000011111101001011111010 b
b11101110100101100011011110110101101100100100011100001011111001 D"
b1 7$
1@$
#42
b1001110111010010110001101111011010110110010010001110000101111100 "
b1011010011110101011100011001010111101100010001100110100111011101 b
b1010111001101000100111100010100001100000100000011111110101010011 D"
b100000000000000000000000000000000000000000000000000000 &#
b110011000110111100010010 p#
b1 *$
b0 7$
0@$
#43
b101011100010100010011110001010000110000010000001111111010101001 "
b1000010110011011010000011000010011100100011110011010101000101111 b
b1001110111010010110001101111011010110110010010001110000101111100 D"
b0 *$
#44
b1100111011001001011000110111101101011011001001000111000010111110 "
b100111001010110000111101101101011000101011000001001110111010011 b
b101011100110100010011110001010000110000010000001111111010101001 D"
b0 &#
b1 7$
1@$
#45
b10101110011010001001111000101000011000001000000111111101010100 "
b101100010110011000110000100100011000100000111111010010111111101 b
b1100111011101001011000110111101101011011001001000111000010111110 D"
b100000000000000000000000000000000000000000000000000000 &#
b110011000110111100010011 p#
b1 *$
b0 7$
0@$
#46
b110011101010100101100011011110110101101100100100011100001011111 "
b110000111100010111010111010101101010000100011001101101110111010 b
b10101110011010001001111000101000011000001000000111111101010100 D"
b0 *$
#47
b1001010111001101000100111100010100001100000100000011111110101010 "
b1000101100110110100000110000100101000000111110111101110001010111 b
b110011101110100101100011011110110101101100100100011100001011111 D"
b0 &#
b1 7$
1@$
#48
b11001110011010010110001101111011010110110010010001110000101111 "
b1001110010101100101111011011010110001010010010011011101100100111 b
b1001010111001101000100111100010100001100000100000011111110101010 D"
b100000000000000000000000000000000000000000000000000000 &#
b110011000110111100010100 p#
b1 *$
#49
b1100101011000110100010011110001010000110000010000001111111010101 "
b11000101101110001100000001000100001000001111111100001111110010 b
b11001110111010010110001101111011010110110010010001110000101111 D"
b0 &#
b110011000110111100010101 p#
b10 *$
b0 7$
0@$
#50
b1001100111011101001011000110111101101011011001001000111000010111 "
b1100101111001101010111110101111000100001000110010011011111111100 b
b1100101011100110100010011110001010000110000010000001111111010101 D"
b100000000000000000000000000000000000000000000000000000 &#
b0 *$
b1 7$
1@$
#51
b1110010101010011010001001111000101000011000001000000111111101010 "
b1011011100101000001101001001000000001011111110011100000101110 b
b1001100111011101001011000110111101101011011001001000111000010111 D"
b110011000110111100010110 p#
b1 *$
#52
b100110011001110100101100011011110110101101100100100011100001011 "
b11100101010001111100111110001110010100100100110111111001000111 b
b1110010101110011010001001111000101000011000001000000111111101010 D"
b0 &#
b110011000110111100010111 p#
b10 *$
b0 7$
0@$
#53
b1111001010011001101000100111100010100001100000100000011111110101 "
b1110101011010100011010001010001000010000011101110000011111101101 b
b100110011101110100101100011011110110101101100100100011100001011 D"
b100000000000000000000000000000000000000000000000000000 &#
b0 *$
b1 7$
1@$
#54
b1010011001010111010010110001101111011010110110010010001110000101 "
b1011110011010001111101011110011001010101100100110011101110000 b
b1111001010111001101000100111100010100001100000100000011111110101 D"
b110011000110111100011000 p#
b1 *$
b0 7$
0@$
#55
b1111100101011100110100010011110001010000110000010000001111111010 "
b1010110111000010100011011010010010000010011101100111100011010101 b
b1010011001110111010010110001101111011010110110010010001110000101 D"
b0 *$
b1 7$
1@$
#56
b101001100011011101001011000110111101101011011001001000111000010 "
b1111101010100011011011110100111100101001001001101111010000001110 b
b1111100101011100110100010011110001010000110000010000001111111010 D"
b110011000110111100011001 p#
b1 *$
#57
b111110010001110011010001001111000101000011000001000000111111101 "
b1101110100101000010110011100110000100000011001100000111111010010 b
b101001100111011101001011000110111101101011011001001000111000010 D"
b0 &#
b110011000110111100011010 p#
b10 *$
b0 7$
0@$
#58
b1010100110011101110100101100011011110110101101100100100011100001 "
b10111110110100111101010111000110010101111011000100011001101001 b
b111110010101110011010001001111000101000011000001000000111111101 D"
b100000000000000000000000000000000000000000000000000000 &#
b0 *$
b1 7$
1@$
#59
b1011111001010111001101000100111100010100001100000100000011111110 "
b1101001110000101100110110100000110000100111001000111100110101010 b
b1010100110011101110100101100011011110110101101100100100011100001 D"
b110011000110111100011011 p#
b1 *$
#60
b101010011001110111010010110001101111011010110110010010001110000 "
b1111110101001110010101100001111011011010110001010110000010011101 b
b1011111001010111001101000100111100010100001100000100000011111110 D"
b0 &#
b110011000110111100011100 p#
b10 *$
#61
b101111100001011100110100010011110001010000110000010000001111111 "
b1011101001011000101100110001100001001000110001000001111110100101 b
b101010011001110111010010110001101111011010110110010010001110000 D"
b110011000110111100011101 p#
b11 *$
#62
b1010101001000111011101001011000110111101101011011001001000111000 "
b101011101100001111000101110101110101011010100001000110011011011 b
b101111100101011100110100010011110001010000110000010000001111111 D"
b110011000110111100011110 p#
b100 *$
b0 7$
0@$
#63
b10111110010101110011010001001111000101000011000001000000111111 "
b10011110001011001101101000001100001001010000001111101111011100 b
b1010101001100111011101001011000110111101101011011001001000111000 D"
b100000000000000000000000000000000000000000000000000000 &#
b0 *$
b1 7$
1@$
#64
b1101010100010011101110100101100011011110110101101100100100011100 "
b1111001010011100101011001011110110110101100010100100100110111011 b
b10111110010101110011010001001111000101000011000001000000111111 D"
b110011000110111100011111 p#
b1 *$
#65
b1011111001010111001101000100111100010100001100000100000011111 "
b1111110000110001011011100011000000010001000010000011111111000011 b
b1101010100110011101110100101100011011110110101101100100100011100 D"
b0 &#
b110011000110111100100000 p#
b10 *$
b0 7$
0@$
#66
b1110101010011001110111010010110001101111011010110110010010001110 "
b10111011001011110011010101111101011110001000010001100100110111 b
b1011111001010111001101000100111100010100001100000100000011111 D"
b100000000000000000000000000000000000000000000000000000 &#
b0 *$
#67
b101111000101011100110100010011110001010000110000010000001111 "
b100011100010110111001010000011010010010000000010111111100111000 b
b1110101010011001110111010010110001101111011010110110010010001110 D"
b0 &#
#68
b1111010101001100111011101001011000110111101101011011001001000111 "
b1110110100111001010100011111001111100011100101001001001101111110 b
b101111100101011100110100010011110001010000110000010000001111 D"
b1 7$
1@$
#69
b1000010111010010101110011010001001111000101000011000001000000111 "
b111000011101010110101000110100010100010000100000111011100000111 b
b1111010101001100111011101001011000110111101101011011001001000111 D"
b100000000000000000000000000000000000000000000000000000 &#
b110011000110111100100001 p#
b1 *$
#70
b1111101010000110011101110100101100011011110110101101100100100011 "
b1101010100010111100110100011111010111100110010101011001001100111 b
b1000010111110010101110011010001001111000101000011000001000000111 D"
b0 &#
b110011000110111100100010 p#
b10 *$
b0 7$
0@$
#71
b1100001011011001010111001101000100111100010100001100000100000011 "
b111010101101110000101000110110100100100000100111011001111000 b
b1111101010100110011101110100101100011011110110101101100100100011 D"
b100000000000000000000000000000000000000000000000000000 &#
b0 *$
b1 7$
1@$
#72
b1111110101010011001110111010010110001101111011010110110010010001 "
b1101001011111010101000110110111101001111001010010010011011110100 b
b1100001011111001010111001101000100111100010100001100000100000011 D"
b110011000110111100100011 p#
b1 *$
b0 7$
0@$
#73
b1110000101011100101011100110100010011110001010000110000010000001 "
b110100111011101001010000101100111001100001000000110011000001111 b
b1111110101010011001110111010010110001101111011010110110010010001 D"
b0 *$
#74
b1111111010001001100111011101001011000110111101101011011001001000 "
b1010101000101111101101001111010101110001100101011110110001000110 b
b1110000101111100101011100110100010011110001010000110000010000001 D"
b0 &#
b1 7$
1@$
#75
b111000010011110010101110011010001001111000101000011000001000000 "
b1001110111010011100001011001101101000001100001001110010001111001 b
b1111111010101001100111011101001011000110111101101011011001001000 D"
b100000000000000000000000000000000000000000000000000000 &#
b110011000110111100100100 p#
b1 *$
b0 7$
0@$
#76
b111111101010100110011101110100101100011011110110101101100100100 "
b1010010111111101010011100101011000011110110110101100010101100000 b
b111000010111110010101110011010001001111000101000011000001000000 D"
b0 *$
b1 7$
1@$
#77
b11100001011111001010111001101000100111100010100001100000100000 "
b1101101110111010010110001011001100011000010010001100010000011111 b
b111111101010100110011101110100101100011011110110101101100100100 D"
b110011000110111100100101 p#
b1 *$
#78
b11111110001010011001110111010010110001101111011010110110010010 "
b1101110001010111011000011110001011101011101010110101000010001100 b
b11100001011111001010111001101000100111100010100001100000100000 D"
b0 &#
b110011000110111100100110 p#
b10 *$
#79
b1110000001111100101011100110100010011110001010000110000010000 "
b1011101100100111100010110011011010000011000010010100000011111011 b
b11111110101010011001110111010010110001101111011010110110010010 D"
b110011000110111100100111 p#
b11 *$
b0 7$
0@$
#80
b1111111010101001100111011101001011000110111101101011011001001 "
b1100001111110010100111001010110010111101101101011000101001001001 b
b1110000101111100101011100110100010011110001010000110000010000 D"
b100000000000000000000000000000000000000000000000000000 &#
b0 *$
b1 7$
1@$
#81
b1000111000010111110010101110011010001001111000101000011000001000 "
b11011111111100001100010110111000110000000100010000100000111111 b
b1111111010101001100111011101001011000110111101101011011001001 D"
b110011000110111100101000 p#
b1 *$
#82
b111111001010100110011101110100101100011011110110101101100100 "
b11100000101110110010111100110101011111010111100010000100011001 b
b1000111000010111110010101110011010001001111000101000011000001000 D"
b0 &#
b110011000110111100101001 p#
b10 *$
#83
b100011100001011111001010111001101000100111100010100001100000100 "
b111111001000111000101101110010100000110100100100000000101111111 b
b111111101010100110011101110100101100011011110110101101100100 D"
b110011000110111100101010 p#
b11 *$
b0 7$
0@$
#84
b11111010101010011001110111010010110001101111011010110110010 "
b11111101101001110010101000111110011111000111001010010010011 b
b100011100001011111001010111001101000100111100010100001100000100 D"
b100000000000000000000000000000000000000000000000000000 &#
b0 *$
#85
b10001110000101111100101011100110100010011110001010000110000010 "
b110011101110000111010101101010001101000101000100001000001110111 b
b11111110101010011001110111010010110001101111011010110110010 D"
b0 &#
b1 7$
1@$
#86
b1111011010101001100111011101001011000110111101101011011001 "
b111100011010101000101111001101000111110101111001100101010110010 b
b10001110000101111100101011100110100010011110001010000110000010 D"
b100000000000000000000000000000000000000000000000000000 &#
b110011000110111100101011 p#
b1 *$
#87
b1001000111000010111110010101110011010001001111000101000011000001 "
b1111010000001110101011011100001010001101101001001000001001110110 b
b1111111010101001100111011101001011000110111101101011011001 D"
b0 &#
b110011000110111100101100 p#
b10 *$
b0 7$
0@$
#88
b1000000111011101010100110011101110100101100011011110110101101100 "
b111111010010111110101010001101101111010011110010100100100110 b
b1001000111000010111110010101110011010001001111000101000011000001 D"
b100000000000000000000000000000000000000000000000000000 &#
b0 *$
#89
b100100011000001011111001010111001101000100111100010100001100000 "
b100011001101001110111010010100001011001110011000010000001100110 b
b1000000111111101010100110011101110100101100011011110110101101100 D"
b0 &#
b1 7$
1@$
#90
b100000011011110101010011001110111010010110001101111011010110110 "
b111100110101010001011111011010011110101011100011001010111101100 b
b100100011100001011111001010111001101000100111100010100001100000 D"
b100000000000000000000000000000000000000000000000000000 &#
b110011000110111100101101 p#
b1 *$
b0 7$
0@$
#91
b10010001010000101111100101011100110100010011110001010000110000 "
b110000010011101110100111000010110011011010000011000010011100100 b
b100000011111110101010011001110111010010110001101111011010110110 D"
b0 *$
b1 7$
1@$
#92
b10000001011111010101001100111011101001011000110111101101011011 "
b1111110100101111111010100111001010110000111101101101011000101 b
b10010001110000101111100101011100110100010011110001010000110000 D"
b110011000110111100101110 p#
b1 *$
b0 7$
0@$
#93
b1001001000011000010111110010101110011010001001111000101000011000 "
b1000110011011011101110100101100010110011000110000100100011000100 b
b10000001111111010101001100111011101001011000110111101101011011 D"
b0 *$
b1 7$
1@$
#94
b1000000011111101010100110011101110100101100011011110110101101 "
b1111101111011100010101110110000111100010111010111010101101010000 b
b1001001000111000010111110010101110011010001001111000101000011000 D"
b110011000110111100101111 p#
b1 *$
b0 7$
0@$
#95
b1100100100011100001011111001010111001101000100111100010100001100 "
b100100110111011001001111000101100110110100000110000100101000000 b
b1000000111111101010100110011101110100101100011011110110101101 D"
b0 *$
b1 7$
1@$
#96
b100000011111110101010011001110111010010110001101111011010110 "
b11111111000011111100101001110010101100101111011011010110001010 b
b1100100100011100001011111001010111001101000100111100010100001100 D"
b110011000110111100110000 p#
b1 *$
#97
b110010010001110000101111100101011100110100010011110001010000110 "
b1100100110111111111000011000101101110001100000001000100001000 b
b100000011111110101010011001110111010010110001101111011010110 D"
b0 &#
b110011000110111100110001 p#
b10 *$
#98
b10000001111111010101001100111011101001011000110111101101011 "
b111111100111000001011101100101111001101010111110101111000100001 b
b110010010001110000101111100101011100110100010011110001010000110 D"
b110011000110111100110010 p#
b11 *$
#99
b1011001001000111000010111110010101110011010001001111000101000011 "
b1001001101111110010001110001011011100101000001101001001000000001 b
b10000001111111010101001100111011101001011000110111101101011 D"
b110011000110111100110011 p#
b100 *$
#100
b1000001000000111111101010100110011101110100101100011011110110101 "
b111011100000111111011010011100101010001111100111110001110010100 b
b1011001001000111000010111110010101110011010001001111000101000011 D"
b110011000110111100110100 p#
b101 *$
#101
b1101100100000011100001011111001010111001101000100111100010100001 "
b1011001001100111011100001110101011010100011010001010001000010000 b
b1000001000000111111101010100110011101110100101100011011110110101 D"
b110011000110111100110101 p#
b110 *$
#102
b1100000100000011111110101010011001110111010010110001101111011010 "
b111011001111000110101010001011110011010001111101011110011001010 b
b1101100100100011100001011111001010111001101000100111100010100001 D"
b110011000110111100110110 p#
b111 *$
b0 7$
0@$
#103
b110110010010001110000101111100101011100110100010011110001010000 "
b10011011110100000011101010110111000010100011011010010010000010 b
b1100000100000011111110101010011001110111010010110001101111011010 D"
b100000000000000000000000000000000000000000000000000000 &#
b0 *$
#104
b110000010000001111111010101001100111011101001011000110111101101 "
b110011000001111110100101111101010100011011011110100111100101001 b
b110110010010001110000101111100101011100110100010011110001010000 D"
b0 &#
#105
b1011011001001000111000010111110010101110011010001001111000101000 "
b1110110001000110011010011101110100101000010110011100110000100000 b
b110000010000001111111010101001100111011101001011000110111101101 D"
#106
b11000001000000111111101010100110011101110100101100011011110110 "
b1110010001111001101010100010111110110100111101010111000110010101 b
b1011011001001000111000010111110010101110011010001001111000101000 D"
#107
b101101100000100011100001011111001010111001101000100111100010100 "
b1100010101100000100111011101001110000101100110110100000110000100 b
b11000001000000111111101010100110011101110100101100011011110110 D"
#108
b1100000000000011111110101010011001110111010010110001101111011 "
b1100010000011111101001011111110101001110010101100001111011011010 b
b101101100100100011100001011111001010111001101000100111100010100 D"
b1 7$
1@$
#109
b1010110110010010001110000101111100101011100110100010011110001010 "
b101000010001100110110111011101001011000101100110001100001001000 b
b1100000100000011111110101010011001110111010010110001101111011 D"
b100000000000000000000000000000000000000000000000000000 &#
b110011000110111100110111 p#
b1 *$
b0 7$
0@$
#110
b110000010000001111111010101001100111011101001011000110111101 "
b100000011111011110111000101011101100001111000101110101110101011 b
b1010110110010010001110000101111100101011100110100010011110001010 D"
b0 *$
#111
b1101011011001001000111000010111110010101110011010001001111000101 "
b1000101001001001101110110010011110001011001101101000001100001001 b
b110000010000001111111010101001100111011101001011000110111101 D"
b0 &#
#112
b1000011000001000000111111101010100110011101110100101100011011110 "
b100000111111110000111111001010011100101011001011110110110101 b
b1101011011001001000111000010111110010101110011010001001111000101 D"
#113
b110101101000100100011100001011111001010111001101000100111100010 "
b10000100011001001101111111110000110001011011100011000000010001 b
b1000011000001000000111111101010100110011101110100101100011011110 D"
#114
b100001100000100000011111110101010011001110111010010110001101111 "
b101111111001110000010111011001011110011010101111101011110 b
b110101101100100100011100001011111001010111001101000100111100010 D"
b1 7$
1@$
#115
b1011010110010010010001110000101111100101011100110100010011110001 "
b1001010010010011011111100100011100010110111001010000011010010010 b
b100001100000100000011111110101010011001110111010010110001101111 D"
b100000000000000000000000000000000000000000000000000000 &#
b110011000110111100111000 p#
b1 *$
#116
b1010000110000010000001111111010101001100111011101001011000110111 "
b1000001110111000001111110110100111001010100011111001111100011 b
b1011010110110010010001110000101111100101011100110100010011110001 D"
b0 &#
b110011000110111100111001 p#
b10 *$
b0 7$
0@$
#117
b1101101011011001001000111000010111110010101110011010001001111000 "
b1100101010110010011001110111000011101010110101000110100010100010 b
b1010000110000010000001111111010101001100111011101001011000110111 D"
b100000000000000000000000000000000000000000000000000000 &#
b0 *$
#118
b101000011000001000000111111101010100110011101110100101100011011 "
b1000001001110110011110001101010100010111100110100011111010111100 b
b1101101011011001001000111000010111110010101110011010001001111000 D"
b0 &#
#119
b1110110101001100100100011100001011111001010111001101000100111100 "
b10100100100110111101000000111010101101110000101000110110100100 b
b101000011000001000000111111101010100110011101110100101100011011 D"
#120
b10100001000000100000011111110101010011001110111010010110001101 "
b10000001100110000011111101001011111010101000110110111101001111 b
b1110110101101100100100011100001011111001010111001101000100111100 D"
b1 7$
1@$
#121
b1111011010010110010010001110000101111100101011100110100010011110 "
b1001010111101100010001100110100111011101001010000101100111001100 b
b10100001100000100000011111110101010011001110111010010110001101 D"
b100000000000000000000000000000000000000000000000000000 &#
b110011000110111100111010 p#
b1 *$
b0 7$
0@$
#122
b1010000010000010000001111111010101001100111011101001011000110 "
b1000010011100100011110011010101000101111101101001111010101110001 b
b1111011010110110010010001110000101111100101011100110100010011110 D"
b0 *$
b1 7$
1@$
#123
b111101101011011001001000111000010111110010101110011010001001111 "
b1101101011000101011000001001110111010011100001011001101101000001 b
b1010000110000010000001111111010101001100111011101001011000110 D"
b110011000110111100111011 p#
b1 *$
b0 7$
0@$
#124
b1000101000011000001000000111111101010100110011101110100101100011 "
b100100011000100000111111010010111111101010011100101011000011110 b
b111101101011011001001000111000010111110010101110011010001001111 D"
b0 *$
#125
b1011110110001101100100100011100001011111001010111001101000100111 "
b1010101101010000100011001101101110111010010110001011001100011000 b
b1000101000011000001000000111111101010100110011101110100101100011 D"
b0 &#
#126
b1100010100001100000100000011111110101010011001110111010010110001 "
b100101000000111110111101110001010111011000011110001011101011 b
b1011110110101101100100100011100001011111001010111001101000100111 D"
b1 7$
1@$
#127
b1101111011010110110010010001110000101111100101011100110100010011 "
b1011010110001010010010011011101100100111100010110011011010000011 b
b1100010100001100000100000011111110101010011001110111010010110001 D"
b100000000000000000000000000000000000000000000000000000 &#
b110011000110111100111100 p#
b1 *$
#128
b1110001010000110000010000001111111010101001100111011101001011000 "
b1000100001000001111111100001111110010100111001010110010111101 b
b1101111011010110110010010001110000101111100101011100110100010011 D"
b0 &#
b110011000110111100111101 p#
b10 *$
#129
b110111101001011011001001000111000010111110010101110011010001001 "
b101111000100001000110010011011111111100001100010110111000110000 b
b1110001010000110000010000001111111010101001100111011101001011000 D"
b110011000110111100111110 p#
b11 *$
#130
b1111000101000011000001000000111111101010100110011101110100101100 "
b1001001000000001011111110011100000101110110010111100110101011111 b
b110111101101011011001001000111000010111110010101110011010001001 D"
b110011000110111100111111 p#
b100 *$
b0 7$
0@$
#131
b11011110010101101100100100011100001011111001010111001101000100 "
b1110001110010100100100110111111001000111000101101110010100000110 b
b1111000101000011000001000000111111101010100110011101110100101100 D"
b100000000000000000000000000000000000000000000000000000 &#
b0 *$
#132
b111100010000001100000100000011111110101010011001110111010010110 "
b1010001000010000011101110000011111101101001110010101000111110011 b
b11011110110101101100100100011100001011111001010111001101000100 D"
b0 &#
b1 7$
1@$
#133
b1101111011010110110010010001110000101111100101011100110100010 "
b1011110011001010101100100110011101110000111010101101010001101000 b
b111100010100001100000100000011111110101010011001110111010010110 D"
b100000000000000000000000000000000000000000000000000000 &#
b110011000110111101000000 p#
b1 *$
b0 7$
0@$
#134
b11110001010000110000010000001111111010101001100111011101001011 "
b1010010010000010011101100111100011010101000101111001101000111110 b
b1101111011010110110010010001110000101111100101011100110100010 D"
b0 *$
#135
b1000110111001101011011001001000111000010111110010101110011010001 "
b100111100101001001001101111010000001110101011011100001010001101 b
b11110001010000110000010000001111111010101001100111011101001011 D"
b0 &#
#136
b1001111000001000011000001000000111111101010100110011101110100101 "
b1100110000100000011001100000111111010010111110101010001101101111 b
b1000110111101101011011001001000111000010111110010101110011010001 D"
b1 7$
1@$
#137
b1100011011010110101101100100100011100001011111001010111001101000 "
b111000110010101111011000100011001101001110111010010100001011001 b
b1001111000101000011000001000000111111101010100110011101110100101 D"
b100000000000000000000000000000000000000000000000000000 &#
b110011000110111101000001 p#
b1 *$
b0 7$
0@$
#138
b100111100010100001100000100000011111110101010011001110111010010 "
b100000110000100111001000111100110101010001011111011010011110101 b
b1100011011110110101101100100100011100001011111001010111001101000 D"
b0 *$
b1 7$
1@$
