serdes_test/.Xil/Vivado-23608-21-10244/hw_ila_data_1/zip_work/waveform.vcd
$date
        2021-Oct-13 14:52:12
$end
$version
        Vivado v2020.2 (64-bit)
$end
$timescale
        1ps
$end
$scope module dut $end
$var reg 10 " alignAddr [9:0] $end
$var reg 64 , dout [63:0] $end
$var reg 64 l errorBits [63:0] $end
$var reg 7 N" errorCounter [6:0] $end
$var reg 4 U" foundFrames [3:0] $end
$var reg 24 Y" tot_align_err_count [23:0] $end
$var reg 24 q" tot_user_err_count [23:0] $end
$var reg 64 +# usererrorBits [63:0] $end
$var reg 64 k# userBits [63:0] $end
$var reg 8 M$ userData [7:0] $end
$var reg 7 U$ usererrorCounter [6:0] $end
$var reg 16 \$ mask [15:0] $end
$var reg 64 l$ prbs_from_check [63:0] $end
$var reg 9 N% searchedFrames [8:0] $end
$var reg 2 W% user_mode [1:0] $end
$var reg 64 Y% gt0_rxdata_i [63:0] $end
$var reg 64 ;& userdataBits [63:0] $end
$var reg 1 {& aligned $end
$var reg 1 |& bypass $end
$var reg 1 }& errorFlag $end
$var reg 1 ~& gt0_rxusrclk2_i $end
$var reg 1 !' SYS_RST $end
$var reg 1 "' _TRIGGER $end
$var reg 1 #' _WINDOW $end
$var reg 1 $' _GAP $end
$upscope $end
$enddefinitions $end
#0
$dumpvars
b1100 "
b1110011000001001111000100000011000001000100111111101010110110011 ,
b0 l
b0 N"
b1100 U"
b0 Y"
b0 q"
b0 +#
b10000000000000001000000000000000100000000000000010000000 k#
b1010101 M$
b0 U$
b1000000010000000 \$
b1011101001011000110111101101011011001001000111000010111110010101 l$
b0 N%
b0 W%
b1010001101101000001000001001110010011111001101010101010111110110 Y%
b0 ;&
1{&
0|&
0}&
0~&
0!'
0"'
1#'
0$'
$end
#1
b1101110110101100011011111110101101100100000011100001011101001010 ,
b1110011010001001111000101000011000001000000111111101010100110011 l$
b1101101011000011110010110101100010111100000100111010101001110000 Y%
#2
b111001111000100111100011100001100000100100011111110101000011001 ,
b1101110100101100011011110110101101100100100011100001011111001010 l$
b11001100011000110010001100010010011111101001010111110101001 Y%
#3
b1110111000010110001101110011010110110010110001110000101101100101 ,
b111001101000100111100010100001100000100000011111110101010011001 l$
b10110001011101011001010110101000000001100110110110011101001011 Y%
#4
b1011100100100010011110000010000110000010100001111111010111001100 ,
b1110111010010110001101111011010110110010010001110000101111100101 l$
b111011011010000011100010010100000001111011110111001101011101100 Y%
#5
b111011111001011000110110101101011011001101000111000010101110010 ,
b1011100110100010011110001010000110000010000001111111010101001100 l$
b1000010110010111101001101011000101011001001101110111010011110001 Y%
#6
b101110001010001001111001101000011000001100000111111101000100110 ,
b111011101001011000110111101101011011001001000111000010111110010 l$
b11110111000110000100100010000100010111111110000110111001010011 Y%
#7
b11101100100101100011010110110101101100000100011100001001111001 ,
b101110011010001001111000101000011000001000000111111101010100110 l$
b110100110101011111110111100010000110011001001101110111110000110 Y%
#8
b1010111011101000100111101010100001100000000000011111110111010011 ,
b11101110100101100011011110110101101100100100011100001011111001 l$
b1100110010100000110000100100000000111111111001110001010111011001 Y%
#9
b1001110101010010110001100111011010110110110010001110000111111100 ,
b1010111001101000100111100010100001100000100000011111110101010011 l$
b11101000111110011011000111001010000010011011111101100011100010 Y%
#10
b101011110110100010011111001010000110000110000001111111000101001 ,
b1001110111010010110001101111011010110110010010001110000101111100 l$
b100101010001101000001000100001000011110111000001110110110100111 Y%
#11
b1100111001101001011000111111101101011011101001000111000000111110 ,
b101011100110100010011110001010000110000010000001111111010101001 l$
b1110001101000111110001111001100101000110010011001111111000011101 Y%
#12
b10101100011010001001110000101000011000101000000111111111010100 ,
b1100111011101001011000110111101101011011001001000111000010111110 l$
b1010100001010001101001001001000001011110110011110000101010100010 Y%
#13
b110011111110100101100010011110110101101000100100011100011011111 ,
b10101110011010001001111000101000011000001000000111111101010100 l$
b100010001101101111110011110010100110100110111101001000111010101 Y%
#14
b1001010101001101000100110100010100001100100100000011111100101010 ,
b110011101110100101100011011110110101101100100100011100001011111 l$
b1011010100001011001010011000010000011100110000011110101001011111 Y%
#15
b11001100111010010110000101111011010110010010010001110010101111 ,
b1001010111001101000100111100010100001100000100000011111110101010 l$
b1110011010011110101111100011001010101101100010001101110100111011 Y%
#16
b1100101001100110100010010110001010000110100010000001111101010101 ,
b11001110111010010110001101111011010110110010010001110000101111 l$
b110000010110011011110000011000010001100100011110010010101000101 Y%
#17
b1001100101011101001011001110111101101011111001001000111010010111 ,
b1100101011100110100010011110001010000110000010000001111111010101 l$
b1011100111001010110100111101101101001000101011000000001110111010 Y%
#18
b1110010111110011010001000111000101000011100001000000111101101010 ,
b1001100111011101001011000110111101101011011001001000111000010111 l$
b101101100010110011100110000100100001000100000111110010010111111 Y%
#19
b100110001101110100101101011011110110101001100100100011110001011 ,
b1110010101110011010001001111000101000011000001000000111111101010 l$
b1111110000111100010011010111010101111010000100011000101101110111 Y%
#20
b1111001000111001101000101111100010100001000000100000011101110101 ,
b100110011101110100101100011011110110101101100100100011100001011 l$
b1110000101100110110000000110000100111000000111110110101110001010 Y%
#21
b1010011011110111010010111001101111011010010110010010001100000101 ,
b1111001010111001101000100111100010100001100000100000011111110101 l$
b100001110010101100001111011011010100001010010010010011101100100 Y%
#22
b1111100111011100110100011011110001010000010000010000001101111010 ,
b1010011001110111010010110001101111011010110110010010001110000101 l$
b1001011000101101110101100000001000110001000001111110100001111110 Y%
#23
b101001110111011101001010000110111101101111011001001000101000010 ,
b1111100101011100110100010011110001010000110000010000001111111010 l$
b1100100101111001101110111110101111010100001000110011011011111111 Y%
#24
b111110000101110011010000001111000101000111000001000000101111101 ,
b101001100111011101001011000110111101101011011001001000111000010 l$
b1111001011011100101100001101001001010000001011111111011100000101 Y%
#25
b1010100100011101110100100100011011110110001101100100100001100001 ,
b111110010101110011010001001111000101000011000001000000111111101 l$
b1011011100101010001011100111110001100010100100100111111111001000 Y%
#26
b1011111011010111001101001100111100010100101100000100000001111110 ,
b1010100110011101110100101100011011110110101101100100100011100001 l$
b110101011010100111010001010001010010000011101111000011111101 Y%
#27
b101010001001110111010011110001101111011110110110010010011110000 ,
b1011111001010111001101000100111100010100001100000100000011111110 l$
b1011001011110011010101111101011110001001010101100101110011101110 Y%
#28
b101111110101011100110101010011110001010100110000010000011111111 ,
b101010011001110111010010110001101111011010110110010010001110000 l$
b1100010110111000010000011011010010000000010011101101111100011010 Y%
#29
b1010101011100111011101000011000110111101001011011001001010111000 ,
b101111100101011100110100010011110001010000110000010000001111111 l$
b100111101010100011111011110100111110101001001001100111010000001 Y%
#30
b10111100010101110011011001001111000101100011000001000010111111 ,
b1010101001100111011101001011000110111101101011011001001000111000 l$
b10101110100101000110110011100110010100000011001101000111111010 Y%
#31
b1101010110110011101110101101100011011110010101101100100110011100 ,
b10111110010101110011010001001111000101000011000001000000111111 l$
b101010111110110100011101010111000100010101111011001100011001101 Y%
#32
b1011101001010111001100000100111100010000001100000100010011111 ,
b1101010100110011101110100101100011011110110101101100100100011100 l$
b1010101001110000101000110110100000100000100111001001111100110101 Y%
#33
b1110101000011001110111011010110001101111111010110110010000001110 ,
b1011111001010111001101000100111100010100001100000100000011111 l$
b1010111110101001110110101100001111001011010110001011110000010011 Y%
#34
b101101100101011100111100010011110001110000110000010010001111 ,
b1110101010011001110111010010110001101111011010110110010010001110 l$
b110011101001011000001100110001100011001000110001001001111110100 Y%
#35
b1111010111001100111011100001011000110111001101011011001011000111 ,
b101111100101011100110100010011110001010000110000010000001111 l$
b1001101011101100001011000101110101100101011010100000000110011011 Y%
#36
b1000010101110010101110010010001001111000001000011000001010000111 ,
b1111010101001100111011101001011000110111101101011011001001000111 l$
b111010011110001011101101101000001110001001010000000111101111011 Y%
#37
b1111101000100110011101111100101100011011010110101101100110100011 ,
b1000010111110010101110011010001001111000101000011000001000000111 l$
b110111001010011100001011001011110100110101100010101100100110111 Y%
#38
b1100001001111001010111000101000100111100110100001100000110000011 ,
b1111101010100110011101110100101100011011110110101101100100100011 l$
b1110111110000110001111011100011000010010001000010001011111111000 Y%
#39
b1111110111010011001110110010010110001101011011010110110000010001 ,
b1100001011111001010111001101000100111100010100001100000100000011 l$
b1010111011001011010011010101111111011110001000011001100100110 Y%
#40
b1110000111111100101011101110100010011110101010000110000000000001 ,
b1111110101010011001110111010010110001101111011010110110010010001 l$
b1101100011100010110011001010000011000010010000000011111111100111 Y%
#41
b1111111000101001100111010101001011000110011101101011011011001000 ,
b1110000101111100101011100110100010011110001010000110000010000001 l$
b1110110110100111001110100011111001101100011100101000001001101111 Y%
#42
b111000000111110010101111011010001001111100101000011000011000000 ,
b1111111010101001100111011101001011000110111101101011011001001000 l$
b1111111000011101010010101000110100000100010000100001111011100000 Y%
#43
b111111111010100110011100110100101100011111110110101101110100100 ,
b111000010111110010101110011010001001111000101000011000001000000 l$
b101010100010111000110100011111000111100110010100011001001100 Y%
#44
b11100011011111001010110001101000100111000010100001100010100000 ,
b111111101010100110011101110100101100011011110110101101100100100 l$
b1001000111010101101010000101000110100100100100000101111011001111 Y%
#45
b11111100101010011001111111010010110001001111011010110100010010 ,
b11100001011111001010111001101000100111100010100001100000100000 l$
b1110101001011111010001000110110111111001111001010011010011011110 Y%
#46
b1110010101111100101010100110100010011010001010000110010010000 ,
b11111110101010011001110111010010110001101111011010110110010010 l$
b1101110100111011101101010000101100101001100001000001110011000001 Y%
#47
b1111101010101001100110011101001011000010111101101011001001001 ,
b1110000101111100101011100110100010011110001010000110000010000 l$
b10010101000101111001101001111010111110001100101010110110001000 Y%
#48
b1000111010010111110010100110011010001001011000101000011010001000 ,
b1111111010101001100111011101001011000110111101101011011001001 l$
b1110111010011000001011001101111000001100001000110010001111 Y%
#49
b111101101010100110010101110100101100111011110110101111100100 ,
b1000111000010111110010101110011010001001111000101000011000001000 l$
b1110010010111111101110011100101011010011110110110100100010101100 Y%
#50
b100011110001011111001011111001101000100011100010100001110000100 ,
b111111101010100110011101110100101100011011110110101101100100 l$
b1000101101110111010110110001011001110011000010010000100010000011 Y%
#51
b11101110101010011000110111010010110101101111011010100110010 ,
b100011100001011111001010111001101000100111100010100001100000100 l$
b110101110001010111111000011110001001101011101010111101000010001 Y%
#52
b10001100000101111100100011100110100010111110001010000100000010 ,
b11111110101010011001110111010010110001101111011010110110010 l$
b10011101100100111000010110011011000000011000010011100000011111 Y%
#53
b1101111010101001101111011101001011100110111101101001011001 ,
b10001110000101111100101011100110100010011110001010000110000010 l$
b1110100001111110010000111001010110000111101101101010000101001001 Y%
#54
b1001000101000010111110011101110011010001101111000101000001000001 ,
b1111111010101001100111011101001011000110111101101011011001 l$
b11011011111111100101100010110111010110000000100011000100000111 Y%
#55
b1000000101111101010100111011101110100101000011011110110111101100 ,
b1001000111000010111110010101110011010001001111000101000011000001 l$
b1111011100000101110010010111100110111011111010111101010000100011 Y%
#56
b100100001100001011111000010111001101000000111100010100011100000 ,
b1000000111111101010100110011101110100101100011011110110101101100 l$
b111111111001000111100101101110010110000110100100101000000101111 Y%
#57
b100000001111110101010010001110111010010010001101111011000110110 ,
b100100011100001011111001010111001101000100111100010100001100000 l$
b1111000011111101101101110010101000101110011111000110001010010010 Y%
#58
b10010011110000101111101101011100110100110011110001010010110000 ,
b100000011111110101010011001110111010010110001101111011010110110 l$
b101110011101110000011010101101010011101000101000101001000001110 Y%
#59
b10000011111111010101000100111011101001111000110111101111011011 ,
b10010001110000101111100101011100110100010011110001010000110000 l$
b1101111100011010101100101111001101010111110101111000100101010110 Y%
#60
b1001001010111000010111111010101110011010101001111000101010011000 ,
b10000001111111010101001100111011101001011000110111101101011011 l$
b1100111010000001110001011011100001000001101101001000000001001110 Y%
#61
b1000010111111101010101110011101110100001100011011110100101101 ,
b1001001000111000010111110010101110011010001001111000101000011000 l$
b1101000111111010010011110101010001111101111010011111010100100100 Y%
#62
b1100100110011100001011110001010111001101100100111100010110001100 ,
b1000000111111101010100110011101110100101100011011110110101101 l$
b1001100011001101001010111010010100011011001110011001010000001100 Y%
#63
b100010011111110101011011001110111010110110001101111001010110 ,
b1100100100011100001011111001010111001101000100111100010100001100 l$
b1001111100110101010101011111011010001110101011100010001010111101 Y%
#64
b110010000001110000101110100101011100110000010011110001000000110 ,
b100000011111110101010011001110111010010110001101111011010110 l$
b1011110000010011101010100111000010100011011010000010000010011100 Y%
#65
b10010001111111010100001100111011101101011000110111111101011 ,
b110010010001110000101111100101011100110100010011110001010000110 l$
b1001001111110100101011111010100111011010110000111100101101011000 Y%
#66
b1011001011000111000010110110010101110011110001001111000111000011 ,
b10000001111111010101001100111011101001011000110111101101011 l$
b110011011011001110100101100000110011000110001100100011000 Y%
#67
b1000001010000111111101011100110011101110000101100011011100110101 ,
b1011001001000111000010111110010101110011010001001111000101000011 l$
b111101111011100110101110110000101100010111010110010101101010 Y%
#68
b1101100110100011100001010111001010111001001000100111100000100001 ,
b1000001000000111111101010100110011101110100101100011011110110101 l$
b101100100110111011101001111000101110110110100000111000100101000 Y%
#69
b1100000110000011111110100010011001110111110010110001101101011010 ,
b1101100100100011100001011111001010111001101000100111100010100001 l$
b1011111111000011011100101001110000101100101111010011010110001 Y%
#70
b110110000010001110000100111100101011100010100010011110011010000 ,
b1100000100000011111110101010011001110111010010110001101111011010 l$
b11001100100110111011111000011000111101110001100001001000100001 Y%
#71
b110000000000001111111011101001100111011001001011000110101101101 ,
b110110010010001110000101111100101011100110100010011110001010000 l$
b11111111100111000101011101100101101001101010111111101111000100 Y%
#72
b1011011011001000111000011111110010101110111010001001111010101000 ,
b110000010000001111111010101001100111011101001011000110111101101 l$
b1000001001101111110110001110001011001100101000001100001001000000 Y%
#73
b11000011000000111111100010100110011101010100101100011001110110 ,
b1011011001001000111000010111110010101110011010001001111000101000 l$
b1111011100000111011011010011100111010001111100110110001110010 Y%
#74
b101101110100100011100000011111001010111101101000100111110010100 ,
b11000001000000111111101010100110011101110100101100011011110110 l$
b100011001001100111111100001110101001010100011010000010001000010 Y%
#75
b1100010100000011111111101010011001110011010010110001111111011 ,
b101101100100100011100001011111001010111001101000100111100010100 l$
b101111011001111000010101010001011100011010001111100011110011001 Y%
#76
b1010110100010010001110001101111100101011000110100010011100001010 ,
b1100000100000011111110101010011001110111010010110001101111011 l$
b11010011011110100100011101010110101000010100011010010010010000 Y%
#77
b110010010000001111110010101001100111111101001011000100111101 ,
b1010110110010010001110000101111100101011100110100010011110001010 l$
b1110011000001111010100101111101000100011011011111100111100101 Y%
#78
b1101011001001001000111001010111110010101010011010001001101000101 ,
b110000010000001111111010101001100111011101001011000110111101 l$
b1010110110001000110111010011101110110101000010110010100110000100 Y%
#79
b1000011010001000000111110101010100110011001110100101100001011110 ,
b1101011011001001000111000010111110010101110011010001001111000101 l$
b1000110010001111001001010100010111100110100111101011111000110010 Y%
#80
b110101111100100100011101001011111001010011001101000100101100010 ,
b1000011000001000000111111101010100110011101110100101100011011110 l$
b100100010101100000000111011101001100000101100110111100000110000 Y%
#81
b100001110000100000011110110101010011001010111010010110011101111 ,
b110101101100100100011100001011111001010111001101000100111100010 l$
b100010000011111001001011111110111001110010101101001111011011 Y%
#82
b1011010100110010010001111000101111100101111100110100010001110001 ,
b100001100000100000011111110101010011001110111010010110001101111 l$
b111101000010001100010110111011101011011000101100111001100001001 Y%
#83
b1010000100000010000001110111010101001100011011101001011010110111 ,
b1011010110110010010001110000101111100101011100110100010011110001 l$
b11100000011111011010111000101011111100001111000100110101110101 Y%
#84
b1101101001011001001000110000010111110010001110011010001011111000 ,
b1010000110000010000001111111010101001100111011101001011000110111 l$
b1010000101001001001001110110010011100001011001101100000001100001 Y%
#85
b101000001000001000000110111101010100110111101110100101110011011 ,
b1101101011011001001000111000010111110010101110011010001001111000 l$
b11000100000111111010000111111001000011100101011000011110110110 Y%
#86
b1110110111101100100100010100001011111001110111001101000110111100 ,
b101000011000001000000111111101010100110011101110100101100011011 l$
b1101010000100011001101101111111110010110001011011101011000000010 Y%
#87
b10100011100000100000010111110101010011101110111010010100001101 ,
b1110110101101100100100011100001011111001010111001101000100111100 l$
b101000000101111111101110000010111001001011110011011101111101011 Y%
#88
b1111011000110110010010000110000101111100001011100110100000011110 ,
b10100001100000100000011111110101010011001110111010010110001101 l$
b110001010010010011111111100100011110010110111001011000011010010 Y%
#89
b1010010110000010000000111111010101001000111011101001001000110 ,
b1111011010110110010010001110000101111100101011100110100010011110 l$
b101001000001110111100001111110110110111001010100010111001111100 Y%
#90
b111101111011011001001001111000010111110110101110011010011001111 ,
b1010000110000010000001111111010101001100111011101001011000110 l$
b1000100101010110010111001110111000001101010110101001110100010100 Y%
#91
b1000101010011000001000001111111101010100010011101110100111100011 ,
b111101101011011001001000111000010111110010101110011010001001111 l$
b1000000001001110110111110001101010110010111100110101011111010111 Y%
#92
b1011110100101101100100101011100001011111101010111001101010100111 ,
b1000101000011000001000000111111101010100110011101110100101100011 l$
b1111010100100100110011101000000111000101101110000100000110110100 Y%
#93
b1100010110001100000100001011111110101010111001110111010000110001 ,
b1011110110101101100100100011100001011111001010111001101000100111 l$
b1001010000001100110100011111101001001111010101000111110111101001 Y%
#94
b1101111001010110110010011001110000101111000101011100110110010011 ,
b1100010100001100000100000011111110101010011001110111010010110001 l$
b10001010111101100110001100110100101011101001010001101100111001 Y%
#95
b1110001000000110000010001001111111010101101100111011101011011000 ,
b1101111011010110110010010001110000101111100101011100110100010011 l$
b10000010011100100111110011010101010101111101101000111010101110 Y%
#96
b110111111101011011001000000111000010111010010101110011000001001 ,
b1110001010000110000010000001111111010101001100111011101001011000 l$
b1100101101011000101111000001001110101010011100001010001101101000 Y%
#97
b1111000111000011000001001000111111101010000110011101110110101100 ,
b110111101101011011001001000111000010111110010101110011010001001 l$
b1100100011000100100111111010010101111101010011101101011000011 Y%
#98
b11011100110101101100101100011100001011011001010111001111000100 ,
b1111000101000011000001000000111111101010100110011101110100101100 l$
b110010101101010000000011001101101100111010010110000011001100011 Y%
#99
b111100000100001100000101000011111110101110011001110111000010110 ,
b11011110110101101100100100011100001011111001010111001101000100 l$
b111000100101000000011110111101110011010111011000010110001011101 Y%
#100
b1101101011010110110011010001110000101011100101011100100100010 ,
b111100010100001100000100000011111110101010011001110111010010110 l$
b1010011010110001010110010011011101110100111100010111011011010000 Y%
#101
b11110011010000110000011000001111111010001001100111011111001011 ,
b1101111011010110110010010001110000101111100101011100110100010 l$
b1001000100001000101111111100001101110010100111000010110010111 Y%
#102
b1000110101101101011011000001000111000010011110010101110001010001 ,
b11110001010000110000010000001111111010101001100111011101001011 l$
b1111101111000100001100110010011011101111100001100011110111000110 Y%
#103
b1001111010101000011000000000000111111101110100110011101100100101 ,
b1000110111101101011011001001000111000010111110010101110011010001 l$
b1100001001000000001111111110011100010101110110010110100110101011 Y%
#104
b1100011001110110101101101100100011100001111111001010111011101000 ,
b1001111000101000011000001000000111111101010100110011101110100101 l$
b110110001110010100000100110111111011000111000101100110010100000 Y%
#105
b100111110010100001100001100000011111110001010011001110101010010 ,
b1100011011110110101101100100100011100001011111001010111001101000 l$
b10001000010000111101110000011101101101001110011101000111110 Y%
#106
b110001111111011010110111010010001110000001111100101011110110100 ,
b100111100010100001100000100000011111110101010011001110111010010 l$
b1100011110011001010001100100110011111110000111010100101010001101 Y%
#107
b10011100001010000110001010000001111111110101001100111001101001 ,
b110001101111011010110110010010001110000101111100101011100110100 l$
b1010010010010000010111101100111100001010101000101110001101000111 Y%
#108
b1011000100111101101011010001001000111000110111110010101100011010 ,
b10011110001010000110000010000001111111010101001100111011101001 l$
b1111100111100101001101001101111010010001110101011010100001010001 Y%
#109
b1001101000101000011001001000000111111001010100110011111110100 ,
b1011000110111101101011011001001000111000010111110010101110011010 l$
b10100110000100000111001100000111101010010111110100010001101101 Y%
#110
b101100001011110110101100100100100011100101011111001010101001101 ,
b1001111000101000011000001000000111111101010100110011101110100 l$
b1011111000110010101011011000100011011101001110111011010100001011 Y%
#111
b1000100101100010100001101000100000011111010101010011001100111010 ,
b101100011011110110101101100100100011100001011111001010111001101 l$
b111100000110000100011001000111100100101010001011110011010011110 Y%
#112
b10110011101111011010111110010010001110100101111100101001100110 ,
b1000100111100010100001100000100000011111110101010011001110111010 l$
b1101001111011011010010001010110000000011101110100110000010110011 Y%
#113
b100010001110001010000111000010000001111011010101001100101011101 ,
b10110001101111011010110110010010001110000101111100101011100110 l$
b111001100001001000010001000001111100100101111111011100111001010 Y%
#114
b1001011010110111101101010011001001000111100010111110010111110011 ,
b100010011110001010000110000010000001111111010101001100111011101 l$
b100110101110101011110100001000110001011011101110101101100010110 Y%
#115
b1010001011111000101000010000001000000111011101010100110001101110 ,
b1001011000110111101101011011001001000111000010111110010101110011 l$
b1100000001100001001110000001111101101011100010101111110000111100 Y%
#116
b100101110011011110110100101100100100011000001011111001000111001 ,
b1010001001111000101000011000001000000111111101010100110011101110 l$
b1000011110110110101000010100100100100111011001001110000101100110 Y%
#117
b1101000110111100010100000100000100000011011110101010011011110111 ,
b100101100011011110110101101100100100011100001011111001010111001 l$
b1101011000000010001100010000011111101000011111100100001110010101 Y%
#118
b1010010100001101111011011110110010010001010000101111100111011100 ,
b1101000100111100010100001100000100000011111110101010011001110111 l$
b1011101111101011110101000010001100110110111111111001011000101101 Y%
#119
b110100000011110001010001110000010000001011111010101001110111011 ,
b1010010110001101111011010110110010010001110000101111100101011100 l$
b1011000011010010010100000010111111110111000001011100100101111001 Y%
#120
b1101001001000110111101100011011001001000011000010111110000101110 ,
b110100010011110001010000110000010000001111111010101001100111011 l$
b10111001111100011000101001001001111111110010001111001011011100 Y%
#121
b11010011001111000101001011000001000000011111101010100100011101 ,
b1101001011000110111101101011011001001000111000010111110010101110 l$
b1001110100010100010100100000111011110000111111011011011100101010 Y%
#122
b1110100111100011011110111101101100100100111100001011111011010111 ,
b11010001001111000101000011000001000000111111101010100110011101 l$
b101011111010111100010010101011001011100111011100000110101011010 Y%
#123
b1001101010100111100010101001100000100000111111110101010001001110 ,
b1110100101100011011110110101101100100100011100001011111001010111 l$
b100000110110100100000000100111011011111000110101011001011110011 Y%
#124
b111010000110001101111010010110110010010101110000101111110101011 ,
b1001101000100111100010100001100000100000011111110101010011001110 l$
b111110111101001111101010010010011001110100000011100010110111000 Y%
#125
b1100110110010011110001011000110000010000101111111010101011100111 ,
b111010010110001101111011010110110010010001110000101111100101011 l$
b1101100111001100101000000110011010001111110100100111101010100 Y%
#126
b1011101011011000110111100101011011001001100111000010111100010101 ,
b1100110100010011110001010000110000010000001111111010101001100111 l$
b1000111010101110001000101011110110011000110011010010101110100101 Y%
#127
b1110011000001001111000100000011000001000100111111101010110110011 ,
b1011101001011000110111101101011011001001000111000010111110010101 l$
b1010001101101000001000001001110010011111001101010101010111110110 Y%
#128
b1101110110101100011011111110101101100100000011100001011101001010 ,
b1110011010001001111000101000011000001000000111111101010100110011 l$
b1101101011000011110010110101100010111100000100111010101001110000 Y%
#129
b111001111000100111100011100001100000100100011111110101000011001 ,
b1101110100101100011011110110101101100100100011100001011111001010 l$
b11001100011000110010001100010010011111101001010111110101001 Y%
#130
b1110111000010110001101110011010110110010110001110000101101100101 ,
b111001101000100111100010100001100000100000011111110101010011001 l$
b10110001011101011001010110101000000001100110110110011101001011 Y%
#131
b1011100100100010011110000010000110000010100001111111010111001100 ,
b1110111010010110001101111011010110110010010001110000101111100101 l$
b111011011010000011100010010100000001111011110111001101011101100 Y%
#132
b111011111001011000110110101101011011001101000111000010101110010 ,
b1011100110100010011110001010000110000010000001111111010101001100 l$
b1000010110010111101001101011000101011001001101110111010011110001 Y%
#133
b101110001010001001111001101000011000001100000111111101000100110 ,
b111011101001011000110111101101011011001001000111000010111110010 l$
b11110111000110000100100010000100010111111110000110111001010011 Y%
#134
b11101100100101100011010110110101101100000100011100001001111001 ,
b101110011010001001111000101000011000001000000111111101010100110 l$
b110100110101011111110111100010000110011001001101110111110000110 Y%
#135
b1010111011101000100111101010100001100000000000011111110111010011 ,
b11101110100101100011011110110101101100100100011100001011111001 l$
b1100110010100000110000100100000000111111111001110001010111011001 Y%
#136
b1001110101010010110001100111011010110110110010001110000111111100 ,
b1010111001101000100111100010100001100000100000011111110101010011 l$
b11101000111110011011000111001010000010011011111101100011100010 Y%
#137
b101011110110100010011111001010000110000110000001111111000101001 ,
b1001110111010010110001101111011010110110010010001110000101111100 l$
b100101010001101000001000100001000011110111000001110110110100111 Y%
#138
b1100111001101001011000111111101101011011101001000111000000111110 ,
b101011100110100010011110001010000110000010000001111111010101001 l$
b1110001101000111110001111001100101000110010011001111111000011101 Y%
#139
b10101100011010001001110000101000011000101000000111111111010100 ,
b1100111011101001011000110111101101011011001001000111000010111110 l$
b1010100001010001101001001001000001011110110011110000101010100010 Y%
#140
b110011111110100101100010011110110101101000100100011100011011111 ,
b10101110011010001001111000101000011000001000000111111101010100 l$
b100010001101101111110011110010100110100110111101001000111010101 Y%
#141
b1001010101001101000100110100010100001100100100000011111100101010 ,
b110011101110100101100011011110110101101100100100011100001011111 l$
b1011010100001011001010011000010000011100110000011110101001011111 Y%
#142
b11001100111010010110000101111011010110010010010001110010101111 ,
b1001010111001101000100111100010100001100000100000011111110101010 l$
b1110011010011110101111100011001010101101100010001101110100111011 Y%
#143
b1100101001100110100010010110001010000110100010000001111101010101 ,
b11001110111010010110001101111011010110110010010001110000101111 l$
b110000010110011011110000011000010001100100011110010010101000101 Y%
#144
b1001100101011101001011001110111101101011111001001000111010010111 ,
b1100101011100110100010011110001010000110000010000001111111010101 l$
b1011100111001010110100111101101101001000101011000000001110111010 Y%
#145
b1110010111110011010001000111000101000011100001000000111101101010 ,
b1001100111011101001011000110111101101011011001001000111000010111 l$
b101101100010110011100110000100100001000100000111110010010111111 Y%
#146
b100110001101110100101101011011110110101001100100100011110001011 ,
b1110010101110011010001001111000101000011000001000000111111101010 l$
b1111110000111100010011010111010101111010000100011000101101110111 Y%
#147
b1111001000111001101000101111100010100001000000100000011101110101 ,
b100110011101110100101100011011110110101101100100100011100001011 l$
b1110000101100110110000000110000100111000000111110110101110001010 Y%
#148
b1010011011110111010010111001101111011010010110010010001100000101 ,
b1111001010111001101000100111100010100001100000100000011111110101 l$
b100001110010101100001111011011010100001010010010010011101100100 Y%
#149
b1111100111011100110100011011110001010000010000010000001101111010 ,
b1010011001110111010010110001101111011010110110010010001110000101 l$
b1001011000101101110101100000001000110001000001111110100001111110 Y%
#150
b101001110111011101001010000110111101101111011001001000101000010 ,
b1111100101011100110100010011110001010000110000010000001111111010 l$
b1100100101111001101110111110101111010100001000110011011011111111 Y%
#151
b111110000101110011010000001111000101000111000001000000101111101 ,
b101001100111011101001011000110111101101011011001001000111000010 l$
b1111001011011100101100001101001001010000001011111111011100000101 Y%
#152
b1010100100011101110100100100011011110110001101100100100001100001 ,
b111110010101110011010001001111000101000011000001000000111111101 l$
b1011011100101010001011100111110001100010100100100111111111001000 Y%
#153
b1011111011010111001101001100111100010100101100000100000001111110 ,
b1010100110011101110100101100011011110110101101100100100011100001 l$
b110101011010100111010001010001010010000011101111000011111101 Y%
#154
b101010001001110111010011110001101111011110110110010010011110000 ,
b1011111001010111001101000100111100010100001100000100000011111110 l$
b1011001011110011010101111101011110001001010101100101110011101110 Y%
#155
b101111110101011100110101010011110001010100110000010000011111111 ,
b101010011001110111010010110001101111011010110110010010001110000 l$
b1100010110111000010000011011010010000000010011101101111100011010 Y%
#156
b1010101011100111011101000011000110111101001011011001001010111000 ,
b101111100101011100110100010011110001010000110000010000001111111 l$
b100111101010100011111011110100111110101001001001100111010000001 Y%
#157
b10111100010101110011011001001111000101100011000001000010111111 ,
b1010101001100111011101001011000110111101101011011001001000111000 l$
b10101110100101000110110011100110010100000011001101000111111010 Y%
#158
b1101010110110011101110101101100011011110010101101100100110011100 ,
b10111110010101110011010001001111000101000011000001000000111111 l$
b101010111110110100011101010111000100010101111011001100011001101 Y%
#159
b1011101001010111001100000100111100010000001100000100010011111 ,
b1101010100110011101110100101100011011110110101101100100100011100 l$
b1010101001110000101000110110100000100000100111001001111100110101 Y%
#160
b1110101000011001110111011010110001101111111010110110010000001110 ,
b1011111001010111001101000100111100010100001100000100000011111 l$
b1010111110101001110110101100001111001011010110001011110000010011 Y%
#161
b101101100101011100111100010011110001110000110000010010001111 ,
b1110101010011001110111010010110001101111011010110110010010001110 l$
b110011101001011000001100110001100011001000110001001001111110100 Y%
#162
b1111010111001100111011100001011000110111001101011011001011000111 ,
b101111100101011100110100010011110001010000110000010000001111 l$
b1001101011101100001011000101110101100101011010100000000110011011 Y%
#163
b1000010101110010101110010010001001111000001000011000001010000111 ,
b1111010101001100111011101001011000110111101101011011001001000111 l$
b111010011110001011101101101000001110001001010000000111101111011 Y%
#164
b1111101000100110011101111100101100011011010110101101100110100011 ,
b1000010111110010101110011010001001111000101000011000001000000111 l$
b110111001010011100001011001011110100110101100010101100100110111 Y%
#165
b1100001001111001010111000101000100111100110100001100000110000011 ,
b1111101010100110011101110100101100011011110110101101100100100011 l$
b1110111110000110001111011100011000010010001000010001011111111000 Y%
#166
b1111110111010011001110110010010110001101011011010110110000010001 ,
b1100001011111001010111001101000100111100010100001100000100000011 l$
b1010111011001011010011010101111111011110001000011001100100110 Y%
#167
b1110000111111100101011101110100010011110101010000110000000000001 ,
b1111110101010011001110111010010110001101111011010110110010010001 l$
b1101100011100010110011001010000011000010010000000011111111100111 Y%
#168
b1111111000101001100111010101001011000110011101101011011011001000 ,
b1110000101111100101011100110100010011110001010000110000010000001 l$
b1110110110100111001110100011111001101100011100101000001001101111 Y%
#169
b111000000111110010101111011010001001111100101000011000011000000 ,
b1111111010101001100111011101001011000110111101101011011001001000 l$
b1111111000011101010010101000110100000100010000100001111011100000 Y%
