serdes_test/.Xil/Vivado-23052-21-10244/hw_ila_data_1/zip_work/waveform.vcd
$date
        2021-Jul-06 17:35:47
$end
$version
        Vivado v2020.2 (64-bit)
$end
$timescale
        1ps
$end
$scope module dut $end
$var reg 32 " gt0_rxdata_i [31:0] $end
$var reg 32 B errorBits [31:0] $end
$var reg 6 b errorCounter [5:0] $end
$var reg 4 h foundFrames [3:0] $end
$var reg 5 l alignAddr [4:0] $end
$var reg 25 q tot_err_count [24:0] $end
$var reg 32 ," prbs_from_check [31:0] $end
$var reg 32 L" dout [31:0] $end
$var reg 9 l" searchedFrames [8:0] $end
$var reg 1 u" aligned $end
$var reg 1 v" bypass $end
$var reg 1 w" errorFlag $end
$var reg 1 x" _TRIGGER $end
$var reg 1 y" _WINDOW $end
$var reg 1 z" _GAP $end
$upscope $end
$enddefinitions $end
#0
$dumpvars
b11000101010110100100010010000110 "
b0 B
b0 b
b1100 h
b10 l
b1001100000000110101101000 q
b1111111010101001100111011101 ,"
b1000100111100010100001100000100 L"
b0 l"
1u"
0v"
0w"
0x"
1y"
0z"
$end
#1
b11000010001001011101011101001100 "
b1000100111100010100001100000100 ,"
b1000111000010111110010101110011 L"
#2
b10011011100010011001111100011110 "
b1000111000010111110010101110011 ,"
b10010110001101111011010110110010 L"
#3
b10000001110111001110011111110010 "
b10010110001101111011010110110010 ,"
b111111101010100110011101110 L"
#4
b10101011010010001001000010110 "
b111111101010100110011101110 ,"
b10100010011110001010000110000010 L"
#5
b100100101110101110100111011 "
b10100010011110001010000110000010 ,"
b100011100001011111001010111001 L"
#6
b1100110001011100111110001111011 "
b100011100001011111001010111001 ,"
b1001011000110111101101011011001 L"
#7
b111011111111001001111001010 "
b1001011000110111101101011011001 ,"
b11111110101010011001110111 L"
#8
b1100101011000100100001010010 "
b11111110101010011001110111 ,"
b11010001001111000101000011000001 L"
#9
b10101111010101010111100011101100 "
b11010001001111000101000011000001 ,"
b10010001110000101111100101011100 L"
#10
b1101010111110101101100001110000 "
b10010001110000101111100101011100 ,"
b10100101100011011110110101101100 L"
#11
b10101000110111110000111100111100 "
b10100101100011011110110101101100 ,"
b10000001111111010101001100111011 L"
#12
b110011010101101001000000100010 "
b10000001111111010101001100111011 ,"
b10001000100011100010100001100000 L"
#13
b10110010100010100111011111010000 "
b1101000100111100010100001100000 ,"
b10001110111100010111110010101110 L"
#14
b10100111111000110110010111000110 "
b11100000000100000000000000000000 B
b10001110000101111100101011100110 ,"
b101100011011110110101101100100 L"
#15
b10100011011101000011100011111101 "
b111001101011011001001000 B
b101100011011110110101101100100 ,"
b1111111010101001100111011101 L"
#16
b11000101010110100100010010000110 "
b0 B
b1111111010101001100111011101 ,"
b1000100111100010100001100000100 L"
#17
b11000010001001011101011101001100 "
b1000100111100010100001100000100 ,"
b1000111000010111110010101110011 L"
#18
b10011011100010011001111100011110 "
b100 b
b1000111000010111110010101110011 ,"
b10010110001101111011010110110010 L"
1w"
#19
b10000001110111001110011111110010 "
b1100 b
b1001100000000110101101100 q
b10010110001101111011010110110010 ,"
b111111101010100110011101110 L"
b1 l"
#20
b10101011010010001001000010110 "
b0 b
b1001100000000110101111000 q
b111111101010100110011101110 ,"
b10100010011110001010000110000010 L"
b10 l"
0w"
#21
b100100101110101110100111011 "
b10100010011110001010000110000010 ,"
b100011100001011111001010111001 L"
b0 l"
#22
b1100110001011100111110001111011 "
b100011100001011111001010111001 ,"
b1001011000110111101101011011001 L"
#23
b111011111111001001111001010 "
b1001011000110111101101011011001 ,"
b11111110101010011001110111 L"
#24
b1011001101011000100100001010010 "
b11111110101010011001110111 ,"
b11010001001111000101000011000001 L"
#25
b11010010101010111100011101100 "
b11010001001111000101000011000001 ,"
b10010001110000101111100101011100 L"
#26
b10010100101101011111010111100100 "
b10010001110000101111100101011100 ,"
b10100101100011011110110101101100 L"
#27
b10001111111100100111100101101 "
b10100101100011011110110101101100 ,"
b10000001111111010101001100111011 L"
#28
b1100010101110010010000101000000 "
b10000001111111010101001100111011 ,"
b1101000100111100010100001100000 L"
#29
b1100001010100011110111110110001 "
b1101000100111100010100001100000 ,"
b1001000111000010111110010101110 L"
#30
b1011110110100111101101110011000 "
b1001000111000010111110010101110 ,"
b11010010110001101111011010110110 L"
#31
b1000011111110010011000010111110 "
b11010010110001101111011010110110 ,"
b1000000111111101010100110011101 L"
#32
b10001110111000001000110100001000 "
b1000000111111101010100110011101 ,"
b110100010011110001010000110000 L"
#33
b10000101010010111011101011001001 "
b110100010011110001010000110000 ,"
b100100011100001011111001010111 L"
#34
b1110011010001110110111001101101 "
b100100011100001011111001010111 ,"
b11101001011000110111101101011011 L"
#35
b11111010001100111011110001 "
b11101001011000110111101101011011 ,"
b100000011111110101010011001110 L"
#36
b111111100000100011010000101001 "
b100000011111110101010011001110 ,"
b10011010001001111000101000011000 L"
#37
b11101001010101110101100100110 "
b10011010001001111000101000011000 ,"
b10010010001110000101111100101011 L"
#38
b11001101000110011011110110110110 "
b10010010001110000101111100101011 ,"
b1110100101100011011110110101101 L"
#39
b1011101010110011011111000001 "
b1110100101100011011110110101101 ,"
b10000001111111010101001100111 L"
#40
b1011001000011001101010010100100 "
b10000001111111010101001100111 ,"
b11001101000100111100010100001100 L"
#41
b11010101011111010000010011100 "
b11001101000100111100010100001100 ,"
b11001001000111000010111110010101 L"
#42
b10010100101101011111010111100100 "
b11001001000111000010111110010101 ,"
b10111010010110001101111011010110 L"
#43
b10001111111100100111100101101 "
b10111010010110001101111011010110 ,"
b1000000111111101010100110011 L"
#44
b1100010101110010010000101000000 "
b1000000111111101010100110011 ,"
b1101000100110001110001010000110 L"
#45
b1100001010100011110111110110001 "
b11100110100010011110001010000110 ,"
b1001000100011110001011111001010 L"
#46
b1011110110100111101101110011000 "
b10001110000100010000000000000000 B
b1001000111000010111110010101110 ,"
b11010010110001101111011010110110 L"
#47
b1000011111110010011000010111110 "
b11011100110101101100100 B
b11010010110001101111011010110110 ,"
b1000000111111101010100110011101 L"
#48
b10001110111000001000110100001000 "
b0 B
b1000000111111101010100110011101 ,"
b110100010011110001010000110000 L"
#49
b10000101010010111011101011001001 "
b110100010011110001010000110000 ,"
b100100011100001011111001010111 L"
#50
b1110011010001110110111001101101 "
b110 b
b100100011100001011111001010111 ,"
b11101001011000110111101101011011 L"
1w"
#51
b11111010001100111011110001 "
b1101 b
b1001100000000110101111110 q
b11101001011000110111101101011011 ,"
b100000011111110101010011001110 L"
b1 l"
#52
b111111100000100011010000101001 "
b0 b
b1001100000000110110001011 q
b100000011111110101010011001110 ,"
b10011010001001111000101000011000 L"
b10 l"
0w"
#53
b11101001010101110101100100110 "
b10011010001001111000101000011000 ,"
b10010010001110000101111100101011 L"
b0 l"
#54
b11001101000110011011110110110110 "
b10010010001110000101111100101011 ,"
b1110100101100011011110110101101 L"
#55
b1011101010110011011111000001 "
b1110100101100011011110110101101 ,"
b10000001111111010101001100111 L"
#56
b11110110000011001101010010100100 "
b10000001111111010101001100111 ,"
b11001101000100111100010100001100 L"
#57
b1110000101011111010000010011100 "
b11001101000100111100010100001100 ,"
b11001001000111000010111110010101 L"
#58
b111100011010101111101011011000 "
b11001001000111000010111110010101 ,"
b10111010010110001101111011010110 L"
#59
b100010101010001101111100001111 "
b10111010010110001101111011010110 ,"
b1000000111111101010100110011 L"
#60
b11010000001100110101011010010000 "
b1000000111111101010100110011 ,"
b11100110100010011110001010000110 L"
#61
b11000110101100101000101001110111 "
b11100110100010011110001010000110 ,"
b1100100100011100001011111001010 L"
#62
b11111101101001111110001101100101 "
b1100100100011100001011111001010 ,"
b11011101001011000110111101101011 L"
#63
b10000110101000110111010000111000 "
b11011101001011000110111101101011 ,"
b100000011111110101010011001 L"
#64
b1001100110001010101101001000100 "
b100000011111110101010011001 ,"
b1110011010001001111000101000011 L"
#65
b11110110000100010010111010111 "
b1110011010001001111000101000011 ,"
b10110010010001110000101111100101 L"
#66
b11110010100110111000100110011111 "
b10110010010001110000101111100101 ,"
b11101110100101100011011110110101 L"
#67
b10110100000011101110011100111 "
b11101110100101100011011110110101 ,"
b10000010000001111111010101001100 L"
#68
b111011000101010110100100010010 "
b10000010000001111111010101001100 ,"
b10111001101000100111100010100001 L"
#69
b1111011000001001001011101011101 "
b10111001101000100111100010100001 ,"
b11011001001000111000010111110010 L"
#70
b11001010011001100010111001111100 "
b11011001001000111000010111110010 ,"
b1110111010010110001101111011010 L"
#71
b1010010000001110111111110010011 "
b1110111010010110001101111011010 ,"
b11000001000000111111101010100110 L"
#72
b11110110010110011010110001001000 "
b11000001000000111111101010100110 ,"
b1011100110100010011110001010000 L"
#73
b1110000000110100101010101111000 "
b1011100110100010011110001010000 ,"
b1101100100100011100001011111001 L"
#74
b111100011010101111101011011000 "
b1101100100100011100001011111001 ,"
b111011101001011000110111101101 L"
#75
b100010101010001101111100001111 "
b111011101001011000110111101101 ,"
b1100000100000011111110101010011 L"
#76
b11010000001100110101011010010000 "
b1100000100000011111110101010011 ,"
b11100110011010011001111000101000 L"
#77
b11000110101100101000101001110111 "
b10101110011010001001111000101000 ,"
b1100100010010001110000101111100 L"
#78
b11111101101001111110001101100101 "
b1001000000000010000000000000000 B
b1100100100011100001011111001010 ,"
b11011101001011000110111101101011 L"
#79
b10000110101000110111010000111000 "
b110001101111011010110110 B
b11011101001011000110111101101011 ,"
b100000011111110101010011001 L"
#80
b1001100110001010101101001000100 "
b0 B
b100000011111110101010011001 ,"
b1110011010001001111000101000011 L"
#81
b11110110000100010010111010111 "
b1110011010001001111000101000011 ,"
b10110010010001110000101111100101 L"
#82
b11110010100110111000100110011111 "
b11 b
b10110010010001110000101111100101 ,"
b11101110100101100011011110110101 L"
1w"
#83
b10110100000011101110011100111 "
b1111 b
b1001100000000110110001110 q
b11101110100101100011011110110101 ,"
b10000010000001111111010101001100 L"
b1 l"
#84
b111011000101010110100100010010 "
b0 b
b1001100000000110110011101 q
b10000010000001111111010101001100 ,"
b10111001101000100111100010100001 L"
b10 l"
0w"
#85
b1111011000001001001011101011101 "
b10111001101000100111100010100001 ,"
b11011001001000111000010111110010 L"
b0 l"
#86
b11001010011001100010111001111100 "
b11011001001000111000010111110010 ,"
b1110111010010110001101111011010 L"
#87
b1010010000001110111111110010011 "
b1110111010010110001101111011010 ,"
b11000001000000111111101010100110 L"
#88
b11101100010110011010110001001000 "
b11000001000000111111101010100110 ,"
b1011100110100010011110001010000 L"
#89
b11100100000110100101010101111000 "
b1011100110100010011110001010000 ,"
b1101100100100011100001011111001 L"
#90
b101101100101001011010111110101 "
b1101100100100011100001011111001 ,"
b111011101001011000110111101101 L"
#91
b1000000000100011111111001001111 "
b111011101001011000110111101101 ,"
b1100000100000011111110101010011 L"
#92
b10110001011000101011100100100001 "
b1100000100000011111110101010011 ,"
b10101110011010001001111000101000 L"
#93
b10011000011000010101000111101111 "
b10101110011010001001111000101000 ,"
b10110110010010001110000101111100 L"
#94
b10111110010111101101001111011011 "
b10110110010010001110000101111100 ,"
b10011101110100101100011011110110 L"
#95
b1000010000111111100100110000 "
b10011101110100101100011011110110 ,"
b110000010000001111111010101001 L"
#96
b11001001100011101110000010001101 "
b110000010000001111111010101001 ,"
b1010111001101000100111100010100 L"
#97
b1101101100001010100101110111010 "
b1010111001101000100111100010100 ,"
b1011011001001000111000010111110 L"
#98
b11110001011100110100011101101110 "
b1011011001001000111000010111110 ,"
b11001110111010010110001101111011 L"
#99
b101001000000111110100011001110 "
b11001110111010010110001101111011 ,"
b11000001000000111111101010100 L"
#100
b100110001111111000001000110100 "
b11000001000000111111101010100 ,"
b101011100110100010011110001010 L"
#101
b10110110000111010010101011101011 "
b101011100110100010011110001010 ,"
b10101101100100100011100001011111 L"
#102
b11000001110011010001100110111101 "
b10101101100100100011100001011111 ,"
b1100111011101001011000110111101 L"
#103
b10100100000010111010101100110111 "
b1100111011101001011000110111101 ,"
b1100000100000011111110101010 L"
#104
b11101100111101100000110011010100 "
b1100000100000011111110101010 ,"
b10010101110011010001001111000101 L"
#105
b11100100011100001010111110100000 "
b10010101110011010001001111000101 ,"
b11010110110010010001110000101111 L"
#106
b101101100101001011010111110101 "
b11010110110010010001110000101111 ,"
b110011101110100101100011011110 L"
#107
b1000000000100011111111001001111 "
b110011101110100101100011011110 ,"
b10000110000010000001111111010101 L"
#108
b10110001011000101011100100100001 "
b10000110000010000001111111010101 ,"
b10101110111001101000100111100010 L"
#109
b10011000011000010101000111101111 "
b11001010111001101000100111100010 ,"
b10110110011001001000111000010111 L"
#110
b10111110010111101101001111011011 "
b1100100000000000000000000000000 B
b10110110010010001110000101111100 ,"
b10011101110100101100011011110110 L"
#111
b1000010000111111100100110000 "
b1011000110111101101011 B
b10011101110100101100011011110110 ,"
b110000010000001111111010101001 L"
#112
b11001001100011101110000010001101 "
b0 B
b110000010000001111111010101001 ,"
b1010111001101000100111100010100 L"
#113
b1101101100001010100101110111010 "
b1010111001101000100111100010100 ,"
b1011011001001000111000010111110 L"
#114
b11110001011100110100011101101110 "
b11 b
b1011011001001000111000010111110 ,"
b11001110111010010110001101111011 L"
1w"
#115
b101001000000111110100011001110 "
b1110 b
b1001100000000110110100000 q
b11001110111010010110001101111011 ,"
b11000001000000111111101010100 L"
b1 l"
#116
b100110001111111000001000110100 "
b0 b
b1001100000000110110101110 q
b11000001000000111111101010100 ,"
b101011100110100010011110001010 L"
b10 l"
0w"
#117
b10110110000111010010101011101011 "
b101011100110100010011110001010 ,"
b10101101100100100011100001011111 L"
b0 l"
#118
b11000001110011010001100110111101 "
b10101101100100100011100001011111 ,"
b1100111011101001011000110111101 L"
#119
b10100100000010111010101100110111 "
b1100111011101001011000110111101 ,"
b1100000100000011111110101010 L"
#120
b10011100111101100000110011010100 "
b1100000100000011111110101010 ,"
b10010101110011010001001111000101 L"
#121
b11011000011100001010111110100000 "
b10010101110011010001001111000101 ,"
b11010110110010010001110000101111 L"
#122
b1111001111000110101011111010 "
b11010110110010010001110000101111 ,"
b110011101110100101100011011110 L"
#123
b10010000001000101010100011011111 "
b110011101110100101100011011110 ,"
b10000110000010000001111111010101 L"
#124
b1110111110100000011001101010110 "
b10000110000010000001111111010101 ,"
b11001010111001101000100111100010 L"
#125
b1100101110001101011001010001010 "
b11001010111001101000100111100010 ,"
b1101011011001001000111000010111 L"
#126
b111000111111011010011111100011 "
b1101011011001001000111000010111 ,"
b10011001110111010010110001101111 L"
#127
b1000100100001101010001101110100 "
b10011001110111010010110001101111 ,"
b1000011000001000000111111101010 L"
#128
b11010111010011001100010101011010 "
b1000011000001000000111111101010 ,"
b11100101011100110100010011110001 L"
#129
b10011111000111101100001000100101 "
b11100101011100110100010011110001 ,"
b10110101101100100100011100001011 L"
#130
b11100111111100101001101110001001 "
b10110101101100100100011100001011 ,"
b1001100111011101001011000110111 L"
#131
b10010000101101000000111011100 "
b1001100111011101001011000110111 ,"
b10100001100000100000011111110101 L"
#132
b1011101001110110001010101101001 "
b10100001100000100000011111110101 ,"
b11110010101110011010001001111000 L"
#133
b1111100011110110000010010010111 "
b11110010101110011010001001111000 ,"
b11011010110110010010001110000101 L"
#134
b10010011110010100110011000101110 "
b11011010110110010010001110000101 ,"
b10100110011101110100101100011011 L"
#135
b1001000010100100000011101111111 "
b10100110011101110100101100011011 ,"
b1010000110000010000001111111010 L"
#136
b10011100111011000101100110101100 "
b1010000110000010000001111111010 ,"
b11111001010111001101000100111100 L"
#137
b11011000111001000001101001010101 "
b11111001010111001101000100111100 ,"
b11101101011011001001000111000010 L"
#138
b1111001111000110101011111010 "
b11101101011011001001000111000010 ,"
b1010011001110111010010110001101 L"
#139
b10010000001000101010100011011111 "
b1010011001110111010010110001101 ,"
b101000011000001000000111111101 L"
#140
b1110111110100000011001101010110 "
b101000011000001000000111111101 ,"
b11011010101011100110100010011110 L"
#141
b1100101110001101011001010001010 "
b1111100101011100110100010011110 ,"
b1101011101001100100100011100001 L"
#142
b111000111111011010011111100011 "
b10100110000000000000000000000000 B
b10100110011101110100101100011011 ,"
b10011001110111010010110001101111 L"
#143
b1000100100001101010001101110100 "
b11001101110100010000001111111010 B
b10011001110111010010110001101111 ,"
b1000011000001000000111111101010 L"
#144
b11010111010011001100010101011010 "
b0 B
b1000011000001000000111111101010 ,"
b11100101011100110100010011110001 L"
#145
b10011111000111101100001000100101 "
b11100101011100110100010011110001 ,"
b10110101101100100100011100001011 L"
#146
b11100111111100101001101110001001 "
b100 b
b10110101101100100100011100001011 ,"
b1001100111011101001011000110111 L"
1w"
#147
b10010000101101000000111011100 "
b10001 b
b1001100000000110110110010 q
b1001100111011101001011000110111 ,"
b10100001100000100000011111110101 L"
b1 l"
#148
b1011101001110110001010101101001 "
b0 b
b1001100000000110111000011 q
b10100001100000100000011111110101 ,"
b11110010101110011010001001111000 L"
b10 l"
0w"
#149
b1111100011110110000010010010111 "
b11110010101110011010001001111000 ,"
b11011010110110010010001110000101 L"
b0 l"
#150
b10010011110010100110011000101110 "
b11011010110110010010001110000101 ,"
b10100110011101110100101100011011 L"
#151
b1001000010100100000011101111111 "
b10100110011101110100101100011011 ,"
b1010000110000010000001111111010 L"
#152
b1111000111011000101100110101100 "
b1010000110000010000001111111010 ,"
b11111001010111001101000100111100 L"
#153
b11110101111001000001101001010101 "
b11111001010111001101000100111100 ,"
b11101101011011001001000111000010 L"
#154
b1001111001011011001010010110101 "
b11101101011011001001000111000010 ,"
b1010011001110111010010110001101 L"
#155
b100001010000000001000111111110 "
b1010011001110111010010110001101 ,"
b101000011000001000000111111101 L"
#156
b11101111101100010110001010111001 "
b101000011000001000000111111101 ,"
b1111100101011100110100010011110 L"
#157
b11011011100110000110000101010001 "
b1111100101011100110100010011110 ,"
b11110110101101100100100011100001 L"
#158
b110000101111100101111011010011 "
b11110110101101100100100011100001 ,"
b10101001100111011101001011000110 L"
#159
b10001101000010000100001111111001 "
b10101001100111011101001011000110 ,"
b10100001100000100000011111110 L"
#160
b10111010110010011000111011100000 "
b10100001100000100000011111110 ,"
b10111110010101110011010001001111 L"
#161
b1101110011011011000010101001011 "
b10111110010101110011010001001111 ,"
b1111011010110110010010001110000 L"
#162
b11001110111100010111001101000111 "
b1111011010110110010010001110000 ,"
b1010100110011101110100101100011 L"
#163
b110100001010010000001111101000 "
b1010100110011101110100101100011 ,"
b10001010000110000010000001111111 L"
#164
b11101011001001100011111110000010 "
b10001010000110000010000001111111 ,"
b1011111001010111001101000100111 L"
#165
b10111101101101100001110100101010 "
b1011111001010111001101000100111 ,"
b10111101101011011001001000111000 L"
#166
b110111110000011100110100011001 "
b10111101101011011001001000111000 ,"
b10101010011001110111010010110001 L"
#167
b11010100101001000000101110101011 "
b10101010011001110111010010110001 ,"
b11000101000011000001000000111111 L"
#168
b1111000100111001111011000001100 "
b11000101000011000001000000111111 ,"
b101111100101011100110100010011 L"
#169
b11110101110110000111000010101111 "
b101111100101011100110100010011 ,"
b11011110110101101100100100011100 L"
#170
b1001111001011011001010010110101 "
b11011110110101101100100100011100 ,"
b11010101001100111011101001011000 L"
#171
b100001010000000001000111111110 "
b11010101001100111011101001011000 ,"
b11100010100001100000100000011111 L"
#172
b11101111101100010110001010111001 "
b11100010100001100000100000011111 ,"
b1111101110010101110011010001001 L"
#173
b11011011100110000110000101010001 "
b10111110010101110011010001001 ,"
b11110110011110100110010010001110 L"
#174
b110000101111100101111011010011 "
b1101010000000000000000000000000 B
b11110110101101100100100011100001 ,"
b10101001100111011101001011000110 L"
#175
b10001101000010000100001111111001 "
b110011000010110001101111 B
b10101001100111011101001011000110 ,"
b10100001100000100000011111110 L"
#176
b10111010110010011000111011100000 "
b0 B
b10100001100000100000011111110 ,"
b10111110010101110011010001001111 L"
#177
b1101110011011011000010101001011 "
b10111110010101110011010001001111 ,"
b1111011010110110010010001110000 L"
#178
b11001110111100010111001101000111 "
b100 b
b1111011010110110010010001110000 ,"
b1010100110011101110100101100011 L"
1w"
#179
b110100001010010000001111101000 "
b1101 b
b1001100000000110111000111 q
b1010100110011101110100101100011 ,"
b10001010000110000010000001111111 L"
b1 l"
#180
b11101011001001100011111110000010 "
b0 b
b1001100000000110111010100 q
b10001010000110000010000001111111 ,"
b1011111001010111001101000100111 L"
b10 l"
0w"
#181
b10111101101101100001110100101010 "
b1011111001010111001101000100111 ,"
b10111101101011011001001000111000 L"
b0 l"
#182
b110111110000011100110100011001 "
b10111101101011011001001000111000 ,"
b10101010011001110111010010110001 L"
#183
b11010100101001000000101110101011 "
b10101010011001110111010010110001 ,"
b11000101000011000001000000111111 L"
#184
b10100000100111001111011000001100 "
b11000101000011000001000000111111 ,"
b101111100101011100110100010011 L"
#185
b11111010110110000111000010101111 "
b101111100101011100110100010011 ,"
b11011110110101101100100100011100 L"
#186
b11011111000011110011110001101010 "
b11011110110101101100100100011100 ,"
b11010101001100111011101001011000 L"
#187
b1010110100100000010001010101000 "
b11010101001100111011101001011000 ,"
b11100010100001100000100000011111 L"
#188
b10001010011101111101000000110011 "
b11100010100001100000100000011111 ,"
b10111110010101110011010001001 L"
#189
b11100011011001011100011010110010 "
b10111110010101110011010001001 ,"
b1101111011010110110010010001110 L"
#190
b1110100001110001111110110100111 "
b1101111011010110110010010001110 ,"
b11101010100110011101110100101100 L"
#191
b1011010010001001000011010100011 "
b11101010100110011101110100101100 ,"
b11110001010000110000010000001111 L"
#192
b100101110101110100110011000101 "
b11110001010000110000010000001111 ,"
b1011111001010111001101000100 L"
#193
b10001001100111110001111011000010 "
b1011111001010111001101000100 ,"
b110111101101011011001001000111 L"
#194
b11011100111001111111001010011011 "
b110111101101011011001001000111 ,"
b11110101010011001110111010010110 L"
#195
b1101001000100100001011010000001 "
b11110101010011001110111010010110 ,"
b1111000101000011000001000000111 L"
#196
b10010111010111010011101100010101 "
b1111000101000011000001000000111 ,"
b10000101111100101011100110100010 L"
#197
b101110011111000111101100000100 "
b10000101111100101011100110100010 ,"
b11011110110101101100100100011 L"
#198
b1111111100100111100101001100110 "
b11011110110101101100100100011 ,"
b11111010101001100111011101001011 L"
#199
b10101100010010000101001000000111 "
b11111010101001100111011101001011 ,"
b111100010100001100000100000011 L"
#200
b10100000011110001110110001011001 "
b111100010100001100000100000011 ,"
b11000010111110010101110011010001 L"
#201
b11111010111101011110010000011010 "
b11000010111110010101110011010001 ,"
b10001101111011010110110010010001 L"
#202
b11011111000011110011110001101010 "
b10001101111011010110110010010001 ,"
b11111101010100110011101110100101 L"
#203
b1010110100100000010001010101000 "
b11111101010100110011101110100101 ,"
b10011110001010000110000010000001 L"
#204
b10001010011101111101000000110011 "
b10011110001010000110000010000001 ,"
b111011011001010111001101000 L"
#205
b11100011011001011100011010110010 "
b11100001011111001010111001101000 ,"
b1101111111001111011011001001000 L"
#206
b1110100001110001111110110100111 "
b11100110000100000000000000000000 B
b10100010011110001010000110000010 ,"
b11101010100110011101110100101100 L"
#207
b1011010010001001000011010100011 "
b11001101100111110001011111001010 B
b11101010100110011101110100101100 ,"
b11110001010000110000010000001111 L"
#208
b100101110101110100110011000101 "
b0 B
b11110001010000110000010000001111 ,"
b1011111001010111001101000100 L"
#209
b10001001100111110001111011000010 "
b1011111001010111001101000100 ,"
b110111101101011011001001000111 L"
#210
b11011100111001111111001010011011 "
b110 b
b110111101101011011001001000111 ,"
b11110101010011001110111010010110 L"
1w"
#211
b1101001000100100001011010000001 "
b10011 b
b1001100000000110111011010 q
b11110101010011001110111010010110 ,"
b1111000101000011000001000000111 L"
b1 l"
#212
b10010111010111010011101100010101 "
b0 b
b1001100000000110111101101 q
b1111000101000011000001000000111 ,"
b10000101111100101011100110100010 L"
b10 l"
0w"
#213
b101110011111000111101100000100 "
b10000101111100101011100110100010 ,"
b11011110110101101100100100011 L"
b0 l"
#214
b1111111100100111100101001100110 "
b11011110110101101100100100011 ,"
b11111010101001100111011101001011 L"
#215
b10101100010010000101001000000111 "
b11111010101001100111011101001011 ,"
b111100010100001100000100000011 L"
#216
b1010101011110001110110001011001 "
b111100010100001100000100000011 ,"
b11000010111110010101110011010001 L"
#217
b10110101111101011110010000011010 "
b11000010111110010101110011010001 ,"
b10001101111011010110110010010001 L"
#218
b11111110010011110010110110010100 "
b10001101111011010110110010010001 ,"
b11111101010100110011101110100101 L"
#219
b10111001001000010100000000010001 "
b11111101010100110011101110100101 ,"
b10011110001010000110000010000001 L"
#220
b1010001111011111011000101100010 "
b10011110001010000110000010000001 ,"
b11100001011111001010111001101000 L"
#221
b11010011110110111001100001100001 "
b11100001011111001010111001101000 ,"
b11000110111101101011011001001000 L"
#222
b11111001001100001011111001011110 "
b11000110111101101011011001001000 ,"
b11111110101010011001110111010010 L"
#223
b11100000100011010000100001000011 "
b11111110101010011001110111010010 ,"
b1001111000101000011000001000000 L"
#224
b1001011101110101100100110001110 "
b1001111000101000011000001000000 ,"
b1110000101111100101011100110100 L"
#225
b1000111011011100110110110000101 "
b1110000101111100101011100110100 ,"
b1100011011110110101101100100100 L"
#226
b11101000110011101111000101110011 "
b1100011011110110101101100100100 ,"
b1111111010101001100111011101001 L"
#227
b10000010001101000010100100000011 "
b1111111010101001100111011101001 ,"
b100111100010100001100000100000 L"
#228
b101010111010110010011000111111 "
b100111100010100001100000100000 ,"
b111000010111110010101110011010 L"
#229
b11001101111011011011000011101 "
b111000010111110010101110011010 ,"
b10110001101111011010110110010010 L"
#230
b10101011001101111100000111001101 "
b10110001101111011010110110010010 ,"
b111111101010100110011101110100 L"
#231
b1100110101001010010000001011 "
b111111101010100110011101110100 ,"
b10011110001010000110000010000 L"
#232
b1010101101000001001110011110110 "
b10011110001010000110000010000 ,"
b11100001011111001010111001101 L"
#233
b10110101111110101101100001110000 "
b11100001011111001010111001101 ,"
b1011000110111101101011011001001 L"
#234
b11111110010011110010110110010100 "
b1011000110111101101011011001001 ,"
b11111110101010011001110111010 L"
#235
b10111001001000010100000000010001 "
b11111110101010011001110111010 ,"
b10001001111000101000011000001000 L"
#236
b1010001111011111011000101100010 "
b10001001111000101000011000001000 ,"
b11100000000101101100101011100110 L"
#237
b11010011110110111001100001100001 "
b10001110000101111100101011100110 ,"
b11000110011111100110101101100100 L"
#238
b11111001001100001011111001011110 "
b1101110000000010000000000000000 B
b11000110111101101011011001001000 ,"
b11111110101010011001110111010010 L"
#239
b11100000100011010000100001000011 "
b100010001101110100101100 B
b11111110101010011001110111010010 ,"
b1001111000101000011000001000000 L"
#240
b1001011101110101100100110001110 "
b0 B
b1001111000101000011000001000000 ,"
b1110000101111100101011100110100 L"
#241
b1000111011011100110110110000101 "
b1110000101111100101011100110100 ,"
b1100011011110110101101100100100 L"
#242
b11101000110011101111000101110011 "
b110 b
b1100011011110110101101100100100 ,"
b1111111010101001100111011101001 L"
1w"
#243
b10000010001101000010100100000011 "
b1011 b
b1001100000000110111110011 q
b1111111010101001100111011101001 ,"
b100111100010100001100000100000 L"
b1 l"
#244
b101010111010110010011000111111 "
b0 b
b1001100000000110111111110 q
b100111100010100001100000100000 ,"
b111000010111110010101110011010 L"
b10 l"
0w"
#245
b11001101111011011011000011101 "
b111000010111110010101110011010 ,"
b10110001101111011010110110010010 L"
b0 l"
#246
b10101011001101111100000111001101 "
b10110001101111011010110110010010 ,"
b111111101010100110011101110100 L"
#247
b1100110101001010010000001011 "
b111111101010100110011101110100 ,"
b10011110001010000110000010000 L"
#248
b10101111101000001001110011110110 "
b10011110001010000110000010000 ,"
b11100001011111001010111001101 L"
#249
b1101010111110101101100001110000 "
b11100001011111001010111001101 ,"
b1011000110111101101011011001001 L"
#250
b10101000110111110000111100111100 "
b1011000110111101101011011001001 ,"
b11111110101010011001110111010 L"
#251
b110011010101101001000000100010 "
b11111110101010011001110111010 ,"
b10001001111000101000011000001000 L"
#252
b10110010100010100111011111010000 "
b10001001111000101000011000001000 ,"
b10001110000101111100101011100110 L"
#253
b10100111111000110110010111000110 "
b10001110000101111100101011100110 ,"
b101100011011110110101101100100 L"
#254
b10100011011101000011100011111101 "
b101100011011110110101101100100 ,"
b1111111010101001100111011101 L"
#255
b11000101010110100100010010000110 "
b1111111010101001100111011101 ,"
b1000100111100010100001100000100 L"
#256
b11000010001001011101011101001100 "
b1000100111100010100001100000100 ,"
b1000111000010111110010101110011 L"
#257
b10011011100010011001111100011110 "
b1000111000010111110010101110011 ,"
b10010110001101111011010110110010 L"
#258
b10000001110111001110011111110010 "
b10010110001101111011010110110010 ,"
b111111101010100110011101110 L"
#259
b10101011010010001001000010110 "
b111111101010100110011101110 ,"
b10100010011110001010000110000010 L"
#260
b100100101110101110100111011 "
b10100010011110001010000110000010 ,"
b100011100001011111001010111001 L"
#261
b1100110001011100111110001111011 "
b100011100001011111001010111001 ,"
b1001011000110111101101011011001 L"
#262
b111011111111001001111001010 "
b1001011000110111101101011011001 ,"
b11111110101010011001110111 L"
#263
b1011001101011000100100001010010 "
b11111110101010011001110111 ,"
b11010001001111000101000011000001 L"
#264
b10101111010101010111100011101100 "
b11010001001111000101000011000001 ,"
b10010001110000101111100101011100 L"
#265
b1101010101101011111010111100100 "
b10010001110000101111100101011100 ,"
b10100101100011011110110101101100 L"
#266
b10101000110111110000111100111100 "
b10100101100011011110110101101100 ,"
b10000001111111010101001100111011 L"
#267
b110011010101101001000000100010 "
b10000001111111010101001100111011 ,"
b1101000100111100010100001100000 L"
#268
b10110010100010100111011111010000 "
b1101000100111100010100001100000 ,"
b10001110111100010111110010101110 L"
#269
b10100111111000110110010111000110 "
b1001000111000010111110010101110 ,"
b101100110001111111011010110110 L"
#270
b10100011011101000011100011111101 "
b11000110000100000000000000000000 B
b101100011011110110101101100100 ,"
b1111111010101001100111011101 L"
#271
b11000101010110100100010010000110 "
b101010001001110111010010 B
b1111111010101001100111011101 ,"
b1000100111100010100001100000100 L"
