serdes_test/.Xil/Vivado-23148-21-10244/hw_ila_data_2/zip_work/waveform.vcd
$date
        2021-Aug-18 15:13:34
$end
$version
        Vivado v2020.2 (64-bit)
$end
$timescale
        1ps
$end
$scope module dut $end
$var reg 176 " status_reg [175:0] $end
$var reg 512 t" config_reg [511:0] $end
$var reg 1 @( _TRIGGER $end
$var reg 1 A( _WINDOW $end
$var reg 1 B( _GAP $end
$upscope $end
$enddefinitions $end
#0
$dumpvars
b1010110100110111011100000000000000000 "
b0 t"
0@(
1A(
0B(
$end
#2
b1010110100110111110110000000000000000 "
#3
b1010110100110111100010000000000000000 "
#6
b1010110100110111100110000000000000000 "
#9
b1010110100110111101000000000000000000 "
#10
b1010110100110111101010000000000000000 "
#12
b1010110100110111101100000000000000000 "
#13
b1010110100110111101110000000000000000 "
#14
b1010110100110111110000000000000000000 "
#15
b1010110100110111110010000000000000000 "
#16
b1010110100110111110100000000000000000 "
#17
b1010110100110111111000000000000000000 "
#18
b1010110100110111111010000000000000000 "
#24
b1010110100110111111100000000000000000 "
#28
b1010110100110111111110000000000000000 "
#29
b1010110100111000000000000000000000000 "
#33
b1010110100111000000010000000000000000 "
#35
b1010110100111000000100000000000000000 "
#38
b1010110100111000001000000000000000000 "
#39
b1010110100111000001010000000000000000 "
#40
b1010110100111000001100000000000000000 "
#42
b1010110100111000001110000000000000000 "
#45
b1010110100111000010100000000000000000 "
#46
b1010110100111000010000000000000000000 "
#47
b1010110100111000010010000000000000000 "
#48
b1010110100111000010100000000000000000 "
#50
b1010110100111000010110000000000000000 "
#51
b1010110100111000011000000000000000000 "
#52
b1010110100111000011010000000000000000 "
#53
b1010110100111000011100000000000000000 "
#55
b1010110100111000011110000000000000000 "
#57
b1010110100111000100000000000000000000 "
#58
b1010110100111000100010000000000000000 "
#59
b1010110100111000100100000000000000000 "
#60
b1010110100111000101000000000000000000 "
#62
b1010110100111000101010000000000000000 "
#66
b1010110100111000101100000000000000000 "
#67
b1010110100111000110000000000000000000 "
#70
b1010110100111000110010000000000000000 "
#73
b1010110100111000110100000000000000000 "
#75
b1010110100111000110110000000000000000 "
#76
b1010110100111000111000000000000000000 "
#77
b1010110100111000111010000000000000000 "
#78
b1010110100111000111100000000000000000 "
#80
b1010110100111000111110000000000000000 "
#81
b1010110100111001000000000000000000000 "
#82
b1010110100111001000010000000000000000 "
#84
b1010110100111001000100000000000000000 "
#85
b1010110100111001001000000000000000000 "
#86
b1010110100111001001010000000000000000 "
#88
b1010110100111001001110000000000000000 "
#92
b1010110100111001010010000000000000000 "
#94
b1010110100111001010100000000000000000 "
#96
b1010110100111001010110000000000000000 "
#98
b1010110100111001011000000000000000000 "
#99
b1010110100111001011100000000000000000 "
#101
b1010110100111001011110000000000000000 "
#102
b1010110100111001100010000000000000000 "
#105
b1010110100111001100100000000000000000 "
#106
b1010110100111001100110000000000000000 "
#108
b1010110100111001101000000000000000000 "
#110
b1010110100111001101010000000000000000 "
#111
b1010110100111001101100000000000000000 "
#113
b1010110100111001110000000000000000000 "
#114
b1010110100111001110010000000000000000 "
#115
b1010110100111001110100000000000000000 "
#116
b1010110100111001110110000000000000000 "
#117
b1010110100111001111010000000000000000 "
#123
b1010110100111001111100000000000000000 "
#127
b1010110100111001111110000000000000000 "
#128
b1010110100111010000000000000000000000 "
#132
b1010110100111010000010000000000000000 "
#134
b1010110100111010000100000000000000000 "
#137
b1010110100111010000110000000000000000 "
#138
b1010110100111010001010000000000000000 "
#139
b1010110100111010001100000000000000000 "
#142
b1010110100111010001110000000000000000 "
#145
b1010110100111010010000000000000000000 "
#146
b1010110100111010010010000000000000000 "
#147
b1010110100111010010100000000000000000 "
#149
b1010110100111010010110000000000000000 "
#150
b1010110100111010011000000000000000000 "
#151
b1010110100111010011010000000000000000 "
#152
b1010110100111010011110000000000000000 "
#153
b1010110100111010011100000000000000000 "
#154
b1010110100111010011110000000000000000 "
#156
b1010110100111010100000000000000000000 "
#157
b1010110100111010100010000000000000000 "
#158
b1010110100111010100100000000000000000 "
#159
b1010110100111010101110000000000000000 "
#160
b1010110100111010101000000000000000000 "
#161
b1010110100111010101010000000000000000 "
#165
b1010110100111010101100000000000000000 "
#166
b1010110100111010101110000000000000000 "
#167
b1010110100111010110000000000000000000 "
#170
b1010110100111010110010000000000000000 "
#172
b1010110100111010110100000000000000000 "
#174
b1010110100111010110110000000000000000 "
#175
b1010110100111010111000000000000000000 "
#177
b1010110100111010111110000000000000000 "
#178
b1010110100111010111100000000000000000 "
#179
b1010110100111010111110000000000000000 "
#181
b1010110100111011000010000000000000000 "
#183
b1010110100111011000100000000000000000 "
#184
b1010110100111011001110000000000000000 "
#185
b1010110100111011001010000000000000000 "
#187
b1010110100111011001100000000000000000 "
#188
b1010110100111011001110000000000000000 "
#191
b1010110100111011010000000000000000000 "
#192
b1010110100111011010010000000000000000 "
#193
b1010110100111011010100000000000000000 "
#195
b1010110100111011010110000000000000000 "
#197
b1010110100111011011000000000000000000 "
#198
b1010110100111011011010000000000000000 "
#199
b1010110100111011011100000000000000000 "
#200
b1010110100111011011110000000000000000 "
#201
b1010110100111011100000000000000000000 "
#202
b1010110100111011100010000000000000000 "
#204
b1010110100111011100100000000000000000 "
#205
b1010110100111011100110000000000000000 "
#207
b1010110100111011101000000000000000000 "
#209
b1010110100111011101010000000000000000 "
#210
b1010110100111011101100000000000000000 "
#212
b1010110100111011101110000000000000000 "
#213
b1010110100111011110010000000000000000 "
#214
b1010110100111011110100000000000000000 "
#215
b1010110100111011110110000000000000000 "
#216
b1010110100111011111000000000000000000 "
#217
b1010110100111011111010000000000000000 "
#222
b1010110100111011111100000000000000000 "
#227
b1010110100111111011110000000000000000 "
#228
b1010110100111100000000000000000000000 "
#231
b1010110100111100000010000000000000000 "
#233
b1010110100111100000100000000000000000 "
#236
b1010110100111100000110000000000000000 "
#237
b1010110100111100001000000000000000000 "
#238
b1010110100111100001100000000000000000 "
#241
b1010110100111100001110000000000000000 "
#244
b1010110100111100010000000000000000000 "
#245
b1010110100111100010010000000000000000 "
#246
b1010110100111100010100000000000000000 "
#249
b1010110100111100011000000000000000000 "
#250
b1010110100111100011010000000000000000 "
#252
b1010110100111100011100000000000000000 "
#253
b1010110100111100011110000000000000000 "
#256
b1010110100111100100010000000000000000 "
#257
b1010110100111100100100000000000000000 "
#258
b1010110100111100100110000000000000000 "
#259
b1010110100111100101000000000000000000 "
#260
b1010110100111100101010000000000000000 "
#264
b1010110100111100101100000000000000000 "
#265
b1010110100111100101110000000000000000 "
#266
b1010110100111100110000000000000000000 "
#269
b1010110100111100110010000000000000000 "
#271
b1010110100111100110100000000000000000 "
#274
b1010110100111100111000000000000000000 "
#276
b1010110100111100111010000000000000000 "
#277
b1010110100111100111100000000000000000 "
#278
b1010110100111100111110000000000000000 "
#280
b1010110100111101000000000000000000000 "
#281
b1010110100111101000010000000000000000 "
#282
b1010110100111101000100000000000000000 "
#283
b1010110100111101000110000000000000000 "
#284
b1010110100111101001000000000000000000 "
#285
b1010110100111101001010000000000000000 "
#286
b1010110100111101001100000000000000000 "
#287
b1010110100111101001110000000000000000 "
#290
b1010110100111101010000000000000000000 "
#291
b1010110100111101010010000000000000000 "
#292
b1010110100111101010100000000000000000 "
#295
b1010110100111101010110000000000000000 "
#296
b1010110100111101011000000000000000000 "
#297
b1010110100111101011010000000000000000 "
#298
b1010110100111101011100000000000000000 "
#299
b1010110100111101011110000000000000000 "
#300
b1010110100111101100000000000000000000 "
#301
b1010110100111101100010000000000000000 "
#303
b1010110100111101100100000000000000000 "
#304
b1010110100111101100110000000000000000 "
#306
b1010110100111101101000000000000000000 "
#308
b1010110100111101101010000000000000000 "
#310
b1010110100111101101100000000000000000 "
#311
b1010110100111101101110000000000000000 "
#312
b1010110100111101110000000000000000000 "
#313
b1010110100111101110100000000000000000 "
#314
b1010110100111101110110000000000000000 "
#315
b1010110100111101111000000000000000000 "
#316
b1010110100111101111010000000000000000 "
#321
b1010110100111101111100000000000000000 "
#326
b1010110100111101111110000000000000000 "
#327
b1010110100111110000000000000000000000 "
#331
b1010110100111110000010000000000000000 "
#332
b1010110100111110000100000000000000000 "
#335
b1010110100111110000110000000000000000 "
#336
b1010110100111110001000000000000000000 "
#337
b1010110100111110001010000000000000000 "
#338
b1010110100111110001100000000000000000 "
#340
b1010110100111110001110000000000000000 "
#343
b1010110100111110010000000000000000000 "
#345
b1010110100111110010110000000000000000 "
#346
b1010110100111110010100000000000000000 "
#348
b1010110100111110010110000000000000000 "
#349
b1010110100111110011010000000000000000 "
#351
b1010110100111110011100000000000000000 "
#352
b1010110100111110011110000000000000000 "
#355
b1010110100111110100000000000000000000 "
#356
b1010110100111110100100000000000000000 "
#357
b1010110100111110100110000000000000000 "
#358
b1010110100111110101000000000000000000 "
#360
b1010110100111110101010000000000000000 "
#363
b1010110100111110101100000000000000000 "
#364
b1010110100111110101110000000000000000 "
#365
b1010110100111110110000000000000000000 "
#368
b1010110100111110110010000000000000000 "
#370
b1010110100111110110110000000000000000 "
#371
b1010110100111110110100000000000000000 "
#373
b1010110100111110110110000000000000000 "
#374
b1010110100111110111000000000000000000 "
#375
b1010110100111110111010000000000000000 "
#376
b1010110100111110111100000000000000000 "
#377
b1010110100111110111110000000000000000 "
#379
b1010110100111111000000000000000000000 "
#380
b1010110100111111000010000000000000000 "
#381
b1010110100111111000100000000000000000 "
#382
b1010110100111111000110000000000000000 "
#383
b1010110100111111001000000000000000000 "
#384
b1010110100111111001010000000000000000 "
#385
b1010110100111111001100000000000000000 "
#386
b1010110100111111001110000000000000000 "
#389
b1010110100111111010000000000000000000 "
#390
b1010110100111111010010000000000000000 "
#392
b1010110100111111010100000000000000000 "
#394
b1010110100111111010110000000000000000 "
#395
b1010110100111111011110000000000000000 "
#396
b1010110100111111011010000000000000000 "
#397
b1010110100111111011100000000000000000 "
#399
b1010110100111111100000000000000000000 "
#400
b1010110100111111100010000000000000000 "
#402
b1010110100111111100110000000000000000 "
#406
b1010110100111111101000000000000000000 "
#407
b1010110100111111101010000000000000000 "
#409
b1010110100111111101100000000000000000 "
#410
b1010110100111111101110000000000000000 "
#411
b1010110100111111110000000000000000000 "
#412
b1010110100111111110010000000000000000 "
#413
b1010110100111111110110000000000000000 "
#414
b1010110100111111111000000000000000000 "
#415
b1010110100111111111010000000000000000 "
#420
b1010110100111111111110000000000000000 "
#421
b1010110100111111111100000000000000000 "
#425
b1010110100111111111110000000000000000 "
#426
b1010110101000000000000000000000000000 "
#430
b1010110101000000000010000000000000000 "
#431
b1010110101000000000100000000000000000 "
#435
b1010110101000000001000000000000000000 "
#436
b1010110101000000001010000000000000000 "
#437
b1010110101000000001100000000000000000 "
#439
b1010110101000000001110000000000000000 "
#442
b1010110101000000010000000000000000000 "
#444
b1010110101000000010010000000000000000 "
#445
b1010110101000000010100000000000000000 "
#447
b1010110101000000010110000000000000000 "
#448
b1010110101000000011000000000000000000 "
#449
b1010110101000000011010000000000000000 "
#450
b1010110101000000011100000000000000000 "
#452
b1010110101000000011110000000000000000 "
#454
b1010110101000000100000000000000000000 "
#455
b1010110101000000100010000000000000000 "
#456
b1010110101000000100110000000000000000 "
#457
b1010110101000000101000000000000000000 "
#459
b1010110101000000101010000000000000000 "
#463
b1010110101000000101110000000000000000 "
#464
b1010110101000000110000000000000000000 "
#467
b1010110101000000110010000000000000000 "
#470
b1010110101000000110100000000000000000 "
#472
b1010110101000000110110000000000000000 "
#473
b1010110101000000111000000000000000000 "
#474
b1010110101000000111010000000000000000 "
#475
b1010110101000000111100000000000000000 "
#477
b1010110101000000111110000000000000000 "
#478
b1010110101000001000000000000000000000 "
#479
b1010110101000001000010000000000000000 "
#481
b1010110101000001000110000000000000000 "
#482
b1010110101000001001000000000000000000 "
#483
b1010110101000001001010000000000000000 "
#485
b1010110101000001001110000000000000000 "
#488
b1010110101000001010000000000000000000 "
#489
b1010110101000001010010000000000000000 "
#491
b1010110101000001010100000000000000000 "
#493
b1010110101000001010110000000000000000 "
#495
b1010110101000001011010000000000000000 "
#496
b1010110101000001011100000000000000000 "
#498
b1010110101000001011110000000000000000 "
#499
b1010110101000001100010000000000000000 "
#502
b1010110101000001100110000000000000000 "
#505
b1010110101000001101000000000000000000 "
#506
b1010110101000001101010000000000000000 "
#508
b1010110101000001101100000000000000000 "
#510
b1010110101000001110000000000000000000 "
#511
b1010110101000001110010000000000000000 "
#512
b1010110101000001110100000000000000000 "
#513
b1010110101000001111000000000000000000 "
#514
b1010110101000001111010000000000000000 "
#520
b1010110101000001111100000000000000000 "
#524
b1010110101000001111110000000000000000 "
#525
b1010110101000010000000000000000000000 "
#529
b1010110101000010000010000000000000000 "
#531
b1010110101000010000100000000000000000 "
#534
b1010110101000010000110000000000000000 "
#535
b1010110101000010001010000000000000000 "
#536
b1010110101000010001100000000000000000 "
#538
b1010110101000010001110000000000000000 "
#542
b1010110101000010010000000000000000000 "
#543
b1010110101000010010010000000000000000 "
#544
b1010110101000010010100000000000000000 "
#546
b1010110101000010010110000000000000000 "
#547
b1010110101000010011000000000000000000 "
#548
b1010110101000010011010000000000000000 "
#549
b1010110101000010011100000000000000000 "
#551
b1010110101000010011110000000000000000 "
#553
b1010110101000010100000000000000000000 "
#554
b1010110101000010100010000000000000000 "
#555
b1010110101000010100100000000000000000 "
#556
b1010110101000010101000000000000000000 "
#558
b1010110101000010101010000000000000000 "
#562
b1010110101000010101100000000000000000 "
#563
b1010110101000010110000000000000000000 "
#567
b1010110101000010110010000000000000000 "
#569
b1010110101000010110100000000000000000 "
#571
b1010110101000010110110000000000000000 "
#572
b1010110101000010111000000000000000000 "
#574
b1010110101000010111100000000000000000 "
#576
b1010110101000010111110000000000000000 "
#578
b1010110101000011000010000000000000000 "
#580
b1010110101000011000100000000000000000 "
#581
b1010110101000011001000000000000000000 "
#582
b1010110101000011001010000000000000000 "
#584
b1010110101000011001100000000000000000 "
#585
b1010110101000011001110000000000000000 "
#588
b1010110101000011010010000000000000000 "
#590
b1010110101000011010100000000000000000 "
#592
b1010110101000011010110000000000000000 "
#594
b1010110101000011011000000000000000000 "
#595
b1010110101000011011110000000000000000 "
#596
b1010110101000011011100000000000000000 "
#597
b1010110101000011011110000000000000000 "
#598
b1010110101000011100000000000000000000 "
#599
b1010110101000011100010000000000000000 "
#601
b1010110101000011100100000000000000000 "
#602
b1010110101000011100110000000000000000 "
#604
b1010110101000011101000000000000000000 "
#606
b1010110101000011101010000000000000000 "
#607
b1010110101000011101100000000000000000 "
#609
b1010110101000011101110000000000000000 "
#610
b1010110101000011110010000000000000000 "
#611
b1010110101000011110100000000000000000 "
#612
b1010110101000011110110000000000000000 "
#613
b1010110101000011111010000000000000000 "
#619
b1010110101000011111100000000000000000 "
#624
b1010110101000100000000000000000000000 "
#628
b1010110101000100000010000000000000000 "
#630
b1010110101000100000100000000000000000 "
#633
b1010110101000100000110000000000000000 "
#634
b1010110101000100001000000000000000000 "
#635
b1010110101000100001100000000000000000 "
#638
b1010110101000100001110000000000000000 "
#641
b1010110101000100010000000000000000000 "
#642
b1010110101000100010010000000000000000 "
#643
b1010110101000100010100000000000000000 "
#645
b1010110101000100010110000000000000000 "
#646
b1010110101000100011000000000000000000 "
#647
b1010110101000100011010000000000000000 "
#649
b1010110101000100011100000000000000000 "
#650
b1010110101000100011110000000000000000 "
#652
b1010110101000100111110000000000000000 "
#653
b1010110101000100100010000000000000000 "
#654
b1010110101000100100100000000000000000 "
#655
b1010110101000100100110000000000000000 "
#656
b1010110101000100101000000000000000000 "
#657
b1010110101000100101010000000000000000 "
#661
b1010110101000100101100000000000000000 "
#662
b1010110101000100101110000000000000000 "
#663
b1010110101000100110000000000000000000 "
#666
b1010110101000100110010000000000000000 "
#668
b1010110101000100110100000000000000000 "
#670
b1010110101000100110110000000000000000 "
#671
b1010110101000100111000000000000000000 "
#673
b1010110101000100111010000000000000000 "
#674
b1010110101000100111100000000000000000 "
#675
b1010110101000100111110000000000000000 "
#677
b1010110101000101000010000000000000000 "
#679
b1010110101000101000100000000000000000 "
#680
b1010110101000101000110000000000000000 "
#681
b1010110101000101001010000000000000000 "
#683
b1010110101000101001100000000000000000 "
#684
b1010110101000101001110000000000000000 "
#687
b1010110101000101010000000000000000000 "
#688
b1010110101000101010010000000000000000 "
#689
b1010110101000101010100000000000000000 "
#692
b1010110101000101010110000000000000000 "
#693
b1010110101000101011000000000000000000 "
#694
b1010110101000101011010000000000000000 "
#695
b1010110101000101011100000000000000000 "
#696
b1010110101000101011110000000000000000 "
#697
b1010110101000101100000000000000000000 "
#698
b1010110101000101100010000000000000000 "
#700
b1010110101000101100100000000000000000 "
#701
b1010110101000101100110000000000000000 "
#703
b1010110101000101101000000000000000000 "
#705
b1010110101000101101010000000000000000 "
#706
b1010110101000101101100000000000000000 "
#708
b1010110101000101101110000000000000000 "
#709
b1010110101000101110000000000000000000 "
#710
b1010110101000101110100000000000000000 "
#711
b1010110101000101110110000000000000000 "
#712
b1010110101000101111000000000000000000 "
#713
b1010110101000101111010000000000000000 "
#718
b1010110101000101111100000000000000000 "
#723
b1010110101000101111110000000000000000 "
#724
b1010110101000110000000000000000000000 "
#727
b1010110101000110000010000000000000000 "
#729
b1010110101000110000100000000000000000 "
#732
b1010110101000110000110000000000000000 "
#733
b1010110101000110001000000000000000000 "
#734
b1010110101000110001010000000000000000 "
#735
b1010110101000110001100000000000000000 "
#737
b1010110101000110001110000000000000000 "
#740
b1010110101000110010000000000000000000 "
#742
b1010110101000110010100000000000000000 "
#745
b1010110101000110011110000000000000000 "
#746
b1010110101000110011010000000000000000 "
#748
b1010110101000110011100000000000000000 "
#749
b1010110101000110011110000000000000000 "
#752
b1010110101000110100010000000000000000 "
#753
b1010110101000110100100000000000000000 "
#754
b1010110101000110100110000000000000000 "
#755
b1010110101000110101000000000000000000 "
#756
b1010110101000110101010000000000000000 "
#760
b1010110101000110101100000000000000000 "
#761
b1010110101000110101110000000000000000 "
#762
b1010110101000110110000000000000000000 "
#765
b1010110101000110110010000000000000000 "
#767
b1010110101000110110100000000000000000 "
#770
b1010110101000110111110000000000000000 "
#771
b1010110101000110111000000000000000000 "
#772
b1010110101000110111010000000000000000 "
#773
b1010110101000110111100000000000000000 "
#774
b1010110101000110111110000000000000000 "
#776
b1010110101000111000000000000000000000 "
#777
b1010110101000111000010000000000000000 "
#778
b1010110101000111000100000000000000000 "
#779
b1010110101000111000110000000000000000 "
#780
b1010110101000111001000000000000000000 "
#781
b1010110101000111001010000000000000000 "
#782
b1010110101000111001100000000000000000 "
#783
b1010110101000111001110000000000000000 "
#786
b1010110101000111010000000000000000000 "
#787
b1010110101000111010010000000000000000 "
#788
b1010110101000111010100000000000000000 "
#791
b1010110101000111010110000000000000000 "
#792
b1010110101000111011000000000000000000 "
#793
b1010110101000111011010000000000000000 "
#794
b1010110101000111011100000000000000000 "
#795
b1010110101000111011110000000000000000 "
#796
b1010110101000111100000000000000000000 "
#797
b1010110101000111100010000000000000000 "
#799
b1010110101000111100100000000000000000 "
#800
b1010110101000111100110000000000000000 "
#802
b1010110101000111101110000000000000000 "
#803
b1010110101000111101000000000000000000 "
#804
b1010110101000111101010000000000000000 "
#806
b1010110101000111101100000000000000000 "
#807
b1010110101000111101110000000000000000 "
#808
b1010110101000111110000000000000000000 "
#809
b1010110101000111110010000000000000000 "
#810
b1010110101000111110110000000000000000 "
#811
b1010110101000111111000000000000000000 "
#812
b1010110101000111111010000000000000000 "
#817
b1010110101000111111100000000000000000 "
#822
b1010110101000111111110000000000000000 "
#823
b1010110101001000000000000000000000000 "
#827
b1010110101001000000010000000000000000 "
#828
b1010110101001000000100000000000000000 "
#831
b1010110101001000000110000000000000000 "
#832
b1010110101001000001000000000000000000 "
#833
b1010110101001000001010000000000000000 "
#834
b1010110101001000001100000000000000000 "
#836
b1010110101001000001110000000000000000 "
#839
b1010110101001000010000000000000000000 "
#841
b1010110101001000010010000000000000000 "
#842
b1010110101001000010100000000000000000 "
#844
b1010110101001000010110000000000000000 "
#845
b1010110101001000011010000000000000000 "
#847
b1010110101001000011100000000000000000 "
#849
b1010110101001000011110000000000000000 "
#851
b1010110101001000100000000000000000000 "
#852
b1010110101001000100010000000000000000 "
#853
b1010110101001000100110000000000000000 "
#854
b1010110101001000101000000000000000000 "
#856
b1010110101001000101010000000000000000 "
#860
b1010110101001000101110000000000000000 "
#861
b1010110101001000110000000000000000000 "
#864
b1010110101001000110010000000000000000 "
#867
b1010110101001000110100000000000000000 "
#869
b1010110101001000110110000000000000000 "
#870
b1010110101001000111000000000000000000 "
#871
b1010110101001000111010000000000000000 "
#872
b1010110101001000111100000000000000000 "
#874
b1010110101001000111110000000000000000 "
#875
b1010110101001001000000000000000000000 "
#876
b1010110101001001000010000000000000000 "
#878
b1010110101001001000110000000000000000 "
#879
b1010110101001001001000000000000000000 "
#880
b1010110101001001001010000000000000000 "
#881
b1010110101001001001100000000000000000 "
#882
b1010110101001001001110000000000000000 "
#885
b1010110101001001010000000000000000000 "
#886
b1010110101001001010010000000000000000 "
#888
b1010110101001001010100000000000000000 "
#890
b1010110101001001010110000000000000000 "
#892
b1010110101001001011010000000000000000 "
#893
b1010110101001001011100000000000000000 "
#895
b1010110101001001111110000000000000000 "
#896
b1010110101001001100010000000000000000 "
#899
b1010110101001001100110000000000000000 "
#902
b1010110101001001101000000000000000000 "
#903
b1010110101001001101010000000000000000 "
#905
b1010110101001001101100000000000000000 "
#906
b1010110101001001101110000000000000000 "
#907
b1010110101001001110000000000000000000 "
#908
b1010110101001001110010000000000000000 "
#909
b1010110101001001110100000000000000000 "
#910
b1010110101001001111000000000000000000 "
#911
b1010110101001001111010000000000000000 "
#917
b1010110101001001111100000000000000000 "
#921
b1010110101001001111110000000000000000 "
#922
b1010110101001010000000000000000000000 "
#926
b1010110101001010000010000000000000000 "
#928
b1010110101001010000100000000000000000 "
#931
b1010110101001010001000000000000000000 "
#932
b1010110101001010001010000000000000000 "
#933
b1010110101001010001100000000000000000 "
#935
b1010110101001010001110000000000000000 "
#938
b1010110101001010010000000000000000000 "
#940
b1010110101001010010010000000000000000 "
#941
b1010110101001010010100000000000000000 "
#943
b1010110101001010010110000000000000000 "
#944
b1010110101001010011000000000000000000 "
#945
b1010110101001010011010000000000000000 "
#946
b1010110101001010011100000000000000000 "
#948
b1010110101001010011110000000000000000 "
#950
b1010110101001010100000000000000000000 "
#951
b1010110101001010100010000000000000000 "
#952
b1010110101001010100110000000000000000 "
#953
b1010110101001010101000000000000000000 "
#955
b1010110101001010101010000000000000000 "
#959
b1010110101001010101100000000000000000 "
#960
b1010110101001010110000000000000000000 "
#963
b1010110101001010110010000000000000000 "
#966
b1010110101001010110100000000000000000 "
#968
b1010110101001010110110000000000000000 "
#969
b1010110101001010111000000000000000000 "
#970
b1010110101001010111010000000000000000 "
#971
b1010110101001010111100000000000000000 "
#973
b1010110101001010111110000000000000000 "
#974
b1010110101001011000000000000000000000 "
#975
b1010110101001011000010000000000000000 "
#977
b1010110101001011000110000000000000000 "
#978
b1010110101001011001000000000000000000 "
#979
b1010110101001011001010000000000000000 "
#981
b1010110101001011001110000000000000000 "
#985
b1010110101001011010010000000000000000 "
#987
b1010110101001011010100000000000000000 "
#989
b1010110101001011010110000000000000000 "
#991
b1010110101001011011000000000000000000 "
#992
b1010110101001011011100000000000000000 "
#994
b1010110101001011011110000000000000000 "
#995
b1010110101001011100010000000000000000 "
#998
b1010110101001011100100000000000000000 "
#999
b1010110101001011100110000000000000000 "
#1001
b1010110101001011101000000000000000000 "
#1003
b1010110101001011101010000000000000000 "
#1004
b1010110101001011101100000000000000000 "
#1006
b1010110101001011110000000000000000000 "
#1007
b1010110101001011110010000000000000000 "
#1008
b1010110101001011110100000000000000000 "
#1009
b1010110101001011110110000000000000000 "
#1010
b1010110101001011111010000000000000000 "
#1016
b1010110101001011111100000000000000000 "
#1020
b1010110101001011111110000000000000000 "
#1021
b1010110101001100000000000000000000000 "
#1025
b1010110101001100000010000000000000000 "
#1027
b1010110101001100000100000000000000000 "
#1030
b1010110101001100000110000000000000000 "
#1031
b1010110101001100001010000000000000000 "
#1032
b1010110101001100001100000000000000000 "
#1035
b1010110101001100001110000000000000000 "
#1038
b1010110101001100010000000000000000000 "
#1039
b1010110101001100010010000000000000000 "
#1040
b1010110101001100010100000000000000000 "
#1042
b1010110101001100010110000000000000000 "
#1043
b1010110101001100011000000000000000000 "
#1044
b1010110101001100011010000000000000000 "
#1045
b1010110101001100011110000000000000000 "
#1046
b1010110101001100011100000000000000000 "
#1047
b1010110101001100011110000000000000000 "
#1049
b1010110101001100100000000000000000000 "
#1050
b1010110101001100100010000000000000000 "
#1051
b1010110101001100100100000000000000000 "
#1052
b1010110101001100100110000000000000000 "
#1053
b1010110101001100101000000000000000000 "
#1054
b1010110101001100101010000000000000000 "
#1058
b1010110101001100101100000000000000000 "
#1059
b1010110101001100101110000000000000000 "
#1060
b1010110101001100110000000000000000000 "
#1063
b1010110101001100110010000000000000000 "
#1065
b1010110101001100110100000000000000000 "
#1067
b1010110101001100110110000000000000000 "
#1068
b1010110101001100111000000000000000000 "
#1070
b1010110101001100111110000000000000000 "
#1071
b1010110101001100111100000000000000000 "
#1072
b1010110101001100111110000000000000000 "
#1074
b1010110101001101000010000000000000000 "
#1076
b1010110101001101000100000000000000000 "
#1077
b1010110101001101000110000000000000000 "
#1078
b1010110101001101001010000000000000000 "
#1080
b1010110101001101001100000000000000000 "
#1081
b1010110101001101001110000000000000000 "
#1084
b1010110101001101010000000000000000000 "
#1085
b1010110101001101010010000000000000000 "
#1086
b1010110101001101010100000000000000000 "
#1088
b1010110101001101010110000000000000000 "
#1090
b1010110101001101011000000000000000000 "
#1091
b1010110101001101011010000000000000000 "
#1092
b1010110101001101011100000000000000000 "
#1093
b1010110101001101011110000000000000000 "
#1094
b1010110101001101100000000000000000000 "
#1095
b1010110101001101100010000000000000000 "
#1097
b1010110101001101100100000000000000000 "
#1098
b1010110101001101100110000000000000000 "
#1100
b1010110101001101101000000000000000000 "
#1102
b1010110101001101101010000000000000000 "
#1103
b1010110101001101101100000000000000000 "
#1105
b1010110101001101101110000000000000000 "
#1106
b1010110101001101110010000000000000000 "
#1107
b1010110101001101110100000000000000000 "
#1108
b1010110101001101110110000000000000000 "
#1109
b1010110101001101111000000000000000000 "
#1110
b1010110101001101111010000000000000000 "
#1115
b1010110101001101111100000000000000000 "
#1120
b1010110101001101111110000000000000000 "
#1121
b1010110101001110000000000000000000000 "
#1124
b1010110101001110000010000000000000000 "
#1126
b1010110101001110000100000000000000000 "
#1129
b1010110101001110000110000000000000000 "
#1130
b1010110101001110001000000000000000000 "
#1131
b1010110101001110001100000000000000000 "
#1134
b1010110101001110001110000000000000000 "
#1137
b1010110101001110010000000000000000000 "
#1138
b1010110101001110010010000000000000000 "
#1139
b1010110101001110010100000000000000000 "
#1142
b1010110101001110011000000000000000000 "
#1143
b1010110101001110011010000000000000000 "
#1145
b1010110101001110011100000000000000000 "
#1146
b1010110101001110011110000000000000000 "
#1149
b1010110101001110100010000000000000000 "
#1150
b1010110101001110100100000000000000000 "
#1151
b1010110101001110100110000000000000000 "
#1152
b1010110101001110101000000000000000000 "
#1153
b1010110101001110101010000000000000000 "
#1157
b1010110101001110101100000000000000000 "
#1158
b1010110101001110101110000000000000000 "
#1159
b1010110101001110110000000000000000000 "
#1162
b1010110101001110110010000000000000000 "
#1164
b1010110101001110110100000000000000000 "
#1167
b1010110101001110111000000000000000000 "
#1169
b1010110101001110111010000000000000000 "
#1170
b1010110101001110111100000000000000000 "
#1171
b1010110101001110111110000000000000000 "
#1173
b1010110101001111000000000000000000000 "
#1174
b1010110101001111000010000000000000000 "
#1175
b1010110101001111000100000000000000000 "
#1176
b1010110101001111000110000000000000000 "
#1177
b1010110101001111001000000000000000000 "
#1178
b1010110101001111001010000000000000000 "
#1179
b1010110101001111001100000000000000000 "
#1180
b1010110101001111001110000000000000000 "
#1183
b1010110101001111010000000000000000000 "
#1184
b1010110101001111010010000000000000000 "
#1185
b1010110101001111010100000000000000000 "
#1188
b1010110101001111010110000000000000000 "
#1189
b1010110101001111011000000000000000000 "
#1190
b1010110101001111011010000000000000000 "
#1191
b1010110101001111011100000000000000000 "
#1192
b1010110101001111011110000000000000000 "
#1193
b1010110101001111100000000000000000000 "
#1194
b1010110101001111100010000000000000000 "
#1196
b1010110101001111100100000000000000000 "
#1197
b1010110101001111100110000000000000000 "
#1199
b1010110101001111101000000000000000000 "
#1201
b1010110101001111101010000000000000000 "
#1203
b1010110101001111101100000000000000000 "
#1204
b1010110101001111101110000000000000000 "
#1205
b1010110101001111110000000000000000000 "
#1206
b1010110101001111110100000000000000000 "
#1207
b1010110101001111110110000000000000000 "
#1208
b1010110101001111111000000000000000000 "
#1209
b1010110101001111111010000000000000000 "
#1214
b1010110101001111111100000000000000000 "
#1219
b1010110101001111111110000000000000000 "
#1220
b1010110101010000000000000000000000000 "
#1224
b1010110101010000000010000000000000000 "
#1225
b1010110101010000000100000000000000000 "
#1228
b1010110101010000000110000000000000000 "
#1229
b1010110101010000001000000000000000000 "
#1230
b1010110101010000001010000000000000000 "
#1231
b1010110101010000001100000000000000000 "
#1233
b1010110101010000001110000000000000000 "
#1236
b1010110101010000010000000000000000000 "
#1238
b1010110101010000010100000000000000000 "
#1241
b1010110101010000010110000000000000000 "
#1242
b1010110101010000011010000000000000000 "
#1244
b1010110101010000011100000000000000000 "
#1245
b1010110101010000011110000000000000000 "
#1248
b1010110101010000100000000000000000000 "
#1249
b1010110101010000100100000000000000000 "
#1250
b1010110101010000100110000000000000000 "
#1251
b1010110101010000101000000000000000000 "
#1253
b1010110101010000101010000000000000000 "
