serdes_test/.Xil/Vivado-23608-21-10244/hw_ila_data_2/zip_work/waveform.vcd
$date
        2021-Oct-11 17:40:59
$end
$version
        Vivado v2020.2 (64-bit)
$end
$timescale
        1ps
$end
$scope module dut $end
$var reg 512 " config_reg [511:0] $end
$var reg 176 L& status_reg [175:0] $end
$var reg 1 @( _TRIGGER $end
$var reg 1 A( _WINDOW $end
$var reg 1 B( _GAP $end
$upscope $end
$enddefinitions $end
#0
$dumpvars
b0 "
b10101010000000000000001000000000000000000000000110111010011011100001100000000001001110101100010110010000000000000000000 L&
0@(
1A(
0B(
$end
#1
b10101010000000000000001000000000000000000000000110111010011011100010000000000001001110101100010110010000000000000000000 L&
#2
b10101010000000000000001000000000000000000000000110111010011011100010100000000001001110101100010110010000000000000000000 L&
#3
b10101010000000000000001000000000000000000000000110111010011011100011000000000001001110101100010110010000000000000000000 L&
#4
b10101010000000000000001000000000000000000000000110111010011011100100000000000001001110101100010110010000000000000000000 L&
#5
b10101010000000000000001000000000000000000000000110111010011011100100100000000001001110101100010110010000000000000000000 L&
#6
b10101010000000000000001000000000000000000000000110111010011011100101000000000001001110101100010110010000000000000000000 L&
#7
b10101010000000000000001000000000000000000000000110111010011011100110000000000001001110101100010110010000000000000000000 L&
#8
b10101010000000000000001000000000000000000000000110111010011011100110100000000001001110101100010110010000000000000000000 L&
#9
b10101010000000000000001000000000000000000000000110111010011011100111000000000001001110101100010110010000000000000000000 L&
#10
b10101010000000000000001000000000000000000000000110111010011011100111100000000001001110101100010110010000000000000000000 L&
#11
b10101010000000000000001000000000000000000000000110111010011011101000100000000001001110101100010110010000000000000000000 L&
#12
b10101010000000000000001000000000000000000000000110111010011011101001000000000001001110101100010110010000000000000000000 L&
#13
b10101010000000000000001000000000000000000000000110111010011011101001100000000001001110101100010110010000000000000000000 L&
#14
b10101010000000000000001000000000000000000000000110111010011011101010100000000001001110101100010110010000000000000000000 L&
#15
b10101010000000000000001000000000000000000000000110111010011011101011000000000001001110101100010110010000000000000000000 L&
#16
b10101010000000000000001000000000000000000000000110111010011011101011100000000001001110101100010110010000000000000000000 L&
#17
b10101010000000000000001000000000000000000000000110111010011011101100000000000001001110101100010110010000000000000000000 L&
#18
b10101010000000000000001000000000000000000000000110111010011011101101000000000001001110101100010110010000000000000000000 L&
#19
b10101010000000000000001000000000000000000000000110111010011011101101100000000001001110101100010110010000000000000000000 L&
#20
b10101010000000000000001000000000000000000000000110111010011011101110000000000001001110101100010110010000000000000000000 L&
#21
b10101010000000000000001000000000000000000000000110111010011011101110100000000001001110101100010110010000000000000000000 L&
#22
b10101010000000000000001000000000000000000000000110111010011011101111100000000001001110101100010110010000000000000000000 L&
#23
b10101010000000000000001000000000000000000000000110111010011011110000000000000001001110101100010110010000000000000000000 L&
#24
b10101010000000000000001000000000000000000000000110111010011011110000100000000001001110101100010110010000000000000000000 L&
#25
b10101010000000000000001000000000000000000000000110111010011011110001100000000001001110101100010110010000000000000000000 L&
#26
b10101010000000000000001000000000000000000000000110111010011011110010000000000001001110101100010110010000000000000000000 L&
#27
b10101010000000000000001000000000000000000000000110111010011011110010100000000001001110101100010110010000000000000000000 L&
#28
b10101010000000000000001000000000000000000000000110111010011011110011000000000001001110101100010110010000000000000000000 L&
#29
b10101010000000000000001000000000000000000000000110111010011011110100000000000001001110101100010110010000000000000000000 L&
#30
b10101010000000000000001000000000000000000000000110111010011011110100100000000001001110101100010110010000000000000000000 L&
#31
b10101010000000000000001000000000000000000000000110111010011011110101000000000001001110101100010110010000000000000000000 L&
#32
b10101010000000000000001000000000000000000000000110111010011011110110000000000001001110101100010110010000000000000000000 L&
#33
b10101010000000000000001000000000000000000000000110111010011011110110100000000001001110101100010110010000000000000000000 L&
#34
b10101010000000000000001000000000000000000000000110111010011011110111000000000001001110101100010110010000000000000000000 L&
#35
b10101010000000000000001000000000000000000000000110111010011011110111100000000001001110101100010110010000000000000000000 L&
#36
b10101010000000000000001000000000000000000000000110111010011011111000100000000001001110101100010110010000000000000000000 L&
#37
b10101010000000000000001000000000000000000000000110111010011011111001000000000001001110101100010110010000000000000000000 L&
#38
b10101010000000000000001000000000000000000000000110111010011011111001100000000001001110101100010110010000000000000000000 L&
#39
b10101010000000000000001000000000000000000000000110111010011011111010100000000001001110101100010110010000000000000000000 L&
#40
b10101010000000000000001000000000000000000000000110111010011011111011000000000001001110101100010110010000000000000000000 L&
#41
b10101010000000000000001000000000000000000000000110111010011011111011100000000001001110101100010110010000000000000000000 L&
#42
b10101010000000000000001000000000000000000000000110111010011011111100000000000001001110101100010110010000000000000000000 L&
#43
b10101010000000000000001000000000000000000000000110111010011011111101000000000001001110101100010110010000000000000000000 L&
#44
b10101010000000000000001000000000000000000000000110111010011011111101100000000001001110101100010110010000000000000000000 L&
#45
b10101010000000000000001000000000000000000000000110111010011011111110000000000001001110101100010110010000000000000000000 L&
#46
b10101010000000000000001000000000000000000000000110111010011011111110100000000001001110101100010110010000000000000000000 L&
#47
b10101010000000000000001000000000000000000000000110111010011011111111100000000001001110101100010110010000000000000000000 L&
#48
b10101010000000000000001000000000000000000000000110111010011100000000000000000001001110101100010110010000000000000000000 L&
#49
b10101010000000000000001000000000000000000000000110111010011100000000100000000001001110101100010110010000000000000000000 L&
#50
b10101010000000000000001000000000000000000000000110111010011100000001100000000001001110101100010110010000000000000000000 L&
#51
b10101010000000000000001000000000000000000000000110111010011100000010000000000001001110101100010110010000000000000000000 L&
#52
b10101010000000000000001000000000000000000000000110111010011100000010100000000001001110101100010110010000000000000000000 L&
#53
b10101010000000000000001000000000000000000000000110111010011100000011000000000001001110101100010110010000000000000000000 L&
#54
b10101010000000000000001000000000000000000000000110111010011100000100000000000001001110101100010110010000000000000000000 L&
#55
b10101010000000000000001000000000000000000000000110111010011100000100100000000001001110101100010110010000000000000000000 L&
#56
b10101010000000000000001000000000000000000000000110111010011100000101000000000001001110101100010110010000000000000000000 L&
#57
b10101010000000000000001000000000000000000000000110111010011100000110000000000001001110101100010110010000000000000000000 L&
#58
b10101010000000000000001000000000000000000000000110111010011100000110100000000001001110101100010110010000000000000000000 L&
#59
b10101010000000000000001000000000000000000000000110111010011100000111000000000001001110101100010110010000000000000000000 L&
#60
b10101010000000000000001000000000000000000000000110111010011100000111100000000001001110101100010110010000000000000000000 L&
#61
b10101010000000000000001000000000000000000000000110111010011100001000100000000001001110101100010110010000000000000000000 L&
#62
b10101010000000000000001000000000000000000000000110111010011100001001000000000001001110101100010110010000000000000000000 L&
#63
b10101010000000000000001000000000000000000000000110111010011100001001100000000001001110101100010110010000000000000000000 L&
#64
b10101010000000000000001000000000000000000000000110111010011100001010100000000001001110101100010110010000000000000000000 L&
#65
b10101010000000000000001000000000000000000000000110111010011100001011000000000001001110101100010110010000000000000000000 L&
#66
b10101010000000000000001000000000000000000000000110111010011100001011100000000001001110101100010110010000000000000000000 L&
#67
b10101010000000000000001000000000000000000000000110111010011100001100000000000001001110101100010110010000000000000000000 L&
#68
b10101010000000000000001000000000000000000000000110111010011100001101000000000001001110101100010110010000000000000000000 L&
#69
b10101010000000000000001000000000000000000000000110111010011100001101100000000001001110101100010110010000000000000000000 L&
#70
b10101010000000000000001000000000000000000000000110111010011100001110000000000001001110101100010110010000000000000000000 L&
#71
b10101010000000000000001000000000000000000000000110111010011100001110100000000001001110101100010110010000000000000000000 L&
#72
b10101010000000000000001000000000000000000000000110111010011100001111100000000001001110101100010110010000000000000000000 L&
#73
b10101010000000000000001000000000000000000000000110111010011100010000000000000001001110101100010110010000000000000000000 L&
#74
b10101010000000000000001000000000000000000000000110111010011100010000100000000001001110101100010110010000000000000000000 L&
#75
b10101010000000000000001000000000000000000000000110111010011100010001100000000001001110101100010110010000000000000000000 L&
#76
b10101010000000000000001000000000000000000000000110111010011100010010000000000001001110101100010110010000000000000000000 L&
#77
b10101010000000000000001000000000000000000000000110111010011100010010100000000001001110101100010110010000000000000000000 L&
#78
b10101010000000000000001000000000000000000000000110111010011100010011000000000001001110101100010110010000000000000000000 L&
#79
b10101010000000000000001000000000000000000000000110111010011100010100000000000001001110101100010110010000000000000000000 L&
#80
b10101010000000000000001000000000000000000000000110111010011100010100100000000001001110101100010110010000000000000000000 L&
#81
b10101010000000000000001000000000000000000000000110111010011100010101000000000001001110101100010110010000000000000000000 L&
#82
b10101010000000000000001000000000000000000000000110111010011100010110000000000001001110101100010110010000000000000000000 L&
#83
b10101010000000000000001000000000000000000000000110111010011100010110100000000001001110101100010110010000000000000000000 L&
#84
b10101010000000000000001000000000000000000000000110111010011100010111000000000001001110101100010110010000000000000000000 L&
#85
b10101010000000000000001000000000000000000000000110111010011100010111100000000001001110101100010110010000000000000000000 L&
#86
b10101010000000000000001000000000000000000000000110111010011100011000100000000001001110101100010110010000000000000000000 L&
#87
b10101010000000000000001000000000000000000000000110111010011100011001000000000001001110101100010110010000000000000000000 L&
#88
b10101010000000000000001000000000000000000000000110111010011100011001100000000001001110101100010110010000000000000000000 L&
#89
b10101010000000000000001000000000000000000000000110111010011100011010100000000001001110101100010110010000000000000000000 L&
#90
b10101010000000000000001000000000000000000000000110111010011100011011000000000001001110101100010110010000000000000000000 L&
#91
b10101010000000000000001000000000000000000000000110111010011100011011100000000001001110101100010110010000000000000000000 L&
#92
b10101010000000000000001000000000000000000000000110111010011100011100000000000001001110101100010110010000000000000000000 L&
#93
b10101010000000000000001000000000000000000000000110111010011100011101000000000001001110101100010110010000000000000000000 L&
#94
b10101010000000000000001000000000000000000000000110111010011100011101100000000001001110101100010110010000000000000000000 L&
#95
b10101010000000000000001000000000000000000000000110111010011100011110000000000001001110101100010110010000000000000000000 L&
#96
b10101010000000000000001000000000000000000000000110111010011100011110100000000001001110101100010110010000000000000000000 L&
#97
b10101010000000000000001000000000000000000000000110111010011100011111100000000001001110101100010110010000000000000000000 L&
#98
b10101010000000000000001000000000000000000000000110111010011100100000000000000001001110101100010110010000000000000000000 L&
#99
b10101010000000000000001000000000000000000000000110111010011100100000100000000001001110101100010110010000000000000000000 L&
#100
b10101010000000000000001000000000000000000000000110111010011100100001100000000001001110101100010110010000000000000000000 L&
#101
b10101010000000000000001000000000000000000000000110111010011100100010000000000001001110101100010110010000000000000000000 L&
#102
b10101010000000000000001000000000000000000000000110111010011100100010100000000001001110101100010110010000000000000000000 L&
#103
b10101010000000000000001000000000000000000000000110111010011100100011000000000001001110101100010110010000000000000000000 L&
#104
b10101010000000000000001000000000000000000000000110111010011100100100000000000001001110101100010110010000000000000000000 L&
#105
b10101010000000000000001000000000000000000000000110111010011100100100100000000001001110101100010110010000000000000000000 L&
#106
b10101010000000000000001000000000000000000000000110111010011100100101000000000001001110101100010110010000000000000000000 L&
#107
b10101010000000000000001000000000000000000000000110111010011100100110000000000001001110101100010110010000000000000000000 L&
#108
b10101010000000000000001000000000000000000000000110111010011100100110100000000001001110101100010110010000000000000000000 L&
#109
b10101010000000000000001000000000000000000000000110111010011100100111000000000001001110101100010110010000000000000000000 L&
#110
b10101010000000000000001000000000000000000000000110111010011100100111100000000001001110101100010110010000000000000000000 L&
#111
b10101010000000000000001000000000000000000000000110111010011100101000100000000001001110101100010110010000000000000000000 L&
#112
b10101010000000000000001000000000000000000000000110111010011100101001000000000001001110101100010110010000000000000000000 L&
#113
b10101010000000000000001000000000000000000000000110111010011100101001100000000001001110101100010110010000000000000000000 L&
#114
b10101010000000000000001000000000000000000000000110111010011100101010100000000001001110101100010110010000000000000000000 L&
#115
b10101010000000000000001000000000000000000000000110111010011100101011000000000001001110101100010110010000000000000000000 L&
#116
b10101010000000000000001000000000000000000000000110111010011100101011100000000001001110101100010110010000000000000000000 L&
#117
b10101010000000000000001000000000000000000000000110111010011100101100000000000001001110101100010110010000000000000000000 L&
#118
b10101010000000000000001000000000000000000000000110111010011100101101000000000001001110101100010110010000000000000000000 L&
#119
b10101010000000000000001000000000000000000000000110111010011100101101100000000001001110101100010110010000000000000000000 L&
#120
b10101010000000000000001000000000000000000000000110111010011100101110000000000001001110101100010110010000000000000000000 L&
#121
b10101010000000000000001000000000000000000000000110111010011100101110100000000001001110101100010110010000000000000000000 L&
#122
b10101010000000000000001000000000000000000000000110111010011100101111100000000001001110101100010110010000000000000000000 L&
#123
b10101010000000000000001000000000000000000000000110111010011100110000000000000001001110101100010110010000000000000000000 L&
#124
b10101010000000000000001000000000000000000000000110111010011100110000100000000001001110101100010110010000000000000000000 L&
#125
b10101010000000000000001000000000000000000000000110111010011100110001100000000001001110101100010110010000000000000000000 L&
#126
b10101010000000000000001000000000000000000000000110111010011100110010000000000001001110101100010110010000000000000000000 L&
#127
b10101010000000000000001000000000000000000000000110111010011100110010100000000001001110101100010110010000000000000000000 L&
#128
b10101010000000000000001000000000000000000000000110111010011100110011000000000001001110101100010110010000000000000000000 L&
#129
b10101010000000000000001000000000000000000000000110111010011100110100000000000001001110101100010110010000000000000000000 L&
#130
b10101010000000000000001000000000000000000000000110111010011100110100100000000001001110101100010110010000000000000000000 L&
#131
b10101010000000000000001000000000000000000000000110111010011100110101000000000001001110101100010110010000000000000000000 L&
#132
b10101010000000000000001000000000000000000000000110111010011100110110000000000001001110101100010110010000000000000000000 L&
#133
b10101010000000000000001000000000000000000000000110111010011100110110100000000001001110101100010110010000000000000000000 L&
#134
b10101010000000000000001000000000000000000000000110111010011100110111000000000001001110101100010110010000000000000000000 L&
#135
b10101010000000000000001000000000000000000000000110111010011100110111100000000001001110101100010110010000000000000000000 L&
#136
b10101010000000000000001000000000000000000000000110111010011100111000100000000001001110101100010110010000000000000000000 L&
#137
b10101010000000000000001000000000000000000000000110111010011100111001000000000001001110101100010110010000000000000000000 L&
#138
b10101010000000000000001000000000000000000000000110111010011100111001100000000001001110101100010110010000000000000000000 L&
#139
b10101010000000000000001000000000000000000000000110111010011100111010100000000001001110101100010110010000000000000000000 L&
#140
b10101010000000000000001000000000000000000000000110111010011100111011000000000001001110101100010110010000000000000000000 L&
#141
b10101010000000000000001000000000000000000000000110111010011100111011100000000001001110101100010110010000000000000000000 L&
#142
b10101010000000000000001000000000000000000000000110111010011100111100000000000001001110101100010110010000000000000000000 L&
#143
b10101010000000000000001000000000000000000000000110111010011100111101000000000001001110101100010110010000000000000000000 L&
#144
b10101010000000000000001000000000000000000000000110111010011100111101100000000001001110101100010110010000000000000000000 L&
#145
b10101010000000000000001000000000000000000000000110111010011100111110000000000001001110101100010110010000000000000000000 L&
#146
b10101010000000000000001000000000000000000000000110111010011100111110100000000001001110101100010110010000000000000000000 L&
#147
b10101010000000000000001000000000000000000000000110111010011100111111100000000001001110101100010110010000000000000000000 L&
#148
b10101010000000000000001000000000000000000000000110111010011101000000000000000001001110101100010110010000000000000000000 L&
#149
b10101010000000000000001000000000000000000000000110111010011101000000100000000001001110101100010110010000000000000000000 L&
#150
b10101010000000000000001000000000000000000000000110111010011101000001100000000001001110101100010110010000000000000000000 L&
#151
b10101010000000000000001000000000000000000000000110111010011101000010000000000001001110101100010110010000000000000000000 L&
#152
b10101010000000000000001000000000000000000000000110111010011101000010100000000001001110101100010110010000000000000000000 L&
#153
b10101010000000000000001000000000000000000000000110111010011101000011000000000001001110101100010110010000000000000000000 L&
#154
b10101010000000000000001000000000000000000000000110111010011101000100000000000001001110101100010110010000000000000000000 L&
#155
b10101010000000000000001000000000000000000000000110111010011101000100100000000001001110101100010110010000000000000000000 L&
#156
b10101010000000000000001000000000000000000000000110111010011101000101000000000001001110101100010110010000000000000000000 L&
#157
b10101010000000000000001000000000000000000000000110111010011101000110000000000001001110101100010110010000000000000000000 L&
#158
b10101010000000000000001000000000000000000000000110111010011101000110100000000001001110101100010110010000000000000000000 L&
#159
b10101010000000000000001000000000000000000000000110111010011101000111000000000001001110101100010110010000000000000000000 L&
#160
b10101010000000000000001000000000000000000000000110111010011101000111100000000001001110101100010110010000000000000000000 L&
#161
b10101010000000000000001000000000000000000000000110111010011101001000100000000001001110101100010110010000000000000000000 L&
#162
b10101010000000000000001000000000000000000000000110111010011101001001000000000001001110101100010110010000000000000000000 L&
#163
b10101010000000000000001000000000000000000000000110111010011101001001100000000001001110101100010110010000000000000000000 L&
#164
b10101010000000000000001000000000000000000000000110111010011101001010100000000001001110101100010110010000000000000000000 L&
#165
b10101010000000000000001000000000000000000000000110111010011101001011000000000001001110101100010110010000000000000000000 L&
#166
b10101010000000000000001000000000000000000000000110111010011101001011100000000001001110101100010110010000000000000000000 L&
#167
b10101010000000000000001000000000000000000000000110111010011101001100000000000001001110101100010110010000000000000000000 L&
#168
b10101010000000000000001000000000000000000000000110111010011101001101000000000001001110101100010110010000000000000000000 L&
#169
b10101010000000000000001000000000000000000000000110111010011101001101100000000001001110101100010110010000000000000000000 L&
#170
b10101010000000000000001000000000000000000000000110111010011101001110000000000001001110101100010110010000000000000000000 L&
#171
b10101010000000000000001000000000000000000000000110111010011101001110100000000001001110101100010110010000000000000000000 L&
#172
b10101010000000000000001000000000000000000000000110111010011101001111100000000001001110101100010110010000000000000000000 L&
#173
b10101010000000000000001000000000000000000000000110111010011101010000000000000001001110101100010110010000000000000000000 L&
#174
b10101010000000000000001000000000000000000000000110111010011101010000100000000001001110101100010110010000000000000000000 L&
#175
b10101010000000000000001000000000000000000000000110111010011101010001100000000001001110101100010110010000000000000000000 L&
#176
b10101010000000000000001000000000000000000000000110111010011101010010000000000001001110101100010110010000000000000000000 L&
#177
b10101010000000000000001000000000000000000000000110111010011101010010100000000001001110101100010110010000000000000000000 L&
#178
b10101010000000000000001000000000000000000000000110111010011101010011000000000001001110101100010110010000000000000000000 L&
#179
b10101010000000000000001000000000000000000000000110111010011101010100000000000001001110101100010110010000000000000000000 L&
#180
b10101010000000000000001000000000000000000000000110111010011101010100100000000001001110101100010110010000000000000000000 L&
#181
b10101010000000000000001000000000000000000000000110111010011101010101000000000001001110101100010110010000000000000000000 L&
#182
b10101010000000000000001000000000000000000000000110111010011101010110000000000001001110101100010110010000000000000000000 L&
#183
b10101010000000000000001000000000000000000000000110111010011101010110100000000001001110101100010110010000000000000000000 L&
#184
b10101010000000000000001000000000000000000000000110111010011101010111000000000001001110101100010110010000000000000000000 L&
#185
b10101010000000000000001000000000000000000000000110111010011101010111100000000001001110101100010110010000000000000000000 L&
#186
b10101010000000000000001000000000000000000000000110111010011101011000100000000001001110101100010110010000000000000000000 L&
#187
b10101010000000000000001000000000000000000000000110111010011101011001000000000001001110101100010110010000000000000000000 L&
#188
b10101010000000000000001000000000000000000000000110111010011101011001100000000001001110101100010110010000000000000000000 L&
#189
b10101010000000000000001000000000000000000000000110111010011101011010100000000001001110101100010110010000000000000000000 L&
#190
b10101010000000000000001000000000000000000000000110111010011101011011000000000001001110101100010110010000000000000000000 L&
#191
b10101010000000000000001000000000000000000000000110111010011101011011100000000001001110101100010110010000000000000000000 L&
#192
b10101010000000000000001000000000000000000000000110111010011101011100000000000001001110101100010110010000000000000000000 L&
#193
b10101010000000000000001000000000000000000000000110111010011101011101000000000001001110101100010110010000000000000000000 L&
#194
b10101010000000000000001000000000000000000000000110111010011101011101100000000001001110101100010110010000000000000000000 L&
#195
b10101010000000000000001000000000000000000000000110111010011101011110000000000001001110101100010110010000000000000000000 L&
#196
b10101010000000000000001000000000000000000000000110111010011101011110100000000001001110101100010110010000000000000000000 L&
#197
b10101010000000000000001000000000000000000000000110111010011101011111100000000001001110101100010110010000000000000000000 L&
#198
b10101010000000000000001000000000000000000000000110111010011101100000000000000001001110101100010110010000000000000000000 L&
#199
b10101010000000000000001000000000000000000000000110111010011101100000100000000001001110101100010110010000000000000000000 L&
#200
b10101010000000000000001000000000000000000000000110111010011101100001100000000001001110101100010110010000000000000000000 L&
#201
b10101010000000000000001000000000000000000000000110111010011101100010000000000001001110101100010110010000000000000000000 L&
#202
b10101010000000000000001000000000000000000000000110111010011101100010100000000001001110101100010110010000000000000000000 L&
#203
b10101010000000000000001000000000000000000000000110111010011101100011000000000001001110101100010110010000000000000000000 L&
#204
b10101010000000000000001000000000000000000000000110111010011101100100000000000001001110101100010110010000000000000000000 L&
#205
b10101010000000000000001000000000000000000000000110111010011101100100100000000001001110101100010110010000000000000000000 L&
#206
b10101010000000000000001000000000000000000000000110111010011101100101000000000001001110101100010110010000000000000000000 L&
#207
b10101010000000000000001000000000000000000000000110111010011101100110000000000001001110101100010110010000000000000000000 L&
#208
b10101010000000000000001000000000000000000000000110111010011101100110100000000001001110101100010110010000000000000000000 L&
#209
b10101010000000000000001000000000000000000000000110111010011101100111000000000001001110101100010110010000000000000000000 L&
#210
b10101010000000000000001000000000000000000000000110111010011101100111100000000001001110101100010110010000000000000000000 L&
#211
b10101010000000000000001000000000000000000000000110111010011101101000100000000001001110101100010110010000000000000000000 L&
#212
b10101010000000000000001000000000000000000000000110111010011101101001000000000001001110101100010110010000000000000000000 L&
#213
b10101010000000000000001000000000000000000000000110111010011101101001100000000001001110101100010110010000000000000000000 L&
#214
b10101010000000000000001000000000000000000000000110111010011101101010100000000001001110101100010110010000000000000000000 L&
#215
b10101010000000000000001000000000000000000000000110111010011101101011000000000001001110101100010110010000000000000000000 L&
#216
b10101010000000000000001000000000000000000000000110111010011101101011100000000001001110101100010110010000000000000000000 L&
#217
b10101010000000000000001000000000000000000000000110111010011101101100000000000001001110101100010110010000000000000000000 L&
#218
b10101010000000000000001000000000000000000000000110111010011101101101000000000001001110101100010110010000000000000000000 L&
#219
b10101010000000000000001000000000000000000000000110111010011101101101100000000001001110101100010110010000000000000000000 L&
#220
b10101010000000000000001000000000000000000000000110111010011101101110000000000001001110101100010110010000000000000000000 L&
#221
b10101010000000000000001000000000000000000000000110111010011101101110100000000001001110101100010110010000000000000000000 L&
#222
b10101010000000000000001000000000000000000000000110111010011101101111100000000001001110101100010110010000000000000000000 L&
#223
b10101010000000000000001000000000000000000000000110111010011101110000000000000001001110101100010110010000000000000000000 L&
#224
b10101010000000000000001000000000000000000000000110111010011101110000100000000001001110101100010110010000000000000000000 L&
#225
b10101010000000000000001000000000000000000000000110111010011101110001100000000001001110101100010110010000000000000000000 L&
#226
b10101010000000000000001000000000000000000000000110111010011101110010000000000001001110101100010110010000000000000000000 L&
#227
b10101010000000000000001000000000000000000000000110111010011101110010100000000001001110101100010110010000000000000000000 L&
#228
b10101010000000000000001000000000000000000000000110111010011101110011000000000001001110101100010110010000000000000000000 L&
#229
b10101010000000000000001000000000000000000000000110111010011101110100000000000001001110101100010110010000000000000000000 L&
#230
b10101010000000000000001000000000000000000000000110111010011101110100100000000001001110101100010110010000000000000000000 L&
#231
b10101010000000000000001000000000000000000000000110111010011101110101000000000001001110101100010110010000000000000000000 L&
#232
b10101010000000000000001000000000000000000000000110111010011101110110000000000001001110101100010110010000000000000000000 L&
#233
b10101010000000000000001000000000000000000000000110111010011101110110100000000001001110101100010110010000000000000000000 L&
#234
b10101010000000000000001000000000000000000000000110111010011101110111000000000001001110101100010110010000000000000000000 L&
#235
b10101010000000000000001000000000000000000000000110111010011101110111100000000001001110101100010110010000000000000000000 L&
#236
b10101010000000000000001000000000000000000000000110111010011101111000100000000001001110101100010110010000000000000000000 L&
#237
b10101010000000000000001000000000000000000000000110111010011101111001000000000001001110101100010110010000000000000000000 L&
#238
b10101010000000000000001000000000000000000000000110111010011101111001100000000001001110101100010110010000000000000000000 L&
#239
b10101010000000000000001000000000000000000000000110111010011101111010100000000001001110101100010110010000000000000000000 L&
#240
b10101010000000000000001000000000000000000000000110111010011101111011000000000001001110101100010110010000000000000000000 L&
#241
b10101010000000000000001000000000000000000000000110111010011101111011100000000001001110101100010110010000000000000000000 L&
#242
b10101010000000000000001000000000000000000000000110111010011101111100000000000001001110101100010110010000000000000000000 L&
#243
b10101010000000000000001000000000000000000000000110111010011101111101000000000001001110101100010110010000000000000000000 L&
#244
b10101010000000000000001000000000000000000000000110111010011101111101100000000001001110101100010110010000000000000000000 L&
#245
b10101010000000000000001000000000000000000000000110111010011101111110000000000001001110101100010110010000000000000000000 L&
#246
b10101010000000000000001000000000000000000000000110111010011101111110100000000001001110101100010110010000000000000000000 L&
#247
b10101010000000000000001000000000000000000000000110111010011101111111100000000001001110101100010110010000000000000000000 L&
#248
b10101010000000000000001000000000000000000000000110111010011110000000000000000001001110101100010110010000000000000000000 L&
#249
b10101010000000000000001000000000000000000000000110111010011110000000100000000001001110101100010110010000000000000000000 L&
#250
b10101010000000000000001000000000000000000000000110111010011110000001100000000001001110101100010110010000000000000000000 L&
#251
b10101010000000000000001000000000000000000000000110111010011110000010000000000001001110101100010110010000000000000000000 L&
#252
b10101010000000000000001000000000000000000000000110111010011110000010100000000001001110101100010110010000000000000000000 L&
#253
b10101010000000000000001000000000000000000000000110111010011110000011000000000001001110101100010110010000000000000000000 L&
#254
b10101010000000000000001000000000000000000000000110111010011110000100000000000001001110101100010110010000000000000000000 L&
#255
b10101010000000000000001000000000000000000000000110111010011110000100100000000001001110101100010110010000000000000000000 L&
#256
b10101010000000000000001000000000000000000000000110111010011110000101000000000001001110101100010110010000000000000000000 L&
#257
b10101010000000000000001000000000000000000000000110111010011110000110000000000001001110101100010110010000000000000000000 L&
#258
b10101010000000000000001000000000000000000000000110111010011110000110100000000001001110101100010110010000000000000000000 L&
#259
b10101010000000000000001000000000000000000000000110111010011110000111000000000001001110101100010110010000000000000000000 L&
#260
b10101010000000000000001000000000000000000000000110111010011110000111100000000001001110101100010110010000000000000000000 L&
#261
b10101010000000000000001000000000000000000000000110111010011110001000100000000001001110101100010110010000000000000000000 L&
#262
b10101010000000000000001000000000000000000000000110111010011110001001000000000001001110101100010110010000000000000000000 L&
#263
b10101010000000000000001000000000000000000000000110111010011110001001100000000001001110101100010110010000000000000000000 L&
#264
b10101010000000000000001000000000000000000000000110111010011110001010100000000001001110101100010110010000000000000000000 L&
#265
b10101010000000000000001000000000000000000000000110111010011110001011000000000001001110101100010110010000000000000000000 L&
#266
b10101010000000000000001000000000000000000000000110111010011110001011100000000001001110101100010110010000000000000000000 L&
#267
b10101010000000000000001000000000000000000000000110111010011110001100000000000001001110101100010110010000000000000000000 L&
#268
b10101010000000000000001000000000000000000000000110111010011110001101000000000001001110101100010110010000000000000000000 L&
#269
b10101010000000000000001000000000000000000000000110111010011110001101100000000001001110101100010110010000000000000000000 L&
#270
b10101010000000000000001000000000000000000000000110111010011110001110000000000001001110101100010110010000000000000000000 L&
#271
b10101010000000000000001000000000000000000000000110111010011110001110100000000001001110101100010110010000000000000000000 L&
#272
b10101010000000000000001000000000000000000000000110111010011110001111100000000001001110101100010110010000000000000000000 L&
#273
b10101010000000000000001000000000000000000000000110111010011110010000000000000001001110101100010110010000000000000000000 L&
#274
b10101010000000000000001000000000000000000000000110111010011110010000100000000001001110101100010110010000000000000000000 L&
#275
b10101010000000000000001000000000000000000000000110111010011110010001100000000001001110101100010110010000000000000000000 L&
#276
b10101010000000000000001000000000000000000000000110111010011110010010000000000001001110101100010110010000000000000000000 L&
#277
b10101010000000000000001000000000000000000000000110111010011110010010100000000001001110101100010110010000000000000000000 L&
#278
b10101010000000000000001000000000000000000000000110111010011110010011000000000001001110101100010110010000000000000000000 L&
#279
b10101010000000000000001000000000000000000000000110111010011110010100000000000001001110101100010110010000000000000000000 L&
#280
b10101010000000000000001000000000000000000000000110111010011110010100100000000001001110101100010110010000000000000000000 L&
#281
b10101010000000000000001000000000000000000000000110111010011110010101000000000001001110101100010110010000000000000000000 L&
#282
b10101010000000000000001000000000000000000000000110111010011110010110000000000001001110101100010110010000000000000000000 L&
#283
b10101010000000000000001000000000000000000000000110111010011110010110100000000001001110101100010110010000000000000000000 L&
#284
b10101010000000000000001000000000000000000000000110111010011110010111000000000001001110101100010110010000000000000000000 L&
#285
b10101010000000000000001000000000000000000000000110111010011110010111100000000001001110101100010110010000000000000000000 L&
#286
b10101010000000000000001000000000000000000000000110111010011110011000100000000001001110101100010110010000000000000000000 L&
#287
b10101010000000000000001000000000000000000000000110111010011110011001000000000001001110101100010110010000000000000000000 L&
#288
b10101010000000000000001000000000000000000000000110111010011110011001100000000001001110101100010110010000000000000000000 L&
#289
b10101010000000000000001000000000000000000000000110111010011110011010100000000001001110101100010110010000000000000000000 L&
#290
b10101010000000000000001000000000000000000000000110111010011110011011000000000001001110101100010110010000000000000000000 L&
#291
b10101010000000000000001000000000000000000000000110111010011110011011100000000001001110101100010110010000000000000000000 L&
#292
b10101010000000000000001000000000000000000000000110111010011110011100000000000001001110101100010110010000000000000000000 L&
#293
b10101010000000000000001000000000000000000000000110111010011110011101000000000001001110101100010110010000000000000000000 L&
#294
b10101010000000000000001000000000000000000000000110111010011110011101100000000001001110101100010110010000000000000000000 L&
#295
b10101010000000000000001000000000000000000000000110111010011110011110000000000001001110101100010110010000000000000000000 L&
#296
b10101010000000000000001000000000000000000000000110111010011110011110100000000001001110101100010110010000000000000000000 L&
#297
b10101010000000000000001000000000000000000000000110111010011110011111100000000001001110101100010110010000000000000000000 L&
#298
b10101010000000000000001000000000000000000000000110111010011110100000000000000001001110101100010110010000000000000000000 L&
#299
b10101010000000000000001000000000000000000000000110111010011110100000100000000001001110101100010110010000000000000000000 L&
#300
b10101010000000000000001000000000000000000000000110111010011110100001100000000001001110101100010110010000000000000000000 L&
#301
b10101010000000000000001000000000000000000000000110111010011110100010000000000001001110101100010110010000000000000000000 L&
#302
b10101010000000000000001000000000000000000000000110111010011110100010100000000001001110101100010110010000000000000000000 L&
#303
b10101010000000000000001000000000000000000000000110111010011110100011000000000001001110101100010110010000000000000000000 L&
#304
b10101010000000000000001000000000000000000000000110111010011110100100000000000001001110101100010110010000000000000000000 L&
#305
b10101010000000000000001000000000000000000000000110111010011110100100100000000001001110101100010110010000000000000000000 L&
#306
b10101010000000000000001000000000000000000000000110111010011110100101000000000001001110101100010110010000000000000000000 L&
