serdes_test/.Xil/Vivado-23148-21-10244/hw_ila_data_3/zip_work/waveform.vcd
$date
        2021-Aug-18 16:09:50
$end
$version
        Vivado v2020.2 (64-bit)
$end
$timescale
        1ps
$end
$scope module dut $end
$var reg 64 " map_dout [63:0] $end
$var reg 64 b prbs_from_check_to_check_source [63:0] $end
$var reg 64 D" gt0_txdata_i [63:0] $end
$var reg 64 &# shifter_dout [63:0] $end
$var reg 7 f# errorCount_to_check_source [6:0] $end
$var reg 1 m# gtwizard_0_exdes_i/rxresetdone_vio_i $end
$var reg 1 n# gtwizard_0_exdes_i/soft_reset_vio_i $end
$var reg 1 o# _TRIGGER $end
$var reg 1 p# _WINDOW $end
$var reg 1 q# _GAP $end
$upscope $end
$enddefinitions $end
#0
$dumpvars
b10110111001010000011010010010000000010111111100111000001011101 "
b11011110110101101100100100011100001011111001010111001101000100 b
b111010010110001101111011010110110010010001110000101111100101011 D"
b0 &#
b11110 f#
0m#
0n#
0o#
1p#
0q#
$end
#1
b111001010100011111001111100011100101001001001101111110010001110 "
b111100010100001100000100000011111110101010011001110111010010110 b
b1100110100010011110001010000110000010000001111111010101001100111 D"
b100010 f#
#2
b1101010110101000110100010100010000100000111011100000111111011010 "
b1101111011010110110010010001110000101111100101011100110100010 b
b1011101001011000110111101101011011001001000111000010111110010101 D"
b11111 f#
#3
b10111100110100011111010111100110010101011001001100111011100001 "
b11110001010000110000010000001111111010101001100111011101001011 b
b1110011010001001111000101000011000001000000111111101010100110011 D"
b100001 f#
#4
b101101110000101000110110100100100000100111011001111000110101010 "
b1000110111101101011011001001000111000010111110010101110011010001 b
b1101110100101100011011110110101101100100100011100001011111001010 D"
b11111 f#
#5
b1111010101000110110111101001111001010010010011011110100000011101 "
b1001111000101000011000001000000111111101010100110011101110100101 b
b111001101000100111100010100001100000100000011111110101010011001 D"
b100001 f#
#6
b1011101001010000101100111001100001000000110011000001111110100101 "
b1100011011110110101101100100100011100001011111001010111001101000 b
b1110111010010110001101111011010110110010010001110000101111100101 D"
b100000 f#
#7
b101111101101001111010101110001100101011110110001000110011010011 "
b100111100010100001100000100000011111110101010011001110111010010 b
b1011100110100010011110001010000110000010000001111111010101001100 D"
#8
b1010011100001011001101101000001100001001110010001111001101010100 "
b110001101111011010110110010010001110000101111100101011100110100 b
b111011101001011000110111101101011011001001000111000010111110010 D"
b100001 f#
#9
b1111101010011100101011000011110110110101100010101100000100111011 "
b10011110001010000110000010000001111111010101001100111011101001 b
b101110011010001001111000101000011000001000000111111101010100110 D"
b100000 f#
#10
b111010010110001011001100011000010010001100010000011111101001011 "
b1011000110111101101011011001001000111000010111110010101110011010 b
b11101110100101100011011110110101101100100100011100001011111001 D"
#11
b1010111011000011110001011101011101010110101000010001100110110111 "
b1001111000101000011000001000000111111101010100110011101110100 b
b1010111001101000100111100010100001100000100000011111110101010011 D"
#12
b100111100010110011011010000011000010010100000011111011110111000 "
b101100011011110110101101100100100011100001011111001010111001101 b
b1001110111010010110001101111011010110110010010001110000101111100 D"
b100001 f#
#13
b1110010100111001010110010111101101101011000101001001001101110110 "
b1000100111100010100001100000100000011111110101010011001110111010 b
b101011100110100010011110001010000110000010000001111111010101001 D"
b100000 f#
#14
b1111100001100010110111000110000000100010000100000111111110000111 "
b10110001101111011010110110010010001110000101111100101011100110 b
b1100111011101001011000110111101101011011001001000111000010111110 D"
b100001 f#
#15
b101110110010111100110101011111010111100010000100011001001101111 "
b100010011110001010000110000010000001111111010101001100111011101 b
b10101110011010001001111000101000011000001000000111111101010100 D"
b11111 f#
#16
b1000111000101101110010100000110100100100000000101111111001110000 "
b1001011000110111101101011011001001000111000010111110010101110011 b
b110011101110100101100011011110110101101100100100011100001011111 D"
b100010 f#
#17
b1101101001110010101000111110011111000111001010010010011011111100 "
b1010001001111000101000011000001000000111111101010100110011101110 b
b1001010111001101000100111100010100001100000100000011111110101010 D"
b11110 f#
#18
b1110000111010101101010001101000101000100001000001110111000001111 "
b100101100011011110110101101100100100011100001011111001010111001 b
b11001110111010010110001101111011010110110010010001110000101111 D"
b100011 f#
#19
b1010101000101111001101000111110101111001100101010110010011001110 "
b1101000100111100010100001100000100000011111110101010011001110111 b
b1100101011100110100010011110001010000110000010000001111111010101 D"
b11101 f#
#20
b1110101011011100001010001101101001001000001001110110011110001 "
b1010010110001101111011010110110010010001110000101111100101011100 b
b1001100111011101001011000110111101101011011001001000111000010111 D"
b100011 f#
#21
b1010010111110101010001101101111010011110010100100100110111101000 "
b110100010011110001010000110000010000001111111010101001100111011 b
b1110010101110011010001001111000101000011000001000000111111101010 D"
b11110 f#
#22
b1101001110111010010100001011001110011000010000001100110000011111 "
b1101001011000110111101101011011001001000111000010111110010101110 b
b100110011101110100101100011011110110101101100100100011100001011 D"
b100011 f#
#23
b101010001011111011010011110101011100011001010111101100010001100 "
b11010001001111000101000011000001000000111111101010100110011101 b
b1111001010111001101000100111100010100001100000100000011111110101 D"
b11110 f#
#24
b11101110100111000010110011011010000011000010011100100011110011 "
b1110100101100011011110110101101100100100011100001011111001010111 b
b1010011001110111010010110001101111011010110110010010001110000101 D"
b100011 f#
#25
b100101111111010100111001010110000111101101101011000101011000001 "
b1001101000100111100010100001100000100000011111110101010011001110 b
b1111100101011100110100010011110001010000110000010000001111111010 D"
b11110 f#
#26
b1011011101110100101100010110011000110000100100011000100000111111 "
b111010010110001101111011010110110010010001110000101111100101011 b
b101001100111011101001011000110111101101011011001001000111000010 D"
b100010 f#
#27
b1011100010101110110000111100010111010111010101101010000100011001 "
b1100110100010011110001010000110000010000001111111010101001100111 b
b111110010101110011010001001111000101000011000001000000111111101 D"
b11111 f#
#28
b111011001001111000101100110110100000110000100101000000111110111 "
b1011101001011000110111101101011011001001000111000010111110010101 b
b1010100110011101110100101100011011110110101101100100100011100001 D"
b100001 f#
#29
b1000011111100101001110010101100101111011011010110001010010010011 "
b1110011010001001111000101000011000001000000111111101010100110011 b
b1011111001010111001101000100111100010100001100000100000011111110 D"
b11111 f#
#30
b110111111111000011000101101110001100000001000100001000001111111 "
b1101110100101100011011110110101101100100100011100001011111001010 b
b101010011001110111010010110001101111011010110110010010001110000 D"
b100001 f#
#31
b111000001011101100101111001101010111110101111000100001000110010 "
b111001101000100111100010100001100000100000011111110101010011001 b
b101111100101011100110100010011110001010000110000010000001111111 D"
b11111 f#
#32
b1111110010001110001011011100101000001101001001000000001011111110 "
b1110111010010110001101111011010110110010010001110000101111100101 b
b1010101001100111011101001011000110111101101011011001001000111000 D"
b100010 f#
#33
b111111011010011100101010001111100111110001110010100100100110 "
b1011100110100010011110001010000110000010000001111111010101001100 b
b10111110010101110011010001001111000101000011000001000000111111 D"
b11111 f#
#34
b1100111011100001110101011010100011010001010001000010000011101110 "
b111011101001011000110111101101011011001001000111000010111110010 b
b1101010100110011101110100101100011011110110101101100100100011100 D"
b100010 f#
#35
b1111000110101010001011110011010001111101011110011001010101100100 "
b101110011010001001111000101000011000001000000111111101010100110 b
b1011111001010111001101000100111100010100001100000100000011111 D"
b11110 f#
#36
b1110100000011101010110111000010100011011010010010000010011101100 "
b11101110100101100011011110110101101100100100011100001011111001 b
b1110101010011001110111010010110001101111011010110110010010001110 D"
b100010 f#
#37
b1111110100101111101010100011011011110100111100101001001001101 "
b1010111001101000100111100010100001100000100000011111110101010011 b
b101111100101011100110100010011110001010000110000010000001111 D"
b11110 f#
#38
b1000110011010011101110100101000010110011100110000100000011001100 "
b1001110111010010110001101111011010110110010010001110000101111100 b
b1111010101001100111011101001011000110111101101011011001001000111 D"
b100011 f#
#39
b1111001101010100010111110110100111101010111000110010101111011000 "
b101011100110100010011110001010000110000010000001111111010101001 b
b1000010111110010101110011010001001111000101000011000001000000111 D"
b11101 f#
#40
b1100000100111011101001110000101100110110100000110000100111001000 "
b1100111011101001011000110111101101011011001001000111000010111110 b
b1111101010100110011101110100101100011011110110101101100100100011 D"
b100011 f#
#41
b11111101001011111110101001110010101100001111011011010110001010 "
b10101110011010001001111000101000011000001000000111111101010100 b
b1100001011111001010111001101000100111100010100001100000100000011 D"
b11110 f#
#42
b1100110110111011101001011000101100110001100001001000110001000 "
b110011101110100101100011011110110101101100100100011100001011111 b
b1111110101010011001110111010010110001101111011010110110010010001 D"
b100010 f#
#43
b1111011110111000101011101100001111000101110101110101011010100001 "
b1001010111001101000100111100010100001100000100000011111110101010 b
b1110000101111100101011100110100010011110001010000110000010000001 D"
b11110 f#
#44
b1001001101110110010011110001011001101101000001100001001010000001 "
b11001110111010010110001101111011010110110010010001110000101111 b
b1111111010101001100111011101001011000110111101101011011001001000 D"
b100011 f#
#45
b111111110000111111001010011100101011001011110110110101100010100 "
b1100101011100110100010011110001010000110000010000001111111010101 b
b111000010111110010101110011010001001111000101000011000001000000 D"
b11110 f#
#46
b11001001101111111110000110001011011100011000000010001000010000 "
b1001100111011101001011000110111101101011011001001000111000010111 b
b111111101010100110011101110100101100011011110110101101100100100 D"
b100010 f#
#47
b1111111001110000010111011001011110011010101111101011110001000010 "
b1110010101110011010001001111000101000011000001000000111111101010 b
b11100001011111001010111001101000100111100010100001100000100000 D"
b11111 f#
#48
b10011011111100100011100010110111001010000011010010010000000010 "
b100110011101110100101100011011110110101101100100100011100001011 b
b11111110101010011001110111010010110001101111011010110110010010 D"
b100010 f#
#49
b1110111000001111110110100111001010100011111001111100011100101001 "
b1111001010111001101000100111100010100001100000100000011111110101 b
b1110000101111100101011100110100010011110001010000110000010000 D"
b11110 f#
#50
b110010011001110111000011101010110101000110100010100010000100000 "
b1010011001110111010010110001101111011010110110010010001110000101 b
b1111111010101001100111011101001011000110111101101011011001001 D"
b100011 f#
#51
b1110110011110001101010100010111100110100011111010111100110010101 "
b1111100101011100110100010011110001010000110000010000001111111010 b
b1000111000010111110010101110011010001001111000101000011000001000 D"
b11101 f#
#52
b100110111101000000111010101101110000101000110110100100100000100 "
b101001100111011101001011000110111101101011011001001000111000010 b
b111111101010100110011101110100101100011011110110101101100100 D"
b100100 f#
#53
b1100110000011111101001011111010101000110110111101001111001010010 "
b111110010101110011010001001111000101000011000001000000111111101 b
b100011100001011111001010111001101000100111100010100001100000100 D"
b11101 f#
#54
b1101100010001100110100111011101001010000101100111001100001000000 "
b1010100110011101110100101100011011110110101101100100100011100001 b
b11111110101010011001110111010010110001101111011010110110010 D"
b100011 f#
#55
b1100100011110011010101000101111101101001111010101110001100101011 "
b1011111001010111001101000100111100010100001100000100000011111110 b
b10001110000101111100101011100110100010011110001010000110000010 D"
b11110 f#
#56
b1000101011000001001110111010011100001011001101101000001100001001 "
b101010011001110111010010110001101111011010110110010010001110000 b
b1111111010101001100111011101001011000110111101101011011001 D"
b100011 f#
#57
b1000100000111111010010111111101010011100101011000011110110110101 "
b101111100101011100110100010011110001010000110000010000001111111 b
b1001000111000010111110010101110011010001001111000101000011000001 D"
b11110 f#
#58
b1010000100011001101101110111010010110001011001100011000010010001 "
b1010101001100111011101001011000110111101101011011001001000111000 b
b1000000111111101010100110011101110100101100011011110110101101100 D"
b100011 f#
#59
b1000000111110111101110001010111011000011110001011101011101010110 "
b10111110010101110011010001001111000101000011000001000000111111 b
b100100011100001011111001010111001101000100111100010100001100000 D"
b11101 f#
#60
b1010010010011011101100100111100010110011011010000011000010010 "
b1101010100110011101110100101100011011110110101101100100100011100 b
b100000011111110101010011001110111010010110001101111011010110110 D"
b100100 f#
#61
b1000001111111100001111110010100111001010110010111101101101011 "
b1011111001010111001101000100111100010100001100000100000011111 b
b10010001110000101111100101011100110100010011110001010000110000 D"
b11101 f#
#62
b100001000110010011011111111100001100010110111000110000000100010 "
b1110101010011001110111010010110001101111011010110110010010001110 b
b10000001111111010101001100111011101001011000110111101101011011 D"
b100011 f#
#63
b1011111110011100000101110110010111100110101011111010111100 "
b101111100101011100110100010011110001010000110000010000001111 b
b1001001000111000010111110010101110011010001001111000101000011000 D"
b11101 f#
#64
b10100100100110111111001000111000101101110010100000110100100100 "
b1111010101001100111011101001011000110111101101011011001001000111 b
b1000000111111101010100110011101110100101100011011110110101101 D"
b100011 f#
#65
b10000011101110000011111101101001110010101000111110011111000111 "
b1000010111110010101110011010001001111000101000011000001000000111 b
b1100100100011100001011111001010111001101000100111100010100001100 D"
b11110 f#
#66
b1001010101100100110011101110000111010101101010001101000101000100 "
b1111101010100110011101110100101100011011110110101101100100100011 b
b100000011111110101010011001110111010010110001101111011010110 D"
b100011 f#
#67
b10011101100111100011010101000101111001101000111110101111001 "
b1100001011111001010111001101000100111100010100001100000100000011 b
b110010010001110000101111100101011100110100010011110001010000110 D"
b11101 f#
#68
b101001001001101111010000001110101011011100001010001101101001001 "
b1111110101010011001110111010010110001101111011010110110010010001 b
b10000001111111010101001100111011101001011000110111101101011 D"
b100100 f#
#69
b100000011001100000111111010010111110101010001101101111010011110 "
b1110000101111100101011100110100010011110001010000110000010000001 b
b1011001001000111000010111110010101110011010001001111000101000011 D"
b11100 f#
#70
b10101111011000100011001101001110111010010100001011001110011000 "
b1111111010101001100111011101001011000110111101101011011001001000 b
b1000001000000111111101010100110011101110100101100011011110110101 D"
b100100 f#
#71
b100111001000111100110101010001011111011010011110101011100011 "
b111000010111110010101110011010001001111000101000011000001000000 b
b1101100100100011100001011111001010111001101000100111100010100001 D"
b11101 f#
#72
b1011010110001010110000010011101110100111000010110011011010000011 "
b111111101010100110011101110100101100011011110110101101100100100 b
b1100000100000011111110101010011001110111010010110001101111011010 D"
b100011 f#
#73
b1001000110001000001111110100101111111010100111001010110000111101 "
b11100001011111001010111001101000100111100010100001100000100000 b
b110110010010001110000101111100101011100110100010011110001010000 D"
b11110 f#
#74
b101011010100001000110011011011101110100101100010110011000110000 "
b11111110101010011001110111010010110001101111011010110110010010 b
b110000010000001111111010101001100111011101001011000110111101101 D"
b100011 f#
#75
b1001010000001111101111011100010101110110000111100010111010111 "
b1110000101111100101011100110100010011110001010000110000010000 b
b1011011001001000111000010111110010101110011010001001111000101000 D"
b11110 f#
#76
b110101100010100100100110111011001001111000101100110110100000110 "
b1111111010101001100111011101001011000110111101101011011001001 b
b11000001000000111111101010100110011101110100101100011011110110 D"
b100010 f#
#77
b10001000010000011111111000011111100101001110010101100101111011 "
b1000111000010111110010101110011010001001111000101000011000001000 b
b101101100100100011100001011111001010111001101000100111100010100 D"
b11111 f#
#78
b1011110001000010001100100110111111111000011000101101110001100000 "
b111111101010100110011101110100101100011011110110101101100100 b
b1100000100000011111110101010011001110111010010110001101111011 D"
b100010 f#
#79
b10010000000010111111100111000001011101100101111001101010111110 "
b100011100001011111001010111001101000100111100010100001100000100 b
b1010110110010010001110000101111100101011100110100010011110001010 D"
b11111 f#
#80
b1100011100101001001001101111110010001110001011011100101000001101 "
b11111110101010011001110111010010110001101111011010110110010 b
b110000010000001111111010101001100111011101001011000110111101 D"
b100001 f#
#81
b100010000100000111011100000111111011010011100101010001111100111 "
b10001110000101111100101011100110100010011110001010000110000010 b
b1101011011001001000111000010111110010101110011010001001111000101 D"
b11111 f#
#82
b111100110010101011001001100111011100001110101011010100011010001 "
b1111111010101001100111011101001011000110111101101011011001 b
b1000011000001000000111111101010100110011101110100101100011011110 D"
b100010 f#
#83
b100100100000100111011001111000110101010001011110011010001111101 "
b1001000111000010111110010101110011010001001111000101000011000001 b
b110101101100100100011100001011111001010111001101000100111100010 D"
b11111 f#
#84
b1001111001010010010011011110100000011101010110111000010100011011 "
b1000000111111101010100110011101110100101100011011110110101101100 b
b100001100000100000011111110101010011001110111010010110001101111 D"
b100001 f#
#85
b1001100001000000110011000001111110100101111101010100011011011110 "
b100100011100001011111001010111001101000100111100010100001100000 b
b1011010110110010010001110000101111100101011100110100010011110001 D"
b11111 f#
#86
b1110001100101011110110001000110011010011101110100101000010110011 "
b100000011111110101010011001110111010010110001101111011010110110 b
b1010000110000010000001111111010101001100111011101001011000110111 D"
b100010 f#
#87
b1000001100001001110010001111001101010100010111110110100111101010 "
b10010001110000101111100101011100110100010011110001010000110000 b
b1101101011011001001000111000010111110010101110011010001001111000 D"
b11110 f#
#88
b11110110110101100010101100000100111011101001110000101100110110 "
b10000001111111010101001100111011101001011000110111101101011011 b
b101000011000001000000111111101010100110011101110100101100011011 D"
b100011 f#
#89
b11000010010001100010000011111101001011111110101001110010101100 "
b1001001000111000010111110010101110011010001001111000101000011000 b
b1110110101101100100100011100001011111001010111001101000100111100 D"
b11101 f#
#90
b1101011101010110101000010001100110110111011101001011000101100110 "
b1000000111111101010100110011101110100101100011011110110101101 b
b10100001100000100000011111110101010011001110111010010110001101 D"
b100100 f#
#91
b11000010010100000011111011110111000101011101100001111000101 "
b1100100100011100001011111001010111001101000100111100010100001100 b
b1111011010110110010010001110000101111100101011100110100010011110 D"
b11100 f#
#92
b111101101101011000101001001001101110110010011110001011001101101 "
b100000011111110101010011001110111010010110001101111011010110 b
b1010000110000010000001111111010101001100111011101001011000110 D"
b100101 f#
#93
b110000000100010000100000111111110000111111001010011100101011001 "
b110010010001110000101111100101011100110100010011110001010000110 b
b111101101011011001001000111000010111110010101110011010001001111 D"
b11100 f#
#94
b1011111010111100010000100011001001101111111110000110001011011100 "
b10000001111111010101001100111011101001011000110111101101011 b
b1000101000011000001000000111111101010100110011101110100101100011 D"
b100101 f#
#95
b110100100100000000101111111001110000010111011001011110011010 "
b1011001001000111000010111110010101110011010001001111000101000011 b
b1011110110101101100100100011100001011111001010111001101000100111 D"
b11100 f#
#96
b1110011111000111001010010010011011111100100011100010110111001010 "
b1000001000000111111101010100110011101110100101100011011110110101 b
b1100010100001100000100000011111110101010011001110111010010110001 D"
b100101 f#
#97
b1101000101000100001000001110111000001111110110100111001010100011 "
b1101100100100011100001011111001010111001101000100111100010100001 b
b1101111011010110110010010001110000101111100101011100110100010011 D"
b11100 f#
#98
b111110101111001100101010110010011001110111000011101010110101000 "
b1100000100000011111110101010011001110111010010110001101111011010 b
b1110001010000110000010000001111111010101001100111011101001011000 D"
b100101 f#
#99
b1101101001001000001001110110011110001101010100010111100110100 "
b110110010010001110000101111100101011100110100010011110001010000 b
b110111101101011011001001000111000010111110010101110011010001001 D"
b11011 f#
#100
b1101111010011110010100100100110111101000000111010101101110000101 "
b110000010000001111111010101001100111011101001011000110111101101 b
b1111000101000011000001000000111111101010100110011101110100101100 D"
b100101 f#
#101
b1011001110011000010000001100110000011111101001011111010101000110 "
b1011011001001000111000010111110010101110011010001001111000101000 b
b11011110110101101100100100011100001011111001010111001101000100 D"
b11011 f#
#102
b1110101011100011001010111101100010001100110100111011101001010000 "
b11000001000000111111101010100110011101110100101100011011110110 b
b111100010100001100000100000011111110101010011001110111010010110 D"
b100101 f#
#103
b11011010000011000010011100100011110011010101000101111101101001 "
b101101100100100011100001011111001010111001101000100111100010100 b
b1101111011010110110010010001110000101111100101011100110100010 D"
b11011 f#
#104
b1010110000111101101101011000101011000001001110111010011100001011 "
b1100000100000011111110101010011001110111010010110001101111011 b
b11110001010000110000010000001111111010101001100111011101001011 D"
b100101 f#
#105
b110011000110000100100011000100000111111010010111111101010011100 "
b1010110110010010001110000101111100101011100110100010011110001010 b
b1000110111101101011011001001000111000010111110010101110011010001 D"
b11100 f#
#106
b1100010111010111010101101010000100011001101101110111010010110001 "
b110000010000001111111010101001100111011101001011000110111101 b
b1001111000101000011000001000000111111101010100110011101110100101 D"
b100100 f#
#107
b110110100000110000100101000000111110111101110001010111011000011 "
b1101011011001001000111000010111110010101110011010001001111000101 b
b1100011011110110101101100100100011100001011111001010111001101000 D"
b11100 f#
#108
b101100101111011011010110001010010010011011101100100111100010110 "
b1000011000001000000111111101010100110011101110100101100011011110 b
b100111100010100001100000100000011111110101010011001110111010010 D"
b100100 f#
#109
b1101110001100000001000100001000001111111100001111110010100111001 "
b110101101100100100011100001011111001010111001101000100111100010 b
b110001101111011010110110010010001110000101111100101011100110100 D"
b11100 f#
#110
b1001101010111110101111000100001000110010011011111111100001100010 "
b100001100000100000011111110101010011001110111010010110001101111 b
b10011110001010000110000010000001111111010101001100111011101001 D"
b100100 f#
#111
b1100101000001101001001000000001011111110011100000101110110010111 "
b1011010110110010010001110000101111100101011100110100010011110001 b
b1011000110111101101011011001001000111000010111110010101110011010 D"
b11101 f#
#112
b1010001111100111110001110010100100100110111111001000111000101101 "
b1010000110000010000001111111010101001100111011101001011000110111 b
b1001111000101000011000001000000111111101010100110011101110100 D"
b100100 f#
#113
b1010100011010001010001000010000011101110000011111101101001110010 "
b1101101011011001001000111000010111110010101110011010001001111000 b
b101100011011110110101101100100100011100001011111001010111001101 D"
b11100 f#
#114
b11010001111101011110011001010101100100110011101110000111010101 "
b101000011000001000000111111101010100110011101110100101100011011 b
b1000100111100010100001100000100000011111110101010011001110111010 D"
b100100 f#
#115
b1000010100011011010010010000010011101100111100011010101000101111 "
b1110110101101100100100011100001011111001010111001101000100111100 b
b10110001101111011010110110010010001110000101111100101011100110 D"
b11100 f#
#116
b100011011011110100111100101001001001101111010000001110101011011 "
b10100001100000100000011111110101010011001110111010010110001101 b
b100010011110001010000110000010000001111111010101001100111011101 D"
b100100 f#
#117
b101000010110011100110000100000011001100000111111010010111110101 "
b1111011010110110010010001110000101111100101011100110100010011110 b
b1001011000110111101101011011001001000111000010111110010101110011 D"
b11101 f#
#118
b110100111101010111000110010101111011000100011001101001110111010 "
b1010000110000010000001111111010101001100111011101001011000110 b
b1010001001111000101000011000001000000111111101010100110011101110 D"
b100011 f#
#119
b101100110110100000110000100111001000111100110101010001011111 "
b111101101011011001001000111000010111110010101110011010001001111 b
b100101100011011110110101101100100100011100001011111001010111001 D"
b11110 f#
#120
b1001110010101100001111011011010110001010110000010011101110100111 "
b1000101000011000001000000111111101010100110011101110100101100011 b
b1101000100111100010100001100000100000011111110101010011001110111 D"
b100010 f#
#121
b1011000101100110001100001001000110001000001111110100101111111010 "
b1011110110101101100100100011100001011111001010111001101000100111 b
b1010010110001101111011010110110010010001110000101111100101011100 D"
b11110 f#
#122
b1100001111000101110101110101011010100001000110011011011101110100 "
b1100010100001100000100000011111110101010011001110111010010110001 b
b110100010011110001010000110000010000001111111010101001100111011 D"
b100010 f#
#123
b1011001101101000001100001001010000001111101111011100010101110 "
b1101111011010110110010010001110000101111100101011100110100010011 b
b1101001011000110111101101011011001001000111000010111110010101110 D"
b11111 f#
#124
b11100101011001011110110110101100010100100100110111011001001111 "
b1110001010000110000010000001111111010101001100111011101001011000 b
b11010001001111000101000011000001000000111111101010100110011101 D"
b100010 f#
#125
b110001011011100011000000010001000010000011111111000011111100101 "
b110111101101011011001001000111000010111110010101110011010001001 b
b1110100101100011011110110101101100100100011100001011111001010111 D"
b11111 f#
#126
b1001011110011010101111101011110001000010001100100110111111111000 "
b1111000101000011000001000000111111101010100110011101110100101100 b
b1001101000100111100010100001100000100000011111110101010011001110 D"
b100010 f#
#127
b10110111001010000011010010010000000010111111100111000001011101 "
b11011110110101101100100100011100001011111001010111001101000100 b
b111010010110001101111011010110110010010001110000101111100101011 D"
b11110 f#
#128
b111001010100011111001111100011100101001001001101111110010001110 "
b111100010100001100000100000011111110101010011001110111010010110 b
b1100110100010011110001010000110000010000001111111010101001100111 D"
b100010 f#
#129
b1101010110101000110100010100010000100000111011100000111111011010 "
b1101111011010110110010010001110000101111100101011100110100010 b
b1011101001011000110111101101011011001001000111000010111110010101 D"
b11111 f#
#130
b10111100110100011111010111100110010101011001001100111011100001 "
b11110001010000110000010000001111111010101001100111011101001011 b
b1110011010001001111000101000011000001000000111111101010100110011 D"
b100001 f#
#131
b101101110000101000110110100100100000100111011001111000110101010 "
b1000110111101101011011001001000111000010111110010101110011010001 b
b1101110100101100011011110110101101100100100011100001011111001010 D"
b11111 f#
#132
b1111010101000110110111101001111001010010010011011110100000011101 "
b1001111000101000011000001000000111111101010100110011101110100101 b
b111001101000100111100010100001100000100000011111110101010011001 D"
b100001 f#
#133
b1011101001010000101100111001100001000000110011000001111110100101 "
b1100011011110110101101100100100011100001011111001010111001101000 b
b1110111010010110001101111011010110110010010001110000101111100101 D"
b100000 f#
#134
b101111101101001111010101110001100101011110110001000110011010011 "
b100111100010100001100000100000011111110101010011001110111010010 b
b1011100110100010011110001010000110000010000001111111010101001100 D"
#135
b1010011100001011001101101000001100001001110010001111001101010100 "
b110001101111011010110110010010001110000101111100101011100110100 b
b111011101001011000110111101101011011001001000111000010111110010 D"
b100001 f#
#136
b1111101010011100101011000011110110110101100010101100000100111011 "
b10011110001010000110000010000001111111010101001100111011101001 b
b101110011010001001111000101000011000001000000111111101010100110 D"
b100000 f#
#137
b111010010110001011001100011000010010001100010000011111101001011 "
b1011000110111101101011011001001000111000010111110010101110011010 b
b11101110100101100011011110110101101100100100011100001011111001 D"
#138
b1010111011000011110001011101011101010110101000010001100110110111 "
b1001111000101000011000001000000111111101010100110011101110100 b
b1010111001101000100111100010100001100000100000011111110101010011 D"
#139
b100111100010110011011010000011000010010100000011111011110111000 "
b101100011011110110101101100100100011100001011111001010111001101 b
b1001110111010010110001101111011010110110010010001110000101111100 D"
b100001 f#
#140
b1110010100111001010110010111101101101011000101001001001101110110 "
b1000100111100010100001100000100000011111110101010011001110111010 b
b101011100110100010011110001010000110000010000001111111010101001 D"
b100000 f#
#141
b1111100001100010110111000110000000100010000100000111111110000111 "
b10110001101111011010110110010010001110000101111100101011100110 b
b1100111011101001011000110111101101011011001001000111000010111110 D"
b100001 f#
#142
b101110110010111100110101011111010111100010000100011001001101111 "
b100010011110001010000110000010000001111111010101001100111011101 b
b10101110011010001001111000101000011000001000000111111101010100 D"
b11111 f#
#143
b1000111000101101110010100000110100100100000000101111111001110000 "
b1001011000110111101101011011001001000111000010111110010101110011 b
b110011101110100101100011011110110101101100100100011100001011111 D"
b100010 f#
#144
b1101101001110010101000111110011111000111001010010010011011111100 "
b1010001001111000101000011000001000000111111101010100110011101110 b
b1001010111001101000100111100010100001100000100000011111110101010 D"
b11110 f#
#145
b1110000111010101101010001101000101000100001000001110111000001111 "
b100101100011011110110101101100100100011100001011111001010111001 b
b11001110111010010110001101111011010110110010010001110000101111 D"
b100011 f#
#146
b1010101000101111001101000111110101111001100101010110010011001110 "
b1101000100111100010100001100000100000011111110101010011001110111 b
b1100101011100110100010011110001010000110000010000001111111010101 D"
b11101 f#
#147
b1110101011011100001010001101101001001000001001110110011110001 "
b1010010110001101111011010110110010010001110000101111100101011100 b
b1001100111011101001011000110111101101011011001001000111000010111 D"
b100011 f#
#148
b1010010111110101010001101101111010011110010100100100110111101000 "
b110100010011110001010000110000010000001111111010101001100111011 b
b1110010101110011010001001111000101000011000001000000111111101010 D"
b11110 f#
#149
b1101001110111010010100001011001110011000010000001100110000011111 "
b1101001011000110111101101011011001001000111000010111110010101110 b
b100110011101110100101100011011110110101101100100100011100001011 D"
b100011 f#
#150
b101010001011111011010011110101011100011001010111101100010001100 "
b11010001001111000101000011000001000000111111101010100110011101 b
b1111001010111001101000100111100010100001100000100000011111110101 D"
b11110 f#
#151
b11101110100111000010110011011010000011000010011100100011110011 "
b1110100101100011011110110101101100100100011100001011111001010111 b
b1010011001110111010010110001101111011010110110010010001110000101 D"
b100011 f#
#152
b100101111111010100111001010110000111101101101011000101011000001 "
b1001101000100111100010100001100000100000011111110101010011001110 b
b1111100101011100110100010011110001010000110000010000001111111010 D"
b11110 f#
#153
b1011011101110100101100010110011000110000100100011000100000111111 "
b111010010110001101111011010110110010010001110000101111100101011 b
b101001100111011101001011000110111101101011011001001000111000010 D"
b100010 f#
#154
b1011100010101110110000111100010111010111010101101010000100011001 "
b1100110100010011110001010000110000010000001111111010101001100111 b
b111110010101110011010001001111000101000011000001000000111111101 D"
b11111 f#
#155
b111011001001111000101100110110100000110000100101000000111110111 "
b1011101001011000110111101101011011001001000111000010111110010101 b
b1010100110011101110100101100011011110110101101100100100011100001 D"
b100001 f#
#156
b1000011111100101001110010101100101111011011010110001010010010011 "
b1110011010001001111000101000011000001000000111111101010100110011 b
b1011111001010111001101000100111100010100001100000100000011111110 D"
b11111 f#
#157
b110111111111000011000101101110001100000001000100001000001111111 "
b1101110100101100011011110110101101100100100011100001011111001010 b
b101010011001110111010010110001101111011010110110010010001110000 D"
b100001 f#
#158
b111000001011101100101111001101010111110101111000100001000110010 "
b111001101000100111100010100001100000100000011111110101010011001 b
b101111100101011100110100010011110001010000110000010000001111111 D"
b11111 f#
#159
b1111110010001110001011011100101000001101001001000000001011111110 "
b1110111010010110001101111011010110110010010001110000101111100101 b
b1010101001100111011101001011000110111101101011011001001000111000 D"
b100010 f#
#160
b111111011010011100101010001111100111110001110010100100100110 "
b1011100110100010011110001010000110000010000001111111010101001100 b
b10111110010101110011010001001111000101000011000001000000111111 D"
b11111 f#
#161
b1100111011100001110101011010100011010001010001000010000011101110 "
b111011101001011000110111101101011011001001000111000010111110010 b
b1101010100110011101110100101100011011110110101101100100100011100 D"
b100010 f#
#162
b1111000110101010001011110011010001111101011110011001010101100100 "
b101110011010001001111000101000011000001000000111111101010100110 b
b1011111001010111001101000100111100010100001100000100000011111 D"
b11110 f#
#163
b1110100000011101010110111000010100011011010010010000010011101100 "
b11101110100101100011011110110101101100100100011100001011111001 b
b1110101010011001110111010010110001101111011010110110010010001110 D"
b100010 f#
#164
b1111110100101111101010100011011011110100111100101001001001101 "
b1010111001101000100111100010100001100000100000011111110101010011 b
b101111100101011100110100010011110001010000110000010000001111 D"
b11110 f#
#165
b1000110011010011101110100101000010110011100110000100000011001100 "
b1001110111010010110001101111011010110110010010001110000101111100 b
b1111010101001100111011101001011000110111101101011011001001000111 D"
b100011 f#
#166
b1111001101010100010111110110100111101010111000110010101111011000 "
b101011100110100010011110001010000110000010000001111111010101001 b
b1000010111110010101110011010001001111000101000011000001000000111 D"
b11101 f#
